<?xml version="1.0" encoding="UTF-8" standalone="no"?>
<!-- Created with Inkscape (http://www.inkscape.org/) -->

<svg
   xmlns:ns2="http://ns.adobe.com/AdobeIllustrator/10.0/"
   xmlns:dc="http://purl.org/dc/elements/1.1/"
   xmlns:cc="http://creativecommons.org/ns#"
   xmlns:rdf="http://www.w3.org/1999/02/22-rdf-syntax-ns#"
   xmlns:svg="http://www.w3.org/2000/svg"
   xmlns="http://www.w3.org/2000/svg"
   xmlns:sodipodi="http://sodipodi.sourceforge.net/DTD/sodipodi-0.dtd"
   xmlns:inkscape="http://www.inkscape.org/namespaces/inkscape"
   id="svg2"
   version="1.1"
   inkscape:version="0.92.4 (5da689c313, 2019-01-14)"
   xml:space="preserve"
   width="5.4000001cm"
   height="5.4000001cm"
   viewBox="0 0 191.33858 191.33858"
   sodipodi:docname="adesivo-hexagonal-debian-e-logo.svg"
   inkscape:export-filename="/srv/adesivos/debian-hexagonal/adesivo-hexagonal-debian-e-logo.png"
   inkscape:export-xdpi="95.955551"
   inkscape:export-ydpi="95.955551"><metadata
     id="metadata8"><rdf:RDF><cc:Work
         rdf:about=""><dc:format>image/svg+xml</dc:format><dc:type
           rdf:resource="http://purl.org/dc/dcmitype/StillImage" /><dc:title /></cc:Work></rdf:RDF></metadata><defs
     id="defs6"><clipPath
       clipPathUnits="userSpaceOnUse"
       id="clipPath16"><path
         d="M 0,153 153,153 153,0 0,0 0,153 Z"
         id="path18"
         inkscape:connector-curvature="0" /></clipPath><clipPath
       clipPathUnits="userSpaceOnUse"
       id="clipPath30"><path
         d="M 0,153 153,153 153,0 0,0 0,153 Z"
         id="path32"
         inkscape:connector-curvature="0" /></clipPath><clipPath
       clipPathUnits="userSpaceOnUse"
       id="clipPath18"><path
         d="M 0,153 H 153 V 0 H 0 Z"
         id="path16"
         inkscape:connector-curvature="0" /></clipPath><clipPath
       clipPathUnits="userSpaceOnUse"
       id="clipPath32"><path
         d="M 0,153 H 153 V 0 H 0 Z"
         id="path30"
         inkscape:connector-curvature="0" /></clipPath></defs><sodipodi:namedview
     pagecolor="#ffffff"
     bordercolor="#666666"
     borderopacity="1"
     objecttolerance="10"
     gridtolerance="10"
     guidetolerance="10"
     inkscape:pageopacity="0"
     inkscape:pageshadow="2"
     inkscape:window-width="1280"
     inkscape:window-height="655"
     id="namedview4"
     showgrid="false"
     inkscape:zoom="1.7451211"
     inkscape:cx="4.4569377"
     inkscape:cy="109.40148"
     inkscape:window-x="0"
     inkscape:window-y="0"
     inkscape:window-maximized="1"
     inkscape:current-layer="g5855"
     units="cm" /><g
     id="g10"
     inkscape:groupmode="layer"
     inkscape:label="padrao_adesivo_5x5"
     transform="matrix(1.25,0,0,-1.25,0,191.33858)"><g
       transform="matrix(0.92222903,0,0,-0.92222903,-31.650985,170.60366)"
       id="g5855"><path
         sodipodi:type="star"
         style="display:inline;fill:#000000;fill-opacity:1;stroke:none;stroke-width:0.83672655;stroke-miterlimit:4;stroke-dasharray:none;stroke-dashoffset:0;stroke-opacity:1"
         id="path4229"
         sodipodi:sides="6"
         sodipodi:cx="117.3097"
         sodipodi:cy="102.00094"
         sodipodi:r1="82.83593"
         sodipodi:r2="71.738022"
         sodipodi:arg1="-1.5707963"
         sodipodi:arg2="-1.0471976"
         inkscape:flatsided="true"
         inkscape:rounded="0"
         inkscape:randomized="0"
         d="m 117.3097,19.165009 71.73802,41.417966 0,82.835935 -71.73802,41.41796 -71.738021,-41.41797 3e-6,-82.835928 z" /><g
         id="g4912"
         transform="matrix(1.1294291,0,0,1.1294291,-19.333001,-15.379061)"><path
           d="m 120.98387,41.471241 54.08967,31.228687 0,62.457372 -54.08967,31.22868 -54.089669,-31.22868 2e-6,-62.457375 z"
           inkscape:randomized="0"
           inkscape:rounded="0"
           inkscape:flatsided="true"
           sodipodi:arg2="-1.0471976"
           sodipodi:arg1="-1.5707963"
           sodipodi:r2="54.089664"
           sodipodi:r1="62.457371"
           sodipodi:cy="103.92861"
           sodipodi:cx="120.98387"
           sodipodi:sides="6"
           id="path4234"
           style="opacity:0.98999999;fill:#000000;fill-opacity:1;stroke:none;stroke-width:0.40662348;stroke-miterlimit:4;stroke-dasharray:none;stroke-dashoffset:0;stroke-opacity:1"
           sodipodi:type="star" /></g><g
         id="g273"
         transform="matrix(0.95505618,0,0,0.95505618,5.2723468,10.490345)"><g
           style="display:inline;opacity:0.98999999"
           transform="matrix(0.83074763,0,0,0.83074763,81.188427,37.135247)"
           id="Layer_1"
           ns2:layer="yes"
           ns2:dimmedPercent="50"
           ns2:rgbTrio="#4F008000FFFF"><g
             id="g4680"><path
               style="fill:#a80030"
               inkscape:connector-curvature="0"
               ns2:knockout="Off"
               d="m 51.986,57.297 c -1.797,0.025 0.34,0.926 2.686,1.287 0.648,-0.506 1.236,-1.018 1.76,-1.516 -1.461,0.358 -2.948,0.366 -4.446,0.229"
               id="path4682-3" /><path
               style="fill:#a80030"
               inkscape:connector-curvature="0"
               ns2:knockout="Off"
               d="m 61.631,54.893 c 1.07,-1.477 1.85,-3.094 2.125,-4.766 -0.24,1.192 -0.887,2.221 -1.496,3.307 -3.359,2.115 -0.316,-1.256 -0.002,-2.537 -3.612,4.546 -0.496,2.726 -0.627,3.996"
               id="path4684-6" /><path
               style="fill:#a80030"
               inkscape:connector-curvature="0"
               ns2:knockout="Off"
               d="m 65.191,45.629 c 0.217,-3.236 -0.637,-2.213 -0.924,-0.978 0.335,0.174 0.6,2.281 0.924,0.978"
               id="path4686-7" /><path
               style="fill:#a80030"
               inkscape:connector-curvature="0"
               ns2:knockout="Off"
               d="m 45.172,1.399 c 0.959,0.172 2.072,0.304 1.916,0.533 1.049,-0.23 1.287,-0.442 -1.916,-0.533"
               id="path4688-5" /><path
               style="fill:#a80030"
               inkscape:connector-curvature="0"
               ns2:knockout="Off"
               d="M 47.088,1.932 46.41,2.072 47.041,2.016 47.088,1.932"
               id="path4690-3" /><path
               style="fill:#a80030"
               inkscape:connector-curvature="0"
               ns2:knockout="Off"
               d="m 76.992,46.856 c 0.107,2.906 -0.85,4.316 -1.713,6.812 l -1.553,0.776 c -1.271,2.468 0.123,1.567 -0.787,3.53 -1.984,1.764 -6.021,5.52 -7.313,5.863 -0.943,-0.021 0.639,-1.113 0.846,-1.541 -2.656,1.824 -2.131,2.738 -6.193,3.846 L 60.16,65.878 C 50.142,70.591 36.226,61.251 36.409,48.507 c -0.107,0.809 -0.304,0.607 -0.526,0.934 -0.517,-6.557 3.028,-13.143 9.007,-15.832 5.848,-2.895 12.704,-1.707 16.893,2.197 -2.301,-3.014 -6.881,-6.209 -12.309,-5.91 -5.317,0.084 -10.291,3.463 -11.951,7.131 -2.724,1.715 -3.04,6.611 -4.227,7.507 -1.597,11.737 3.004,16.808 10.787,22.773 1.225,0.826 0.345,0.951 0.511,1.58 -2.586,-1.211 -4.954,-3.039 -6.901,-5.277 1.033,1.512 2.148,2.982 3.589,4.137 -2.438,-0.826 -5.695,-5.908 -6.646,-6.115 4.203,7.525 17.052,13.197 23.78,10.383 -3.113,0.115 -7.068,0.064 -10.566,-1.229 -1.469,-0.756 -3.467,-2.322 -3.11,-2.615 9.182,3.43 18.667,2.598 26.612,-3.771 2.021,-1.574 4.229,-4.252 4.867,-4.289 -0.961,1.445 0.164,0.695 -0.574,1.971 2.014,-3.248 -0.875,-1.322 2.082,-5.609 l 1.092,1.504 c -0.406,-2.696 3.348,-5.97 2.967,-10.234 0.861,-1.304 0.961,1.403 0.047,4.403 1.268,-3.328 0.334,-3.863 0.66,-6.609 0.352,0.923 0.814,1.904 1.051,2.878 -0.826,-3.216 0.848,-5.416 1.262,-7.285 -0.408,-0.181 -1.275,1.422 -1.473,-2.377 0.029,-1.65 0.459,-0.865 0.625,-1.271 -0.324,-0.186 -1.174,-1.451 -1.691,-3.877 0.375,-0.57 1.002,1.478 1.512,1.562 -0.328,-1.929 -0.893,-3.4 -0.916,-4.88 -1.49,-3.114 -0.527,0.415 -1.736,-1.337 -1.586,-4.947 1.316,-1.148 1.512,-3.396 2.404,3.483 3.775,8.881 4.404,11.117 -0.48,-2.726 -1.256,-5.367 -2.203,-7.922 0.73,0.307 -1.176,-5.609 0.949,-1.691 C 83.519,18.706 76.074,10.902 69.225,7.24 70.063,8.007 71.121,8.97 70.741,9.121 67.335,7.093 67.934,6.935 67.446,6.078 64.671,4.949 64.489,6.169 62.651,6.08 57.421,3.306 56.413,3.601 51.6,1.863 l 0.219,1.023 c -3.465,-1.154 -4.037,0.438 -7.782,0.004 -0.228,-0.178 1.2,-0.644 2.375,-0.815 -3.35,0.442 -3.193,-0.66 -6.471,0.122 0.808,-0.567 1.662,-0.942 2.524,-1.424 -2.732,0.166 -6.522,1.59 -5.352,0.295 -4.456,1.988 -12.37,4.779 -16.811,8.943 l -0.14,-0.933 c -2.035,2.443 -8.874,7.296 -9.419,10.46 l -0.544,0.127 c -1.059,1.793 -1.744,3.825 -2.584,5.67 -1.385,2.36 -2.03,0.908 -1.833,1.278 -2.724,5.523 -4.077,10.164 -5.246,13.97 0.833,1.245 0.02,7.495 0.335,12.497 -1.368,24.704 17.338,48.69 37.785,54.228 2.997,1.072 7.454,1.031 11.245,1.141 -4.473,-1.279 -5.051,-0.678 -9.408,-2.197 -3.143,-1.48 -3.832,-3.17 -6.058,-5.102 l 0.881,1.557 c -4.366,-1.545 -2.539,-1.912 -6.091,-3.037 l 0.941,-1.229 C 28.751,98.334 26.418,96.056 25.78,94.795 l -1.548,0.061 c -1.86,-2.295 -2.851,-3.949 -2.779,-5.23 l -0.5,0.891 c -0.567,-0.973 -6.843,-8.607 -3.587,-6.83 -0.605,-0.553 -1.409,-0.9 -2.281,-2.484 l 0.663,-0.758 c -1.567,-2.016 -2.884,-4.6 -2.784,-5.461 0.836,1.129 1.416,1.34 1.99,1.533 -3.957,-9.818 -4.179,-0.541 -7.176,-9.994 L 8.412,66.472 C 7.926,65.74 7.631,64.945 7.24,64.165 l 0.276,-2.75 C 4.667,58.121 6.719,47.409 7.13,41.534 7.415,39.145 9.508,36.602 11.1,32.614 l -0.97,-0.167 c 1.854,-3.234 10.586,-12.988 14.63,-12.486 1.959,-2.461 -0.389,-0.009 -0.772,-0.629 4.303,-4.453 5.656,-3.146 8.56,-3.947 3.132,-1.859 -2.688,0.725 -1.203,-0.709 5.414,-1.383 3.837,-3.144 10.9,-3.846 0.745,0.424 -1.729,0.655 -2.35,1.205 4.511,-2.207 14.275,-1.705 20.617,1.225 7.359,3.439 15.627,13.605 15.953,23.17 l 0.371,0.1 c -0.188,3.802 0.582,8.199 -0.752,12.238 l 0.908,-1.912"
               id="path4692-5" /><path
               style="fill:#a80030"
               inkscape:connector-curvature="0"
               ns2:knockout="Off"
               d="m 32.372,59.764 -0.252,1.26 c 1.181,1.604 2.118,3.342 3.626,4.596 -1.085,-2.118 -1.891,-2.993 -3.374,-5.856"
               id="path4694-6" /><path
               style="fill:#a80030"
               inkscape:connector-curvature="0"
               ns2:knockout="Off"
               d="m 35.164,59.654 c -0.625,-0.691 -0.995,-1.523 -1.409,-2.352 0.396,1.457 1.207,2.709 1.962,3.982 l -0.553,-1.63"
               id="path4696-2" /><path
               style="fill:#a80030"
               inkscape:connector-curvature="0"
               ns2:knockout="Off"
               d="m 84.568,48.916 -0.264,0.662 c -0.484,3.438 -1.529,6.84 -3.131,9.994 1.77,-3.328 2.915,-6.968 3.395,-10.656"
               id="path4698-9" /><path
               style="fill:#a80030"
               inkscape:connector-curvature="0"
               ns2:knockout="Off"
               d="M 45.527,0.537 C 46.742,0.092 48.514,0.293 49.803,0 48.123,0.141 46.451,0.225 44.8,0.438 l 0.727,0.099"
               id="path4700-1" /><path
               style="fill:#a80030"
               inkscape:connector-curvature="0"
               ns2:knockout="Off"
               d="m 2.872,23.219 c 0.28,2.592 -1.95,3.598 0.494,1.889 1.31,-2.951 -0.512,-0.815 -0.494,-1.889"
               id="path4702-2" /><path
               style="fill:#a80030"
               inkscape:connector-curvature="0"
               ns2:knockout="Off"
               d="M 0,35.215 C 0.563,33.487 0.665,32.449 0.88,31.449 -0.676,33.438 0.164,33.862 0,35.215"
               id="path4704-7" /></g></g><g
           transform="matrix(0.85012051,0,0,0.85012051,-131.86001,36.514785)"
           id="g102"><path
             style="overflow:visible;fill:#ffffff;stroke-width:0.78283596"
             ns2:knockout="Off"
             d="m 261.04841,124.20382 c -0.0352,0.0368 -0.0352,5.87598 -0.10803,7.40016 -0.072,1.23218 -0.18162,3.88051 -2.79316,3.88051 -2.68434,0 -3.33723,-3.08359 -3.55486,-4.42459 -0.25363,-1.48739 -0.25363,-2.72191 -0.25363,-3.26442 0,-1.74181 0.10881,-6.60401 4.20774,-6.60401 1.23375,0 1.92265,0.36402 2.46671,0.65289 z m -10.51896,4.28134 c 0,10.22853 5.44149,10.22853 6.2392,10.22853 2.24909,0 3.70047,-1.23375 4.31656,-3.37323 l 0.0728,3.22762 c 0.68968,-0.0368 1.37857,-0.10881 2.50272,-0.10881 0.39925,0 0.72491,0 1.01613,0.0368 0.29043,0 0.58008,0.0352 0.90652,0.072 -0.58008,-1.16016 -1.01534,-3.7717 -1.01534,-9.43239 0,-5.51351 0,-14.83552 0.47127,-17.66547 -1.30498,0.61766 -2.43071,1.0169 -4.89742,1.23375 0.97933,1.05213 0.97933,1.5962 0.97933,6.38324 -0.68811,-0.21684 -1.55941,-0.47127 -3.0468,-0.47127 -6.49284,7.1e-4 -7.54497,5.65991 -7.54497,9.86922"
             id="path33"
             inkscape:connector-curvature="0" /><path
             style="overflow:visible;fill:#ffffff;stroke-width:0.78283596"
             ns2:knockout="Off"
             d="m 270.20211,126.63297 c 0.0368,-3.01079 0.65367,-5.69513 3.22842,-5.69513 2.82995,0 3.04602,3.11882 2.97399,5.69513 z m 9.79328,0.36402 c 0,-4.24454 -0.83372,-8.41706 -6.20241,-8.41706 -7.39936,0 -7.39936,8.20021 -7.39936,9.93967 0,7.36336 3.30043,10.26533 8.85074,10.26533 2.46515,0 3.66368,-0.36089 4.31656,-0.54407 -0.036,-1.30577 0.14482,-2.14027 0.36402,-3.26442 -0.76327,0.47282 -1.7426,1.08892 -3.91888,1.08892 -5.65912,0 -5.73193,-5.15263 -5.73193,-6.92967 h 9.65081 l 0.0704,-2.1387"
             id="path35"
             inkscape:connector-curvature="0" /><path
             style="overflow:visible;fill:#ffffff;stroke-width:0.78283596"
             ns2:knockout="Off"
             d="m 291.79664,128.5564 c 0,3.37324 -0.61608,7.90821 -4.82383,7.90821 -0.58087,0 -1.30577,-0.11039 -1.77703,-0.21842 -0.0728,-1.30577 -0.0728,-3.55486 -0.0728,-6.16639 0,-3.12039 0.32567,-4.75026 0.58087,-5.55032 0.76092,-2.57474 2.46593,-2.60997 2.79159,-2.60997 2.75715,0 3.30122,3.8085 3.30122,6.63689 z m -10.41015,3.9541 c 0,2.68513 0,4.20774 -0.43526,5.36791 1.48739,0.58086 3.33645,0.90652 5.55032,0.90652 1.41458,0 5.51351,0 7.7258,-4.5334 1.05213,-2.10427 1.41458,-4.93422 1.41458,-7.07449 0,-1.30577 -0.14561,-4.17095 -1.19695,-5.98557 -1.01456,-1.70344 -2.64755,-2.57474 -4.3878,-2.57474 -3.48284,0 -4.49817,2.90197 -5.04146,4.38936 0,-1.84984 0.0352,-8.30667 0.32488,-11.60789 -2.35712,1.08892 -3.80928,1.26897 -5.36791,1.41458 1.41458,0.5793 1.41458,2.97556 1.41458,10.77495 v 8.92277"
             id="path37"
             inkscape:connector-curvature="0" /><path
             style="overflow:visible;fill:#ffffff;stroke-width:0.78283596"
             ns2:knockout="Off"
             d="m 302.61543,138.56808 c -0.72647,-0.10881 -1.23531,-0.18162 -2.28744,-0.18162 -1.1586,0 -1.95865,0.0736 -2.7916,0.18162 0.36246,-0.68967 0.50728,-1.0169 0.6161,-3.37323 0.14561,-3.22921 0.18162,-11.8631 -0.072,-13.67693 -0.18162,-1.37936 -0.50727,-1.59621 -1.01533,-1.95866 2.97399,-0.29044 3.80849,-0.50728 5.18628,-1.16016 -0.28886,1.59463 -0.32722,2.39469 -0.32722,4.82383 -0.0712,12.51677 -0.10803,13.85776 0.69124,15.34515"
             id="path39"
             inkscape:connector-curvature="0" /><path
             style="overflow:visible;fill:#ffffff;stroke-width:0.78283596"
             ns2:knockout="Off"
             d="m 314.23116,128.30119 c -0.072,2.28588 -0.10882,3.88208 -0.72648,5.15106 -0.76169,1.63299 -2.03067,2.10426 -2.97399,2.10426 -2.17863,0 -2.64833,-1.81305 -2.64833,-3.59009 0,-3.40924 3.04758,-3.66523 4.42459,-3.66523 z m -9.97647,4.46295 c 0,2.28588 0.68968,4.57019 2.72193,5.5503 0.90652,0.39925 1.81304,0.39925 2.10426,0.39925 3.33801,0 4.46138,-2.4675 5.15106,-3.99089 -0.0368,1.5962 0,2.57474 0.10881,3.84528 0.65289,-0.0368 1.30577,-0.10881 2.3947,-0.10881 0.61609,0 1.19696,0.072 1.81305,0.10881 -0.39925,-0.61609 -0.61609,-0.9801 -0.72647,-2.39469 -0.072,-1.37779 -0.072,-2.75636 -0.072,-4.67901 l 0.0368,-7.40015 c 0,-2.75793 -0.72647,-5.47829 -6.16796,-5.47829 -3.59009,0 -5.69358,1.08893 -6.7457,1.633 0.43604,0.79849 0.79849,1.48582 1.12415,3.04758 1.41615,-1.23375 3.26599,-1.88664 5.15106,-1.88664 3.01235,0 3.01235,1.99545 3.01235,4.82384 -0.68967,-0.0352 -1.27054,-0.10725 -2.25065,-0.10725 -4.60856,7.1e-4 -7.65536,1.77547 -7.65536,6.63767"
             id="path41"
             inkscape:connector-curvature="0" /><path
             style="overflow:visible;fill:#ffffff;stroke-width:0.78283596"
             ns2:knockout="Off"
             d="m 335.12505,134.97722 c 0.0368,1.23375 0.0368,2.53952 0.54407,3.59164 -0.79928,-0.072 -1.27054,-0.18161 -2.75636,-0.18161 -0.8713,0 -1.34257,0.0736 -2.03225,0.18161 0.14405,-0.47126 0.21841,-0.65288 0.29044,-1.27054 0.10881,-0.83293 0.18161,-3.62688 0.18161,-4.60699 v -3.9173 c 0,-1.70502 0,-4.17252 -0.11038,-5.04225 -0.072,-0.6161 -0.25207,-2.28432 -2.3579,-2.28432 -2.06747,0 -2.75637,1.52262 -3.01079,2.75636 -0.28886,1.26898 -0.28886,2.64834 -0.28886,8.01624 0.0352,4.64379 0.0352,5.07748 0.39768,6.34802 -0.61609,-0.072 -1.37779,-0.14404 -2.46593,-0.14404 -0.8713,0 -1.45138,0.0353 -2.17551,0.14404 0.25364,-0.58086 0.39925,-0.87129 0.47127,-2.90197 0.0736,-1.99545 0.21841,-11.79029 -0.11038,-14.11062 -0.18005,-1.41615 -0.54407,-1.74181 -0.94175,-2.10427 2.93877,-0.1456 3.88052,-0.61765 4.78861,-1.08735 v 3.84372 c 0.43447,-1.12572 1.341,-3.62844 4.96944,-3.62844 4.53497,0 4.57019,3.30122 4.60699,5.47672 v 10.92135"
             id="path43"
             inkscape:connector-curvature="0" /><path
             ns2:knockout="Off"
             d="m 302.92152,113.26526 -3.00452,3.00296 -3.00296,-3.00296 3.00296,-3.00296 3.00452,3.00296"
             id="path45"
             inkscape:connector-curvature="0"
             style="overflow:visible;fill:#a80030;stroke-width:0.78283596" /></g></g></g></g></svg>