%!PS-Adobe-3.0
%%Creator: cairo 1.14.6 (http://cairographics.org)
%%CreationDate: Mon Aug 15 15:07:43 2016
%%Pages: 1
%%DocumentData: Clean7Bit
%%LanguageLevel: 2
%%DocumentMedia: 54x54mm 153 153 0 () ()
%%BoundingBox: 15 6 138 147
%%EndComments
%%BeginProlog
/languagelevel where
{ pop languagelevel } { 1 } ifelse
2 lt { /Helvetica findfont 12 scalefont setfont 50 500 moveto
  (This print job requires a PostScript Language Level 2 printer.) show
  showpage quit } if
/q { gsave } bind def
/Q { grestore } bind def
/cm { 6 array astore concat } bind def
/w { setlinewidth } bind def
/J { setlinecap } bind def
/j { setlinejoin } bind def
/M { setmiterlimit } bind def
/d { setdash } bind def
/m { moveto } bind def
/l { lineto } bind def
/c { curveto } bind def
/h { closepath } bind def
/re { exch dup neg 3 1 roll 5 3 roll moveto 0 rlineto
      0 exch rlineto 0 rlineto closepath } bind def
/S { stroke } bind def
/f { fill } bind def
/f* { eofill } bind def
/n { newpath } bind def
/W { clip } bind def
/W* { eoclip } bind def
/BT { } bind def
/ET { } bind def
/pdfmark where { pop globaldict /?pdfmark /exec load put }
    { globaldict begin /?pdfmark /pop load def /pdfmark
    /cleartomark load def end } ifelse
/BDC { mark 3 1 roll /BDC pdfmark } bind def
/EMC { mark /EMC pdfmark } bind def
/cairo_store_point { /cairo_point_y exch def /cairo_point_x exch def } def
/Tj { show currentpoint cairo_store_point } bind def
/TJ {
  {
    dup
    type /stringtype eq
    { show } { -0.001 mul 0 cairo_font_matrix dtransform rmoveto } ifelse
  } forall
  currentpoint cairo_store_point
} bind def
/cairo_selectfont { cairo_font_matrix aload pop pop pop 0 0 6 array astore
    cairo_font exch selectfont cairo_point_x cairo_point_y moveto } bind def
/Tf { pop /cairo_font exch def /cairo_font_matrix where
      { pop cairo_selectfont } if } bind def
/Td { matrix translate cairo_font_matrix matrix concatmatrix dup
      /cairo_font_matrix exch def dup 4 get exch 5 get cairo_store_point
      /cairo_font where { pop cairo_selectfont } if } bind def
/Tm { 2 copy 8 2 roll 6 array astore /cairo_font_matrix exch def
      cairo_store_point /cairo_font where { pop cairo_selectfont } if } bind def
/g { setgray } bind def
/rg { setrgbcolor } bind def
/d1 { setcachedevice } bind def
/cairo_set_page_size {
  % Change paper size, but only if different from previous paper size otherwise
  % duplex fails. PLRM specifies a tolerance of 5 pts when matching paper size
  % so we use the same when checking if the size changes.
  /setpagedevice where {
    pop currentpagedevice
    /PageSize known {
      2 copy
      currentpagedevice /PageSize get aload pop
      exch 4 1 roll
      sub abs 5 gt
      3 1 roll
      sub abs 5 gt
      or
    } {
      true
    } ifelse
    {
      2 array astore
      2 dict begin
        /PageSize exch def
        /ImagingBBox null def
      currentdict end
      setpagedevice
    } {
      pop pop
    } ifelse
  } {
    pop
  } ifelse
} def
%%EndProlog
%%BeginSetup
%%EndSetup
%%Page: 1 1
%%BeginPageSetup
%%PageMedia: 54x54mm
%%PageBoundingBox: 15 6 138 147
153 153 cairo_set_page_size
%%EndPageSetup
q 15 6 123 141 rectclip q
1 0 0 rg
0.306056 w
0 J
0 j
[] 0.0 d
4 M q 1 0 0 -1 0 153 cm
78.723 6.266 m 70.867 6.5 63.105 10.316 59.035 17.691 c 58.023 19.527 57.559
 21.777 57.352 24.73 c 57.145 27.688 57.098 31.773 57.098 38.48 c 57.098
 52.684 l 55.438 55.008 l 49.258 63.672 46.605 67.965 44.805 72.578 c 43.992
 74.656 41.852 79.594 40.238 83.113 c 38.125 87.719 36.719 90.957 36.871
 94.973 c 36.914 96.137 35.566 98.457 31.848 99.664 c 28.957 100.602 26.426
 101.465 24.348 104 c 22.27 106.535 22.117 109.973 22.512 112.52 c 22.535
 112.676 22.523 112.582 22.539 112.672 c 22.543 112.586 22.371 112.898 21.082
 114.152 c 16.605 118.504 14.297 124.66 16.262 130.145 c 18.23 135.625 23.113
 139.336 29.578 142.207 c 33.367 143.887 36.543 144.66 45.746 146.285 c 
48.84 146.832 52.008 146.59 56.051 146.34 c 60.09 146.086 64.148 145.695
 67.094 145.062 c 69.828 144.477 73.09 143.5 75.512 142.461 c 76.234 142.152
 76.598 142.02 76.785 141.953 c 76.449 141.945 76.539 141.906 78.012 142.539
 c 80.73 143.703 84.723 144.789 88.262 145.523 c 97.723 147.477 107.707 
147 116.266 144.758 c 124.828 142.516 132.379 138.805 135.754 131.699 c 
137.109 128.844 137.441 124.992 136.57 121.727 c 136.434 121.215 136.438
 121.18 136.391 120.91 c 136.855 120.109 137.211 119.215 137.359 118.23 
c 137.633 116.434 137.211 114.727 136.594 113.41 c 135.355 110.785 133.535
 109.039 131.086 106.883 c 128.559 104.66 128.406 104.648 128.051 103.438
 c 127.695 102.23 127.445 98.715 127.258 91.68 c 127.078 84.773 126.359 
81.508 124.047 76.148 c 122.273 72.043 118.309 65.305 114.609 59.75 c 106.711
 47.887 105.828 45.672 105.07 35.648 c 104.27 25.066 102.051 18.445 96.934
 13.332 c 92.793 9.191 87.457 6.91 82.09 6.367 c 80.977 6.254 79.848 6.234
 78.723 6.266 c h
78.723 6.266 m S Q
Q Q
showpage
%%Trailer
%%EOF
