%!PS-Adobe-3.0
%%Creator: cairo 1.14.8 (http://cairographics.org)
%%CreationDate: Mon Jul 10 17:16:27 2017
%%Pages: 1
%%DocumentData: Clean7Bit
%%LanguageLevel: 2
%%DocumentMedia: 44x54mm 125 153 0 () ()
%%BoundingBox: 6 6 119 148
%%EndComments
%%BeginProlog
/languagelevel where
{ pop languagelevel } { 1 } ifelse
2 lt { /Helvetica findfont 12 scalefont setfont 50 500 moveto
  (This print job requires a PostScript Language Level 2 printer.) show
  showpage quit } if
/q { gsave } bind def
/Q { grestore } bind def
/cm { 6 array astore concat } bind def
/w { setlinewidth } bind def
/J { setlinecap } bind def
/j { setlinejoin } bind def
/M { setmiterlimit } bind def
/d { setdash } bind def
/m { moveto } bind def
/l { lineto } bind def
/c { curveto } bind def
/h { closepath } bind def
/re { exch dup neg 3 1 roll 5 3 roll moveto 0 rlineto
      0 exch rlineto 0 rlineto closepath } bind def
/S { stroke } bind def
/f { fill } bind def
/f* { eofill } bind def
/n { newpath } bind def
/W { clip } bind def
/W* { eoclip } bind def
/BT { } bind def
/ET { } bind def
/pdfmark where { pop globaldict /?pdfmark /exec load put }
    { globaldict begin /?pdfmark /pop load def /pdfmark
    /cleartomark load def end } ifelse
/BDC { mark 3 1 roll /BDC pdfmark } bind def
/EMC { mark /EMC pdfmark } bind def
/cairo_store_point { /cairo_point_y exch def /cairo_point_x exch def } def
/Tj { show currentpoint cairo_store_point } bind def
/TJ {
  {
    dup
    type /stringtype eq
    { show } { -0.001 mul 0 cairo_font_matrix dtransform rmoveto } ifelse
  } forall
  currentpoint cairo_store_point
} bind def
/cairo_selectfont { cairo_font_matrix aload pop pop pop 0 0 6 array astore
    cairo_font exch selectfont cairo_point_x cairo_point_y moveto } bind def
/Tf { pop /cairo_font exch def /cairo_font_matrix where
      { pop cairo_selectfont } if } bind def
/Td { matrix translate cairo_font_matrix matrix concatmatrix dup
      /cairo_font_matrix exch def dup 4 get exch 5 get cairo_store_point
      /cairo_font where { pop cairo_selectfont } if } bind def
/Tm { 2 copy 8 2 roll 6 array astore /cairo_font_matrix exch def
      cairo_store_point /cairo_font where { pop cairo_selectfont } if } bind def
/g { setgray } bind def
/rg { setrgbcolor } bind def
/d1 { setcachedevice } bind def
/cairo_set_page_size {
  % Change paper size, but only if different from previous paper size otherwise
  % duplex fails. PLRM specifies a tolerance of 5 pts when matching paper size
  % so we use the same when checking if the size changes.
  /setpagedevice where {
    pop currentpagedevice
    /PageSize known {
      2 copy
      currentpagedevice /PageSize get aload pop
      exch 4 1 roll
      sub abs 5 gt
      3 1 roll
      sub abs 5 gt
      or
    } {
      true
    } ifelse
    {
      2 array astore
      2 dict begin
        /PageSize exch def
        /ImagingBBox null def
      currentdict end
      setpagedevice
    } {
      pop pop
    } ifelse
  } {
    pop
  } ifelse
} def
%%EndProlog
%%BeginSetup
%%EndSetup
%%Page: 1 1
%%BeginPageSetup
%%PageMedia: 44x54mm
%%PageBoundingBox: 6 6 119 148
125 154 cairo_set_page_size
%%EndPageSetup
q 6 6 113 142 rectclip q
1 0 0 rg
0.358037 w
0 J
0 j
[] 0.0 d
4 M q 1 0 0 -1 0 153.070862 cm
66.609 7.074 m 73.406 8.734 76.965 10.906 80.539 15.578 c 85.93 22.621 
87.996 27.449 95.004 49.375 c 98.457 60.172 100.801 65.617 107.715 78.906
 c 115.555 93.965 118.086 101.156 118.383 109.195 c 118.668 116.949 116.324
 122.293 110.836 126.418 c 106.516 129.664 105.434 130 93.016 131.93 c 83.84
 132.578 82.266 133.852 74.824 138.824 c 65.27 145.215 62.777 146.426 59.031
 146.5 c 53.676 146.609 51.07 145.113 41.344 136.359 c 33.262 129.078 30.391
 127.262 22.617 124.492 c 9.922 119.969 5.559 115.328 6.434 107.285 c 6.855
 103.43 7.992 100.617 15.512 84.785 c 22.594 69.871 23.742 66.559 26.242
 53.797 c 30.578 31.68 33.508 24.047 40.609 16.383 c 48.82 7.992 56.605 
4.68 66.609 7.074 c h
66.609 7.074 m S Q
Q Q
showpage
%%Trailer
%%EOF
