%!PS-Adobe-3.0
%%Creator: cairo 1.14.8 (http://cairographics.org)
%%CreationDate: Mon Feb 20 11:59:21 2017
%%Pages: 1
%%DocumentData: Clean7Bit
%%LanguageLevel: 2
%%DocumentMedia: 84x54mm 238 153 0 () ()
%%BoundingBox: 5 6 233 148
%%EndComments
%%BeginProlog
/languagelevel where
{ pop languagelevel } { 1 } ifelse
2 lt { /Helvetica findfont 12 scalefont setfont 50 500 moveto
  (This print job requires a PostScript Language Level 2 printer.) show
  showpage quit } if
/q { gsave } bind def
/Q { grestore } bind def
/cm { 6 array astore concat } bind def
/w { setlinewidth } bind def
/J { setlinecap } bind def
/j { setlinejoin } bind def
/M { setmiterlimit } bind def
/d { setdash } bind def
/m { moveto } bind def
/l { lineto } bind def
/c { curveto } bind def
/h { closepath } bind def
/re { exch dup neg 3 1 roll 5 3 roll moveto 0 rlineto
      0 exch rlineto 0 rlineto closepath } bind def
/S { stroke } bind def
/f { fill } bind def
/f* { eofill } bind def
/n { newpath } bind def
/W { clip } bind def
/W* { eoclip } bind def
/BT { } bind def
/ET { } bind def
/pdfmark where { pop globaldict /?pdfmark /exec load put }
    { globaldict begin /?pdfmark /pop load def /pdfmark
    /cleartomark load def end } ifelse
/BDC { mark 3 1 roll /BDC pdfmark } bind def
/EMC { mark /EMC pdfmark } bind def
/cairo_store_point { /cairo_point_y exch def /cairo_point_x exch def } def
/Tj { show currentpoint cairo_store_point } bind def
/TJ {
  {
    dup
    type /stringtype eq
    { show } { -0.001 mul 0 cairo_font_matrix dtransform rmoveto } ifelse
  } forall
  currentpoint cairo_store_point
} bind def
/cairo_selectfont { cairo_font_matrix aload pop pop pop 0 0 6 array astore
    cairo_font exch selectfont cairo_point_x cairo_point_y moveto } bind def
/Tf { pop /cairo_font exch def /cairo_font_matrix where
      { pop cairo_selectfont } if } bind def
/Td { matrix translate cairo_font_matrix matrix concatmatrix dup
      /cairo_font_matrix exch def dup 4 get exch 5 get cairo_store_point
      /cairo_font where { pop cairo_selectfont } if } bind def
/Tm { 2 copy 8 2 roll 6 array astore /cairo_font_matrix exch def
      cairo_store_point /cairo_font where { pop cairo_selectfont } if } bind def
/g { setgray } bind def
/rg { setrgbcolor } bind def
/d1 { setcachedevice } bind def
/cairo_set_page_size {
  % Change paper size, but only if different from previous paper size otherwise
  % duplex fails. PLRM specifies a tolerance of 5 pts when matching paper size
  % so we use the same when checking if the size changes.
  /setpagedevice where {
    pop currentpagedevice
    /PageSize known {
      2 copy
      currentpagedevice /PageSize get aload pop
      exch 4 1 roll
      sub abs 5 gt
      3 1 roll
      sub abs 5 gt
      or
    } {
      true
    } ifelse
    {
      2 array astore
      2 dict begin
        /PageSize exch def
        /ImagingBBox null def
      currentdict end
      setpagedevice
    } {
      pop pop
    } ifelse
  } {
    pop
  } ifelse
} def
%%EndProlog
%%BeginSetup
%%EndSetup
%%Page: 1 1
%%BeginPageSetup
%%PageMedia: 84x54mm
%%PageBoundingBox: 5 6 233 148
239 154 cairo_set_page_size
%%EndPageSetup
q 5 6 228 142 rectclip q
0.8 0 0 rg
0.658088 w
0 J
0 j
[] 0.0 d
4 M q 1 0 0 -1 0 153.070862 cm
116.926 7.215 m 113.484 7.172 109.887 8.098 106.969 10.184 c 104.699 11.805
 102.93 14.414 102.52 17.48 c 101.844 17.875 101.371 18.316 100.973 18.66
 c 97.789 16.047 94.457 13.996 91.793 11.82 c 91.688 11.738 91.578 11.66
 91.465 11.59 c 88.93 10.027 85.914 10.039 83.461 11.219 c 81.16 12.324 
79.324 14.781 79.172 17.727 c 78.527 19.676 78.551 21.465 78.508 22.824 
c 78.484 23.465 78.398 23.855 78.332 24.18 c 77.711 24.309 76.758 24.445
 76.457 24.469 c 76.145 24.492 76.109 24.445 76.203 24.488 c 76.297 24.527
 76.367 24.668 76.227 24.418 c 76.098 24.188 75.938 23.977 75.754 23.789
 c 73.27 21.254 69.973 20.27 66.961 20.348 c 63.996 20.418 61.227 21.375
 58.84 22.629 c 52.324 25.301 46.312 30.258 43.793 37.379 c 43.5 38.211 
43.586 39.125 44.023 39.891 c 45.402 42.281 47.082 43.504 48.348 44.402 
c 48.305 44.57 48.301 44.617 48.273 44.766 c 48.266 44.766 48.258 44.766
 48.25 44.766 c 38.422 44.746 28.582 44.641 18.727 44.582 c 15.926 44.562
 14.617 48.043 16.738 49.879 c 21.664 54.141 26.574 59.32 31.133 64.062 
c 30.773 64.504 30.398 64.988 30.16 65.238 c 29.816 65.605 29.641 65.676
 29.727 65.645 c 29.816 65.613 30.043 65.695 29.695 65.555 c 29.504 65.473
 29.301 65.418 29.098 65.379 c 23.004 64.277 15.781 65.965 12.246 72.09 
c 9.602 75.473 7.473 79.762 6.656 84.355 c 5.828 89.004 6.418 94.117 9.633
 98.219 c 9.738 98.355 9.859 98.484 9.992 98.602 c 12.684 101.02 16.055 
100.883 18.418 100.672 c 20.344 100.504 21.273 100.555 21.828 100.605 c 
21.984 100.945 22.086 101.316 22.273 101.625 c 17.793 102.867 13.902 105.629
 11.23 109.297 c 7.242 114.773 5.496 122.008 7.277 128.746 c 8.379 136.066
 13.773 141.691 20.188 144.266 c 26.418 146.762 33.996 146.34 39.527 141.414
 c 43.66 145.621 49.715 146.355 54.805 145.184 c 56.711 145.723 58.449 145.371
 59.43 145.172 c 60.598 144.938 60.555 144.906 60.848 145.102 c 61.082 145.258
 61.336 145.379 61.602 145.461 c 64.027 146.23 66.258 145.504 67.891 144.625
 c 68.293 144.41 68.59 144.156 68.941 143.922 c 71.828 146.098 75.852 146.297
 78.914 144.371 c 80.52 145.168 82.281 145.449 83.816 145.332 c 85.312 145.219
 86.613 144.82 87.809 144.312 c 89.652 145.363 91.723 145.574 93.332 145.531
 c 95.52 145.477 97.277 145.27 98.188 145.484 c 98.895 145.648 99.633 145.555
 100.277 145.215 c 101.188 144.738 102.098 144.863 103.996 145.27 c 105.762
 145.648 108.285 146.238 111.07 145.391 c 113.543 145.035 115.484 143.82
 117.07 142.676 c 117.812 142.145 118.152 141.879 118.746 141.418 c 123.496
 145.676 130.312 146.43 136.031 144.93 c 138.48 145.484 140.789 145.34 142.742
 145.109 c 144.969 144.848 146.812 144.648 148.297 144.977 c 148.664 145.059
 149.043 145.07 149.414 145.012 c 151.48 144.691 154.34 145.141 157.512 
145.383 c 160.688 145.625 164.445 145.586 167.75 143.266 c 167.883 143.172
 168.008 143.07 168.125 142.957 c 168.559 142.535 168.766 142.051 169.086
 141.594 c 169.934 142.785 170.969 143.926 172.449 144.684 c 174.16 145.559
 176.352 145.754 178.477 145.164 c 180.52 144.691 182.059 143.574 183.363
 142.273 c 183.426 142.383 183.426 142.488 183.496 142.598 c 184.469 144.086
 186.367 145.062 188.293 145.238 c 191.469 145.984 194.68 145.164 197.062
 143.273 c 197.988 142.535 198.734 141.562 199.352 140.5 c 207.723 148.699
 223.285 146.738 228.641 135.676 c 228.715 135.527 228.773 135.371 228.82
 135.211 c 232.137 123.867 228.262 115.949 222.625 112.105 c 219.805 110.18
 216.695 109.16 213.887 108.715 c 213.871 108.711 213.855 108.715 213.84
 108.711 c 214.895 107.082 215.922 105.258 216.535 103.074 c 220.246 102.602
 224.883 101.992 228.434 99.293 c 228.766 99.035 229.047 98.715 229.246 
98.344 c 235.672 86.652 229.645 71.203 218.07 65.688 c 217.863 65.586 217.641
 65.512 217.414 65.461 c 214.254 64.773 211.59 65.668 209.75 65.828 c 208.832
 65.906 208.199 65.832 207.902 65.727 c 207.609 65.617 207.504 65.605 207.18
 64.977 c 207.078 64.777 206.953 64.594 206.812 64.422 c 206.434 63.965 
206.102 63.766 205.738 63.457 c 210.738 58.5 215.402 53.359 220.418 48.852
 c 222.434 47.035 221.215 43.691 218.504 43.598 c 209.469 43.285 200.137
 44.02 191.922 43.504 c 193.723 41.445 194.438 38.754 194.055 36.367 c 193.602
 33.504 191.984 30.977 189.645 29.25 c 184.086 23.812 175.512 18.852 166.754
 21.492 c 166.59 21.539 166.434 21.602 166.285 21.676 c 164.09 22.762 163.195
 24.309 162.613 24.875 c 162.602 24.871 162.59 24.863 162.578 24.855 c 161.246
 24.082 160.141 24.195 159.34 24.273 c 158.789 21.258 159.273 16.836 156.449
 12.523 c 156.359 12.391 156.262 12.262 156.152 12.145 c 154.859 10.73 153.098
 9.844 151.395 9.711 c 149.691 9.582 148.199 10.074 146.938 10.695 c 144.422
 11.93 142.469 13.785 141.219 14.727 c 141.551 14.508 l 139.461 15.684 138.195
 17.234 137.355 17.82 c 137.066 18.02 137.102 17.988 137.086 18 c 137.066
 17.98 137.09 18 137.062 17.973 c 136.875 17.785 136.664 17.617 136.434 
17.484 c 136.398 17.34 136.352 17.188 136.281 16.715 c 136.09 15.461 135.883
 12.938 133.621 11.23 c 128.965 6.746 122.258 7.477 118.141 7.277 c 118.293
 7.289 l 117.844 7.246 117.391 7.219 116.926 7.215 c h
196.875 137.652 m 196.91 137.703 196.957 137.734 196.992 137.785 c 197.051
 137.859 197.066 137.918 197.129 137.988 c h
196.875 137.652 m S Q
Q Q
showpage
%%Trailer
%%EOF
