<?xml version="1.0" encoding="UTF-8" standalone="no"?>
<!-- Created with Inkscape (http://www.inkscape.org/) -->

<svg
   xmlns:dc="http://purl.org/dc/elements/1.1/"
   xmlns:cc="http://creativecommons.org/ns#"
   xmlns:rdf="http://www.w3.org/1999/02/22-rdf-syntax-ns#"
   xmlns:svg="http://www.w3.org/2000/svg"
   xmlns="http://www.w3.org/2000/svg"
   xmlns:sodipodi="http://sodipodi.sourceforge.net/DTD/sodipodi-0.dtd"
   xmlns:inkscape="http://www.inkscape.org/namespaces/inkscape"
   width="8.3999996cm"
   height="5.4000001cm"
   viewBox="0 0 297.63777 191.33859"
   id="svg23947"
   version="1.1"
   inkscape:version="0.92.0 r15299"
   sodipodi:docname="adesivo-curitiba-faca.svg">
  <defs
     id="defs23949">
    <clipPath
       clipPathUnits="userSpaceOnUse"
       id="clipPath30">
      <path
         d="M 0,153 H 124.725 V 0 H 0 Z"
         id="path32"
         inkscape:connector-curvature="0" />
    </clipPath>
    <clipPath
       clipPathUnits="userSpaceOnUse"
       id="clipPath16">
      <path
         d="M 0,153 H 124.725 V 0 H 0 Z"
         id="path18"
         inkscape:connector-curvature="0" />
    </clipPath>
  </defs>
  <sodipodi:namedview
     id="base"
     pagecolor="#ffffff"
     bordercolor="#666666"
     borderopacity="1.0"
     inkscape:pageopacity="0.0"
     inkscape:pageshadow="2"
     inkscape:zoom="2.8"
     inkscape:cx="154.24311"
     inkscape:cy="105.22153"
     inkscape:document-units="px"
     inkscape:current-layer="g24274"
     showgrid="false"
     units="cm"
     inkscape:window-width="1920"
     inkscape:window-height="1021"
     inkscape:window-x="0"
     inkscape:window-y="0"
     inkscape:window-maximized="1" />
  <metadata
     id="metadata23952">
    <rdf:RDF>
      <cc:Work
         rdf:about="">
        <dc:format>image/svg+xml</dc:format>
        <dc:type
           rdf:resource="http://purl.org/dc/dcmitype/StillImage" />
        <dc:title></dc:title>
      </cc:Work>
    </rdf:RDF>
  </metadata>
  <g
     inkscape:label="Camada 1"
     inkscape:groupmode="layer"
     id="layer1"
     transform="translate(0,-861.02368)">
    <g
       id="g24259"
       transform="translate(25.438686,28.273315)">
      <g
         id="g24274"
         transform="translate(-1.7716444,1.771658)">
        <g
           transform="matrix(0.95263833,0,0,0.95263833,-139.65652,188.35584)"
           id="g3025-8-5">
          <g
             id="g248"
             transform="matrix(1.109236,0,0,1.109236,-12.246975,-98.588211)">
            <path
               sodipodi:type="inkscape:offset"
               inkscape:radius="3.5675166"
               inkscape:original="M 259.07812 709.12109 C 252.38902 709.03689 244.50663 713.03808 245.57617 720.41016 C 243.21153 720.19945 241.10629 724.03006 239.68945 723.1582 C 235.84304 719.61208 231.15278 717.04885 227.13477 713.76758 C 223.38878 711.46304 217.80314 713.77939 217.93945 718.56055 C 216.60261 721.66823 218.06683 726.90247 215.96875 728.82617 C 213.04165 728.92577 209.73558 730.96638 207.86914 727.6582 C 203.45771 723.15347 196.88481 724.36891 191.93359 727.00195 C 184.893 729.8449 178.54718 735.15743 175.97461 742.42578 C 177.46817 745.01568 180.71894 746.51579 182.39844 748.53125 C 180.5807 750.75411 182.29608 755.24395 177.87305 753.54297 C 166.22828 753.52037 154.58394 753.39401 142.93945 753.32422 C 149.93878 759.37884 156.85698 766.89787 162.86328 773.07812 C 159.68796 774.49188 158.72771 779.54873 154.5918 777.86914 C 148.32539 776.73638 141.40306 778.42981 138.19531 784.3418 C 132.54571 791.4853 128.90194 803.21178 135.00781 811.00391 C 139.03291 814.61443 145.62534 810.90736 149.24023 812.87695 C 149.7025 816.07591 153.17241 819.07595 155.22461 820.0293 C 140.10682 817.87463 129.12241 835.00067 132.89258 848.63867 C 134.9451 863.17798 154.86039 871.86276 165.80664 861.14258 C 167.18149 859.49069 168.12781 858.1363 169.13867 860.80078 C 173.12538 865.88229 180.27242 866.75581 185.90039 865.13086 C 189.04007 866.64667 191.82756 863.75097 194.75586 865.69141 C 197.88666 866.68464 201.45829 863.85906 202.63867 862.35938 C 204.82871 866.41232 211.2547 866.86646 213.97461 863.30664 C 216.87976 866.79498 222.59858 865.25622 225.0918 863.57422 C 228.40179 867.20908 233.62538 864.67308 237.76758 865.64258 C 242.27872 863.27442 246.7752 867.34575 251.63281 865.49609 C 255.60333 864.95641 259.16663 861.10097 261.70508 859.53711 C 266.2689 865.59822 274.89872 866.94223 281.62891 864.88867 C 286.56998 866.47884 291.87184 863.89673 297.00391 865.03516 C 303.57622 864.01695 311.43562 867.61696 317.19531 863.57422 C 319.96539 860.87068 319.70015 856.6339 319.45703 853.06641 C 321.53468 858.19162 323.702 867.39669 331.03711 865.30273 C 336.82207 864.0407 338.71796 857.66217 340.30664 852.72461 C 341.15471 857.01862 337.69926 864.8485 343.92969 865.30273 C 349.40948 866.90359 355.63257 862.40876 354.53711 856.42188 C 354.03461 851.64192 355.15229 856.12171 356.70312 857.93164 C 363.80349 869.05345 382.32485 867.80934 388.06055 855.96094 C 395.30934 831.17628 372.27958 827.26022 366.33594 829.35938 C 366.5312 829.21317 373.16161 822.70271 373.99023 815.80078 C 378.52378 815.15704 385.43344 814.24832 388.86328 811.63672 C 395.30902 799.90764 388.92549 783.5163 377.23438 777.94336 C 372.37108 776.88526 365.59603 781.14557 362.71094 775.50977 C 361.12892 773.61375 356.83292 772.77478 360.47266 770.76562 C 366.74766 764.65053 372.61428 758.04059 379.15625 752.15625 C 367.27853 751.74888 354.40055 753.11122 343.17578 751.74219 C 342.23706 749.62595 341.51035 748.23025 344.27148 747.07227 C 348.7689 743.66411 347.03967 737.42276 343.00586 734.4707 C 337.02777 728.48618 327.68241 723.27118 319.0918 725.85938 C 316.38955 727.19597 314.8238 732.08624 311.33203 729.50781 C 309.5047 728.44544 305.07349 731.29644 306.00391 727.87695 C 304.65256 723.2553 305.54066 717.83449 302.89062 713.79297 C 298.75894 709.27419 293.47043 714.69208 289.99805 717.29492 C 286.86778 719.05162 283.86512 724.33626 280.38867 720.77344 C 277.56969 719.84299 279.37572 715.07673 276.68945 713.11133 C 272.71746 708.99706 265.71797 709.448 260.39062 709.19336 C 259.95842 709.15136 259.52406 709.12669 259.07812 709.12109 z "
               style="display:inline;fill:none;stroke:#cc0000;stroke-width:0.77847075"
               id="path3264-4-4"
               d="m 259.12305,705.55469 c -4.07334,-0.0513 -8.32974,1.04576 -11.78125,3.51367 -2.68229,1.91789 -4.77909,5.00418 -5.26368,8.62891 -0.7971,0.46613 -1.35735,0.99063 -1.82617,1.39453 -3.76745,-3.09109 -7.70879,-5.51341 -10.86133,-8.08789 a 3.5678733,3.5678733 0 0 0 -0.38671,-0.27539 c -3.00136,-1.84644 -6.56681,-1.83328 -9.46875,-0.4375 -2.72175,1.3091 -4.89431,4.21415 -5.07422,7.69726 -0.76383,2.30468 -0.73443,4.42103 -0.78711,6.0332 -0.0247,0.75698 -0.12736,1.21818 -0.20508,1.60157 -0.73693,0.15311 -1.86255,0.31259 -2.21875,0.33984 -0.36904,0.0282 -0.41246,-0.0258 -0.30078,0.0234 0.11168,0.0492 0.19534,0.21574 0.0273,-0.082 a 3.5678733,3.5678733 0 0 0 -0.55859,-0.74219 c -2.93765,-2.99978 -6.83669,-4.1628 -10.40235,-4.07422 -3.50595,0.0871 -6.78283,1.21962 -9.60351,2.69922 -7.70795,3.16117 -14.81953,9.02619 -17.80078,17.44922 a 3.5678733,3.5678733 0 0 0 0.27344,2.9707 c 1.63125,2.82868 3.61673,4.27521 5.11132,5.33594 -0.0502,0.20245 -0.0544,0.25506 -0.0859,0.43359 a 3.5678733,3.5678733 0 0 0 -0.0293,-0.002 c -11.62358,-0.0226 -23.26388,-0.14889 -34.91992,-0.21875 a 3.5678733,3.5678733 0 0 0 -2.35547,6.26562 c 5.83007,5.04318 11.63534,11.17065 17.0293,16.78125 -0.42386,0.52247 -0.87106,1.09265 -1.15039,1.39063 -0.4073,0.43447 -0.61419,0.51545 -0.51172,0.47852 0.10246,-0.0369 0.37212,0.0596 -0.0391,-0.10743 a 3.5678733,3.5678733 0 0 0 -0.70703,-0.20507 c -7.20922,-1.30319 -15.75384,0.69102 -19.93359,7.9375 -3.12761,4.00165 -5.64464,9.07547 -6.61133,14.50781 -0.9788,5.50043 -0.28375,11.54925 3.51758,16.40039 a 3.5678733,3.5678733 0 0 0 0.42578,0.45508 c 3.18499,2.85693 7.17437,2.69514 9.9668,2.44922 2.28031,-0.20083 3.37807,-0.14069 4.03515,-0.082 0.18458,0.40358 0.30621,0.84126 0.5293,1.20899 -5.30327,1.46919 -9.9043,4.73609 -13.06445,9.07422 -4.71952,6.47876 -6.78285,15.0373 -4.67774,23.00781 1.30279,8.65918 7.68662,15.31334 15.27149,18.35547 7.36951,2.95575 16.33715,2.4539 22.8789,-3.3711 4.88804,4.97823 12.05331,5.8431 18.07227,4.46094 2.25266,0.63664 4.311,0.21932 5.47266,-0.0137 1.38177,-0.27713 1.32728,-0.31492 1.67578,-0.084 a 3.5678733,3.5678733 0 0 0 0.89257,0.42578 c 2.86757,0.90972 5.50519,0.0496 7.43946,-0.99024 0.47724,-0.25655 0.82682,-0.55278 1.24023,-0.83008 3.41624,2.56935 8.17452,2.80629 11.80078,0.5293 1.89793,0.9446 3.98192,1.2739 5.79883,1.13672 1.76841,-0.13352 3.30558,-0.6074 4.7207,-1.20508 2.18299,1.24216 4.63134,1.4911 6.53321,1.44141 2.58833,-0.0676 4.66912,-0.30825 5.74414,-0.0566 a 3.5678733,3.5678733 0 0 0 2.4707,-0.31641 c 1.0787,-0.56627 2.15706,-0.4166 4.39844,0.0625 2.08986,0.44671 5.07378,1.14673 8.37109,0.14258 2.92384,-0.4207 5.21909,-1.85826 7.09571,-3.20898 0.87703,-0.63127 1.28279,-0.94455 1.98242,-1.49024 5.61972,5.03676 13.68419,5.93043 20.44726,4.1543 2.89613,0.65447 5.63118,0.48502 7.94141,0.21289 2.63297,-0.31015 4.81261,-0.54572 6.56836,-0.15625 a 3.5678733,3.5678733 0 0 0 1.32031,0.043 c 2.44494,-0.37878 5.82667,0.14917 9.58203,0.43554 3.75536,0.28638 8.19936,0.24387 12.11133,-2.50195 a 3.5678733,3.5678733 0 0 0 0.44336,-0.36719 c 0.51143,-0.49915 0.75718,-1.0724 1.13477,-1.61133 1.00372,1.40779 2.2268,2.75769 3.97851,3.6543 2.02639,1.03722 4.61542,1.26681 7.13086,0.57031 2.41442,-0.5588 4.23752,-1.88056 5.78125,-3.42187 0.0735,0.12808 0.0727,0.25501 0.15625,0.38281 1.15091,1.76064 3.39635,2.91874 5.67383,3.12305 3.75525,0.88369 7.5561,-0.084 10.375,-2.32422 1.09578,-0.87085 1.97587,-2.02151 2.70703,-3.27734 9.90398,9.6996 28.31256,7.37714 34.64648,-5.70704 a 3.5678733,3.5678733 0 0 0 0.2129,-0.55273 c 3.92434,-13.41789 -0.66046,-22.78407 -7.33008,-27.33203 -3.33482,-2.27398 -7.01254,-3.48017 -10.33594,-4.00977 -0.0196,-0.003 -0.0352,-8.2e-4 -0.0547,-0.004 1.24916,-1.92713 2.46489,-4.08327 3.1875,-6.66602 4.38842,-0.56165 9.8761,-1.27997 14.07422,-4.47656 a 3.5678733,3.5678733 0 0 0 0.96484,-1.11914 c 7.6002,-13.82981 0.4678,-32.10776 -13.2207,-38.63281 a 3.5678733,3.5678733 0 0 0 -0.77734,-0.26563 c -3.73984,-0.81367 -6.89095,0.24506 -9.06641,0.43164 -1.08773,0.0933 -1.83627,0.008 -2.18359,-0.11914 -0.34733,-0.1274 -0.47536,-0.14224 -0.85547,-0.88476 a 3.5678733,3.5678733 0 0 0 -0.4375,-0.66016 c -0.44774,-0.5366 -0.84142,-0.77599 -1.27149,-1.13867 5.9174,-5.86527 11.43636,-11.94447 17.36524,-17.27735 a 3.5678733,3.5678733 0 0 0 -2.26367,-6.21679 c -10.68627,-0.36651 -21.72685,0.50046 -31.44532,-0.11133 2.13371,-2.4314 2.97588,-5.61739 2.52735,-8.43945 -0.53834,-3.3871 -2.45001,-6.37828 -5.21875,-8.41797 -6.57442,-6.43474 -16.72065,-12.3008 -27.08008,-9.17969 a 3.5678733,3.5678733 0 0 0 -0.55273,0.21875 c -2.59694,1.2845 -3.65311,3.11196 -4.34571,3.78516 a 3.5678733,3.5678733 0 0 0 -0.0391,-0.0234 c -1.57756,-0.91716 -2.88552,-0.7844 -3.83203,-0.69141 -0.64862,-3.56519 -0.077,-8.79822 -3.41992,-13.89648 a 3.5678733,3.5678733 0 0 0 -0.34961,-0.45117 c -1.52824,-1.67142 -3.61456,-2.72032 -5.62891,-2.875 -2.01435,-0.15469 -3.78085,0.42979 -5.26953,1.16015 -2.97737,1.46073 -5.28644,3.65929 -6.76758,4.76953 l 0.39453,-0.25586 c -2.47202,1.38729 -3.96904,3.22411 -4.96484,3.91602 -0.34074,0.23676 -0.2994,0.2007 -0.31836,0.21484 -0.0224,-0.0233 0.003,-0.002 -0.0273,-0.0332 a 3.5678733,3.5678733 0 0 0 -0.74219,-0.57813 c -0.0423,-0.16988 -0.0987,-0.3527 -0.1836,-0.91015 -0.22597,-1.48344 -0.47137,-4.46938 -3.14648,-6.48828 -5.50824,-5.30279 -13.4411,-4.44117 -18.30859,-4.67383 l 0.17578,0.0117 c -0.52737,-0.0512 -1.06489,-0.081 -1.61328,-0.0879 z m 94.57226,154.29687 c 0.0395,0.0618 0.0987,0.099 0.13867,0.16016 0.0678,0.0841 0.0884,0.15652 0.16016,0.24023 z" />
          </g>
        </g>
      </g>
    </g>
  </g>
</svg>
