%!PS-Adobe-3.0
%%Creator: cairo 1.14.8 (http://cairographics.org)
%%CreationDate: Mon Feb 20 11:59:08 2017
%%Pages: 1
%%DocumentData: Clean7Bit
%%LanguageLevel: 2
%%DocumentMedia: 84x54mm 238 153 0 () ()
%%BoundingBox: 13 14 225 140
%%EndComments
%%BeginProlog
/languagelevel where
{ pop languagelevel } { 1 } ifelse
2 lt { /Helvetica findfont 12 scalefont setfont 50 500 moveto
  (This print job requires a PostScript Language Level 2 printer.) show
  showpage quit } if
/q { gsave } bind def
/Q { grestore } bind def
/cm { 6 array astore concat } bind def
/w { setlinewidth } bind def
/J { setlinecap } bind def
/j { setlinejoin } bind def
/M { setmiterlimit } bind def
/d { setdash } bind def
/m { moveto } bind def
/l { lineto } bind def
/c { curveto } bind def
/h { closepath } bind def
/re { exch dup neg 3 1 roll 5 3 roll moveto 0 rlineto
      0 exch rlineto 0 rlineto closepath } bind def
/S { stroke } bind def
/f { fill } bind def
/f* { eofill } bind def
/n { newpath } bind def
/W { clip } bind def
/W* { eoclip } bind def
/BT { } bind def
/ET { } bind def
/pdfmark where { pop globaldict /?pdfmark /exec load put }
    { globaldict begin /?pdfmark /pop load def /pdfmark
    /cleartomark load def end } ifelse
/BDC { mark 3 1 roll /BDC pdfmark } bind def
/EMC { mark /EMC pdfmark } bind def
/cairo_store_point { /cairo_point_y exch def /cairo_point_x exch def } def
/Tj { show currentpoint cairo_store_point } bind def
/TJ {
  {
    dup
    type /stringtype eq
    { show } { -0.001 mul 0 cairo_font_matrix dtransform rmoveto } ifelse
  } forall
  currentpoint cairo_store_point
} bind def
/cairo_selectfont { cairo_font_matrix aload pop pop pop 0 0 6 array astore
    cairo_font exch selectfont cairo_point_x cairo_point_y moveto } bind def
/Tf { pop /cairo_font exch def /cairo_font_matrix where
      { pop cairo_selectfont } if } bind def
/Td { matrix translate cairo_font_matrix matrix concatmatrix dup
      /cairo_font_matrix exch def dup 4 get exch 5 get cairo_store_point
      /cairo_font where { pop cairo_selectfont } if } bind def
/Tm { 2 copy 8 2 roll 6 array astore /cairo_font_matrix exch def
      cairo_store_point /cairo_font where { pop cairo_selectfont } if } bind def
/g { setgray } bind def
/rg { setrgbcolor } bind def
/d1 { setcachedevice } bind def
/cairo_set_page_size {
  % Change paper size, but only if different from previous paper size otherwise
  % duplex fails. PLRM specifies a tolerance of 5 pts when matching paper size
  % so we use the same when checking if the size changes.
  /setpagedevice where {
    pop currentpagedevice
    /PageSize known {
      2 copy
      currentpagedevice /PageSize get aload pop
      exch 4 1 roll
      sub abs 5 gt
      3 1 roll
      sub abs 5 gt
      or
    } {
      true
    } ifelse
    {
      2 array astore
      2 dict begin
        /PageSize exch def
        /ImagingBBox null def
      currentdict end
      setpagedevice
    } {
      pop pop
    } ifelse
  } {
    pop
  } ifelse
} def
%%EndProlog
%%BeginSetup
%%EndSetup
%%Page: 1 1
%%BeginPageSetup
%%PageMedia: 84x54mm
%%PageBoundingBox: 13 14 225 140
239 154 cairo_set_page_size
%%EndPageSetup
q 13 14 212 126 rectclip q
0 0.2 0.501961 rg
118.137 138.333 m 116.113 138.243 114.129 137.934 112.48 137.419 c 110.289
 136.727 110.262 136.704 110.137 134.961 c 110.023 133.419 l 129.055 133.419
 l 129.055 134.102 l 129.055 134.485 129.023 135.192 128.941 135.704 c 128.809
 136.504 128.648 136.676 127.742 137.016 c 125.094 138.02 121.516 138.481
 118.141 138.333 c h
110.191 131.473 m 110.137 130.559 l 110.059 129.649 110.059 129.669 108.707
 129.532 c 106.145 129.266 103.695 127.684 103.336 126.044 c 103.207 125.469
 104.828 119.684 109.965 102.04 c 113.688 89.251 116.77 78.692 116.824 78.551
 c 117.348 76.567 118.449 73.184 118.996 70.891 c 120.395 73.176 121.246
 76.821 121.797 78.891 c 121.859 79.11 125.031 89.708 128.824 102.438 c 
134.125 120.219 135.688 125.758 135.57 126.387 c 135.27 127.981 133.262 
129.294 130.711 129.532 c 129.109 129.645 l 129.055 130.559 l 128.941 131.473
 l h
119.566 120.215 m 123.23 120.215 124.766 120.129 124.766 119.93 c 124.766
 119.774 123.695 113.989 122.367 107.071 c 121.039 100.153 119.898 94.407
 119.852 94.266 c 119.805 94.126 119.711 94.262 119.625 94.61 c 119.238 
96.157 114.363 119.551 114.363 119.872 c 114.363 120.165 115.277 120.215
 119.566 120.215 c h
119.566 120.215 m f
0 0.333333 0 rg
150.602 135.876 m 150.309 135.774 139.469 127.797 139.34 127.586 c 139.277
 127.489 140.242 126.02 141.457 124.329 c 142.668 122.637 143.82 121.247
 144.027 121.243 c 144.238 121.239 146.152 121.864 148.312 122.672 c 151.039
 123.688 152.23 124.301 152.199 124.559 c 151.613 129.661 150.746 135.926
 150.602 135.876 c h
150.602 135.876 m f
86.703 135.36 m 86.465 134.895 85.113 123.805 85.273 123.645 c 85.352 123.567
 87.383 122.946 89.73 122.27 c 92.082 121.598 94.062 121.044 94.191 121.071
 c 94.316 121.102 95.219 122.508 96.191 124.215 c 97.711 126.879 97.926 
127.395 97.617 127.7 c 97.422 127.895 94.934 129.731 92.074 131.817 c 88.812
 134.196 86.797 135.547 86.703 135.36 c h
86.703 135.36 m f
0 0.2 0.501961 rg
68.527 125.473 m 67.098 125.243 l 64.062 124.766 60.227 123.165 57.211 
121.129 c 55.34 119.864 53.016 117.61 52.41 116.442 c 51.953 115.528 l 53.324
 114.329 l 54.074 113.657 54.875 113.145 55.098 113.184 c 55.625 113.282
 71.27 122.84 71.27 123.071 c 71.273 123.169 70.656 123.715 69.898 124.329
 c h
79.672 121.7 m 78.613 121.637 77.496 121.344 76.473 120.844 c 75.043 120.157
 l 74.129 120.844 l 73.156 121.473 l 65.043 116.501 l 56.867 111.469 l 57.668
 110.669 l 58.41 109.868 l 57.383 108.899 l 55.273 106.993 54.664 104.489
 56.012 103.012 c 56.461 102.516 60.07 100.555 66.129 97.469 c 96.395 82.036
 110.965 74.52 111.051 74.434 c 112.336 73.77 115.828 71.59 117.223 71.004
 c 116.984 72.629 114.852 76.364 114.137 77.579 c 114.035 77.696 107.336
 87.169 99.277 98.669 c 91.219 110.169 84.367 119.891 84.016 120.27 c 83.062
 121.309 81.438 121.809 79.672 121.7 c h
79.785 110.383 m 79.941 110.473 80.922 109.606 81.957 108.383 c 87.797 
101.489 98.324 89.098 98.762 88.61 c 99.043 88.294 99.176 88.024 99.047 
88.036 c 98.82 88.059 71.719 104.278 71.441 104.555 c 71.336 104.657 78.391
 109.583 79.785 110.383 c h
79.785 110.383 m f
170.832 125.129 m 170.141 125.098 169.703 124.719 168.488 123.645 c 167.656
 122.903 167.551 122.696 167.859 122.501 c 168.07 122.368 171.773 120.118
 176.09 117.469 c 183.922 112.669 l 184.551 113.126 l 184.902 113.383 185.613
 114.001 186.094 114.501 c 186.949 115.415 l 185.977 116.844 l 183.598 120.305
 177.672 123.848 172.547 124.903 c 171.711 125.075 171.246 125.149 170.832
 125.129 c h
165.746 121.243 m 164.891 120.559 l 164.031 119.93 l 162.719 120.501 l 
160.918 121.274 157.59 121.473 156.086 120.899 c 155.488 120.672 154.723
 120.137 154.371 119.758 c 154.023 119.376 148.902 112.231 143 103.868 c
 124.672 77.907 124.477 78.145 124.137 77.751 c 122.688 74.977 121.191 72.657
 120.539 70.833 c 122.609 71.653 126.461 73.672 128.141 74.606 c 131.684
 76.493 l 134.953 78.196 148.965 85.313 172.949 97.524 c 183.074 102.68 
183.805 103.18 183.805 104.954 c 183.805 106.352 182.91 107.633 180.777 
109.243 c 180.43 109.504 180.465 109.641 181.121 110.329 c 181.574 110.805
 181.781 111.161 181.637 111.297 c 181.504 111.422 177.883 113.719 173.578
 116.383 c h
158.945 109.926 m 159.129 109.864 161.156 108.61 163.461 107.126 c 166.836
 104.95 167.559 104.344 167.289 104.098 c 167.105 103.926 164.75 102.458
 162.031 100.782 c 159.312 99.11 153.285 95.372 148.656 92.497 c 144.031
 89.618 140.184 87.294 140.086 87.294 c 139.984 87.294 140.047 87.45 140.258
 87.696 c 140.969 88.524 146.93 95.754 152.773 102.895 c 156.242 107.137
 158.75 109.993 158.945 109.926 c h
158.945 109.926 m f
0 0.333333 0 rg
207.469 101.981 m 197.523 101.926 l 187.523 101.868 l 186.551 98.153 l 
186.016 96.133 185.582 94.305 185.578 94.094 c 185.578 93.809 186.887 93.422
 190.949 92.438 c 193.914 91.719 196.469 91.157 196.609 91.18 c 196.746 
91.204 199.238 93.645 202.152 96.61 c h
207.469 101.981 m f
29.836 100.954 m 35.438 95.411 l 39.949 90.891 41.082 89.856 41.496 89.981
 c 43.352 90.544 52.418 93.422 52.469 93.465 c 52.5 93.497 51.848 95.172
 51.039 97.18 c 49.609 100.84 l 39.723 100.895 l h
29.836 100.954 m f
0 0.2 0.501961 rg
42.41 86.321 m 39.301 86.317 36.309 84.575 35.207 82.094 c 34.402 80.282
 34.477 80.286 32.691 80.208 c 31.379 80.149 31.023 80.032 30.922 79.692
 c 30.848 79.454 29.441 75.071 27.836 69.919 c 26.227 64.77 24.918 60.485
 24.918 60.376 c 24.918 60.262 25.633 60.145 26.52 60.145 c 28.121 60.145
 l 28.121 58.317 l 28.082 54.672 30.164 52.544 33.777 52.544 c 34.797 52.544
 42.742 54.133 57.785 57.344 c 70.156 59.989 86.961 63.61 95.105 65.348 
c 103.25 67.086 109.977 68.438 110.078 68.376 c 112.66 69.176 115.25 69.426
 116.367 69.864 c 114.258 70.715 112.137 71.594 110.023 72.434 c 109.836
 72.43 95.18 75.461 77.102 79.294 c 53.008 84.399 43.609 86.325 42.41 86.321
 c h
21.949 80.434 m 20.633 79.235 l 18.062 76.922 15.738 73.254 14.52 69.633
 c 13.727 67.29 13.617 62.051 14.348 60.719 c 14.805 59.919 l 21.031 59.919
 l 24.234 69.864 l 26.004 75.333 27.434 79.919 27.434 80.094 c 27.434 80.325
 26.73 80.434 24.691 80.434 c h
49.383 75.751 m 50.125 75.692 l 52.168 75.606 88.234 70.922 87.961 70.778
 c 87.785 70.684 86.688 70.469 85.504 70.321 c 84.316 70.169 75.461 68.969
 65.84 67.633 c 56.223 66.297 48.051 65.141 47.668 65.063 c 47.285 64.985
 46.977 65.004 46.98 65.118 c 46.98 65.235 47.516 67.692 48.18 70.547 c 
h
49.383 75.751 m f
195.293 86.094 m 191.977 85.86 184.309 84.161 161.801 79.294 c 144.039 
75.45 129.418 72.313 129.34 72.321 c 127.52 71.903 125.191 70.985 121.508
 69.805 c 124.383 68.915 126.199 68.461 129.395 67.747 c 129.648 67.754 
146.465 64.294 166.773 60.032 c 200.008 53.059 203.879 52.278 205.523 52.372
 c 206.949 52.458 207.562 52.61 208.324 53.118 c 209.809 54.098 210.285 
55.278 210.098 57.688 c 209.926 59.633 l 211.582 59.633 l 212.789 59.633
 213.242 59.723 213.242 59.973 c 213.242 60.161 211.867 64.739 210.211 70.09
 c 207.184 79.805 l 205.523 79.864 l 203.867 79.922 l 203.352 81.008 l 202.609
 82.544 200.672 84.391 198.836 85.294 c 197.699 85.852 197.285 86.235 195.293
 86.094 c h
213.527 80.149 m 211.953 80.149 210.668 80.083 210.668 79.977 c 210.668
 79.876 212.152 75.29 213.926 69.747 c 217.129 59.633 l 223.355 59.633 l
 223.812 60.602 l 224.07 61.196 224.262 62.54 224.328 64.145 c 224.422 66.379
 224.328 67.016 223.758 69.004 c 223.395 70.27 222.809 71.934 222.441 72.665
 c 221.332 74.864 219.297 77.629 217.812 78.95 c 216.383 80.149 l h
188.551 75.294 m 188.625 75.215 189.25 72.797 189.98 69.919 c 190.707 67.04
 191.258 64.641 191.18 64.606 c 191.102 64.567 187.129 65.04 182.32 65.633
 c 177.512 66.227 168.176 67.348 161.633 68.149 c 154.012 69.083 149.977
 69.684 150.371 69.805 c 151.414 70.122 188.402 75.438 188.551 75.294 c 
h
188.551 75.294 m f
0 0.333333 0 rg
142.891 15.438 m 157.766 15.438 l 157.766 18.032 l 145.789 18.032 l 145.789
 44.063 l 142.891 44.063 l 142.891 15.438 l f
160.5 15.438 m 163.395 15.438 l 163.395 36.626 l 160.5 36.626 l 160.5 15.438
 l 160.5 39.184 m 163.395 39.184 l 163.395 44.063 l 160.5 44.063 l 160.5
 39.184 l f
175.145 15.438 m 178.199 15.438 l 187.199 36.626 l 184.266 36.626 l 176.594
 18.809 l 169.078 36.626 l 166.145 36.626 l 175.145 15.438 l f
190.008 15.438 m 192.902 15.438 l 192.902 27.794 l 192.902 31.747 194.938
 33.915 198.969 34.301 c 198.969 37.129 l 195.879 36.973 194.039 35.93 192.902
 33.606 c 192.902 36.626 l 190.008 36.626 l 190.008 15.438 l f
223.227 25.083 m 223.227 27.989 222.836 29.77 221.777 31.629 c 219.859 
35.001 216.141 37.129 212.07 37.129 c 205.848 37.129 200.957 32.29 200.957
 26.129 c 200.957 19.852 205.926 14.934 212.266 14.934 c 215.008 14.934 
217.59 15.942 219.547 17.762 c 221.074 19.196 222.09 20.669 222.68 22.411
 c 219.664 22.411 l 218.453 19.504 215.438 17.567 212.188 17.567 c 207.805
 17.567 204.086 20.899 203.852 25.083 c 223.227 25.083 l 203.93 27.68 m 
204.715 31.747 207.961 34.497 212.031 34.497 c 216.18 34.497 219.352 31.899
 220.328 27.68 c 203.93 27.68 l f
0 0.2 0.501961 rg
35.996 22.872 m 34.949 21.344 34.34 20.559 33.496 19.817 c 31.84 18.29 
29.574 17.426 27.309 17.426 c 21.531 17.426 16.766 22.989 16.766 29.762 
c 16.766 36.735 21.328 42.059 27.277 42.059 c 29.438 42.059 31.469 41.395
 33.125 40.102 c 34.238 39.282 34.914 38.419 35.859 36.696 c 38.668 36.696
 l 36.738 41.669 32.348 44.723 27.176 44.723 c 19.738 44.723 14.23 38.301
 14.23 29.645 c 14.23 21.188 19.875 14.766 27.344 14.766 c 32.414 14.766
 36.266 17.508 38.766 22.872 c 35.996 22.872 l f
58.625 36.696 m 56.125 36.696 l 56.125 25.692 l 56.125 23.067 55.785 21.422
 55.008 20.09 c 53.961 18.407 52.305 17.426 50.379 17.426 c 48.316 17.426
 46.559 18.407 45.715 20.129 c 45.137 21.227 44.836 22.95 44.836 25.141 
c 44.836 36.696 l 42.332 36.696 l 42.332 25.141 l 42.332 21.969 42.805 19.739
 43.785 18.172 c 45.172 15.942 47.402 14.766 50.176 14.766 c 53.047 14.766
 54.871 15.942 56.125 18.602 c 56.125 15.274 l 58.625 15.274 l 58.625 36.696
 l f
62.863 15.274 m 65.363 15.274 l 65.363 27.766 l 65.363 31.762 67.121 33.954
 70.602 34.344 c 70.602 37.204 l 67.934 37.047 66.344 35.989 65.363 33.641
 c 65.363 36.696 l 62.863 36.696 l 62.863 15.274 l f
73.031 15.274 m 75.531 15.274 l 75.531 36.696 l 73.031 36.696 l 73.031 
15.274 l 73.031 39.282 m 75.531 39.282 l 75.531 44.215 l 73.031 44.215 l
 73.031 39.282 l f
82.027 15.274 m 84.527 15.274 l 84.527 34.071 l 88.688 34.071 l 88.688 
36.696 l 84.527 36.696 l 84.527 44.215 l 82.027 44.215 l 82.027 36.696 l
 78.039 36.696 l 78.039 34.071 l 82.027 34.071 l 82.027 15.274 l f
91.25 15.274 m 93.75 15.274 l 93.75 36.696 l 91.25 36.696 l 91.25 15.274
 l 91.25 39.282 m 93.75 39.282 l 93.75 44.215 l 91.25 44.215 l 91.25 39.282
 l f
97.984 15.274 m 100.484 15.274 l 100.484 18.954 l 102.039 16.294 104.676
 14.766 107.715 14.766 c 113.293 14.766 117.484 19.583 117.484 26.004 c 
117.484 32.309 113.227 37.204 107.75 37.204 c 104.641 37.204 102.07 35.715
 100.484 33.016 c 100.484 44.215 l 97.984 44.215 l 97.984 15.274 l 107.684
 34.54 m 111.84 34.54 114.949 30.899 114.949 26.083 c 114.949 21.149 111.805
 17.426 107.648 17.426 c 105.586 17.426 103.898 18.251 102.445 19.973 c 
100.992 21.696 100.316 23.653 100.316 26.083 c 100.316 30.821 103.559 34.54
 107.684 34.54 c f
139.848 36.696 m 137.348 36.696 l 137.348 32.895 l 135.52 35.872 133.258
 37.204 130.047 37.204 c 124.504 37.204 120.312 32.348 120.312 25.926 c 
120.312 19.544 124.535 14.766 130.215 14.766 c 133.359 14.766 135.387 15.981
 137.348 19.036 c 137.348 15.274 l 139.848 15.274 l 139.848 36.696 l 130.113
 34.54 m 134.168 34.54 137.348 30.86 137.348 26.083 c 137.348 21.227 134.238
 17.426 130.25 17.426 c 126.059 17.426 122.848 21.227 122.848 26.122 c 122.848
 30.782 126.09 34.54 130.113 34.54 c f
0 0.333333 0 rg
130.059 70.106 m 130.059 65.145 125.379 61.126 119.605 61.126 c 113.836
 61.126 109.156 65.145 109.156 70.106 c 109.156 75.067 113.836 79.086 119.605
 79.086 c 125.379 79.086 130.059 75.067 130.059 70.106 c h
130.059 70.106 m f
0 0.2 0.501961 rg
26.41 80.329 m 32.258 80.114 l 26.453 60.204 l 20.734 60.032 l h
26.41 80.329 m f
70.223 124.051 m 74.961 120.122 l 57.742 110.782 l 53.281 114.36 l h
70.223 124.051 m f
211.648 80.071 m 205.758 79.79 l 211.52 59.688 l 217.582 59.602 l h
211.648 80.071 m f
169.102 124.094 m 164.496 120.251 l 181.176 110.458 l 184.82 113.286 l 
h
169.102 124.094 m f
110.035 133.563 m 110.168 130.813 l 128.914 131.102 l 129.09 133.934 l 
h
110.035 133.563 m f
Q Q
showpage
%%Trailer
%%EOF
