%!PS-Adobe-3.0
%%Creator: cairo 1.14.8 (http://cairographics.org)
%%CreationDate: Mon Oct 30 09:59:54 2017
%%Pages: 1
%%DocumentData: Clean7Bit
%%LanguageLevel: 2
%%DocumentMedia: 54x54mm 153 153 0 () ()
%%BoundingBox: 6 6 147 148
%%EndComments
%%BeginProlog
/languagelevel where
{ pop languagelevel } { 1 } ifelse
2 lt { /Helvetica findfont 12 scalefont setfont 50 500 moveto
  (This print job requires a PostScript Language Level 2 printer.) show
  showpage quit } if
/q { gsave } bind def
/Q { grestore } bind def
/cm { 6 array astore concat } bind def
/w { setlinewidth } bind def
/J { setlinecap } bind def
/j { setlinejoin } bind def
/M { setmiterlimit } bind def
/d { setdash } bind def
/m { moveto } bind def
/l { lineto } bind def
/c { curveto } bind def
/h { closepath } bind def
/re { exch dup neg 3 1 roll 5 3 roll moveto 0 rlineto
      0 exch rlineto 0 rlineto closepath } bind def
/S { stroke } bind def
/f { fill } bind def
/f* { eofill } bind def
/n { newpath } bind def
/W { clip } bind def
/W* { eoclip } bind def
/BT { } bind def
/ET { } bind def
/pdfmark where { pop globaldict /?pdfmark /exec load put }
    { globaldict begin /?pdfmark /pop load def /pdfmark
    /cleartomark load def end } ifelse
/BDC { mark 3 1 roll /BDC pdfmark } bind def
/EMC { mark /EMC pdfmark } bind def
/cairo_store_point { /cairo_point_y exch def /cairo_point_x exch def } def
/Tj { show currentpoint cairo_store_point } bind def
/TJ {
  {
    dup
    type /stringtype eq
    { show } { -0.001 mul 0 cairo_font_matrix dtransform rmoveto } ifelse
  } forall
  currentpoint cairo_store_point
} bind def
/cairo_selectfont { cairo_font_matrix aload pop pop pop 0 0 6 array astore
    cairo_font exch selectfont cairo_point_x cairo_point_y moveto } bind def
/Tf { pop /cairo_font exch def /cairo_font_matrix where
      { pop cairo_selectfont } if } bind def
/Td { matrix translate cairo_font_matrix matrix concatmatrix dup
      /cairo_font_matrix exch def dup 4 get exch 5 get cairo_store_point
      /cairo_font where { pop cairo_selectfont } if } bind def
/Tm { 2 copy 8 2 roll 6 array astore /cairo_font_matrix exch def
      cairo_store_point /cairo_font where { pop cairo_selectfont } if } bind def
/g { setgray } bind def
/rg { setrgbcolor } bind def
/d1 { setcachedevice } bind def
/cairo_set_page_size {
  % Change paper size, but only if different from previous paper size otherwise
  % duplex fails. PLRM specifies a tolerance of 5 pts when matching paper size
  % so we use the same when checking if the size changes.
  /setpagedevice where {
    pop currentpagedevice
    /PageSize known {
      2 copy
      currentpagedevice /PageSize get aload pop
      exch 4 1 roll
      sub abs 5 gt
      3 1 roll
      sub abs 5 gt
      or
    } {
      true
    } ifelse
    {
      2 array astore
      2 dict begin
        /PageSize exch def
        /ImagingBBox null def
      currentdict end
      setpagedevice
    } {
      pop pop
    } ifelse
  } {
    pop
  } ifelse
} def
%%EndProlog
%%BeginSetup
%%EndSetup
%%Page: 1 1
%%BeginPageSetup
%%PageMedia: 54x54mm
%%PageBoundingBox: 6 6 147 148
154 154 cairo_set_page_size
%%EndPageSetup
q 6 6 141 142 rectclip q
1 0 0 rg
0.373868 w
0 J
0 j
[] 0.0 d
4 M q 0.997952 0 0 -1 0 153.070862 cm
75.902 6.848 m 70.288 6.875 64.902 7.336 60.1 8.18 c 52.972 9.426 47.946
 11.457 44.705 15.227 c 41.464 19 40.791 23.766 40.791 28.652 c 40.791 40.203
 l 33.279 40.203 l 22.409 40.203 12.338 47.262 9.418 59.328 c 9.418 59.332
 9.418 59.332 9.418 59.332 c 9.418 59.332 9.418 59.332 9.418 59.336 c 6.435
 71.586 6.298 80.238 9.418 93.055 c 10.666 98.207 12.815 102.895 16.303 
106.441 c 19.787 109.988 24.715 112.184 30.328 112.184 c 40.102 112.184 
l 40.113 115.926 40.274 119.859 40.822 124.266 c 40.791 123.73 l 40.791 
129.219 43.386 133.895 46.971 137.113 c 50.557 140.332 55.046 142.367 59.638
 143.703 c 70.187 146.777 80.88 147.34 93.512 143.707 c 97.849 142.465 102.331
 140.598 105.99 137.43 c 109.65 134.258 112.375 129.48 112.375 123.73 c 
112.375 112.184 l 123.82 112.184 l 129.39 112.184 134.111 109.902 137.191
 106.332 c 140.268 102.766 141.998 98.32 143.646 93.41 c 147.212 82.812 
147.004 72.301 143.74 59.301 c 143.74 59.297 l 142.514 54.406 140.714 49.809
 137.504 46.188 c 134.295 42.562 129.468 40.203 123.82 40.203 c 113.51 40.203
 l 113.298 36.555 112.981 32.664 112.336 28.055 c 112.375 28.652 l 112.375
 17.754 103.247 9.855 93.026 8.172 c 93.026 8.172 93.026 8.172 93.023 8.172
 c 87.343 7.234 81.511 6.824 75.902 6.848 c h
75.902 6.848 m S Q
Q Q
showpage
%%Trailer
%%EOF
