%!PS-Adobe-3.0
%%Creator: cairo 1.14.8 (http://cairographics.org)
%%CreationDate: Mon Oct 30 10:00:20 2017
%%Pages: 1
%%DocumentData: Clean7Bit
%%LanguageLevel: 3
%%DocumentMedia: 54x54mm 153 153 0 () ()
%%BoundingBox: 11 11 142 143
%%EndComments
%%BeginProlog
/languagelevel where
{ pop languagelevel } { 1 } ifelse
3 lt { /Helvetica findfont 12 scalefont setfont 50 500 moveto
  (This print job requires a PostScript Language Level 3 printer.) show
  showpage quit } if
/q { gsave } bind def
/Q { grestore } bind def
/cm { 6 array astore concat } bind def
/w { setlinewidth } bind def
/J { setlinecap } bind def
/j { setlinejoin } bind def
/M { setmiterlimit } bind def
/d { setdash } bind def
/m { moveto } bind def
/l { lineto } bind def
/c { curveto } bind def
/h { closepath } bind def
/re { exch dup neg 3 1 roll 5 3 roll moveto 0 rlineto
      0 exch rlineto 0 rlineto closepath } bind def
/S { stroke } bind def
/f { fill } bind def
/f* { eofill } bind def
/n { newpath } bind def
/W { clip } bind def
/W* { eoclip } bind def
/BT { } bind def
/ET { } bind def
/pdfmark where { pop globaldict /?pdfmark /exec load put }
    { globaldict begin /?pdfmark /pop load def /pdfmark
    /cleartomark load def end } ifelse
/BDC { mark 3 1 roll /BDC pdfmark } bind def
/EMC { mark /EMC pdfmark } bind def
/cairo_store_point { /cairo_point_y exch def /cairo_point_x exch def } def
/Tj { show currentpoint cairo_store_point } bind def
/TJ {
  {
    dup
    type /stringtype eq
    { show } { -0.001 mul 0 cairo_font_matrix dtransform rmoveto } ifelse
  } forall
  currentpoint cairo_store_point
} bind def
/cairo_selectfont { cairo_font_matrix aload pop pop pop 0 0 6 array astore
    cairo_font exch selectfont cairo_point_x cairo_point_y moveto } bind def
/Tf { pop /cairo_font exch def /cairo_font_matrix where
      { pop cairo_selectfont } if } bind def
/Td { matrix translate cairo_font_matrix matrix concatmatrix dup
      /cairo_font_matrix exch def dup 4 get exch 5 get cairo_store_point
      /cairo_font where { pop cairo_selectfont } if } bind def
/Tm { 2 copy 8 2 roll 6 array astore /cairo_font_matrix exch def
      cairo_store_point /cairo_font where { pop cairo_selectfont } if } bind def
/g { setgray } bind def
/rg { setrgbcolor } bind def
/d1 { setcachedevice } bind def
/cairo_set_page_size {
  % Change paper size, but only if different from previous paper size otherwise
  % duplex fails. PLRM specifies a tolerance of 5 pts when matching paper size
  % so we use the same when checking if the size changes.
  /setpagedevice where {
    pop currentpagedevice
    /PageSize known {
      2 copy
      currentpagedevice /PageSize get aload pop
      exch 4 1 roll
      sub abs 5 gt
      3 1 roll
      sub abs 5 gt
      or
    } {
      true
    } ifelse
    {
      2 array astore
      2 dict begin
        /PageSize exch def
        /ImagingBBox null def
      currentdict end
      setpagedevice
    } {
      pop pop
    } ifelse
  } {
    pop
  } ifelse
} def
%%EndProlog
%%BeginSetup
%%EndSetup
%%Page: 1 1
%%BeginPageSetup
%%PageMedia: 54x54mm
%%PageBoundingBox: 11 11 142 143
154 154 cairo_set_page_size
%%EndPageSetup
q 11 11 131 132 rectclip q
q
45.25 124.079 m 45.25 133.016 47.645 137.876 60.848 140.192 c 69.812 141.766
 81.309 141.965 92.027 140.192 c 100.496 138.794 107.625 132.469 107.625
 124.079 c 107.625 94.586 l 107.625 85.938 100.703 78.852 92.027 78.852 
c 60.848 78.852 l 50.266 78.852 41.348 69.813 41.348 59.59 c 41.348 45.442
 l 30.625 45.442 l 21.559 45.442 16.277 51.993 14.059 61.165 c 11.066 73.481
 11.195 80.821 14.059 92.622 c 16.543 102.911 24.48 108.344 33.551 108.344
 c 76.445 108.344 l 76.445 112.278 l 45.25 112.278 l h
45.25 124.079 m W n
[0.654678 0 0 -0.656107 -5.597212 154.958467] concat
/CairoFunction
   << /FunctionType 2
      /Domain [ 0 1 ]
      /C0 [ 0.211765 0.415686 0.588235 ]
      /C1 [ 0.211765 0.47451 0.690196 ]
      /N 1
   >>
def
   << /ShadingType 2
      /ColorSpace /DeviceRGB
      /Coords [ 172.942078 77.475983 26.670298 76.313133 ]
      /Extend [ true true ]
      /Function CairoFunction
   >>
shfill
Q
q
107.625 29.708 m 107.625 20.77 99.883 16.243 92.027 13.985 c 80.211 10.579
 70.727 11.102 60.848 13.985 c 52.598 16.391 45.25 21.313 45.25 29.708 c
 45.25 59.196 l 45.25 67.68 52.309 74.93 60.848 74.93 c 92.027 74.93 l 102.414
 74.93 111.527 83.926 111.527 94.586 c 111.527 108.344 l 123.219 108.344
 l 132.301 108.344 136.574 101.583 138.816 92.622 c 141.934 80.172 142.074
 70.864 138.816 61.165 c 135.664 51.739 132.289 45.442 123.219 45.442 c 
76.445 45.442 l 76.445 41.504 l 107.625 41.504 l h
107.625 29.708 m W n
[0.654678 0 0 -0.656107 -5.597212 154.958467] concat
/CairoFunction
   << /FunctionType 2
      /Domain [ 0 1 ]
      /C0 [ 1 0.784314 0.211765 ]
      /C1 [ 1 0.909804 0.45098 ]
      /N 1
   >>
def
   << /ShadingType 2
      /ColorSpace /DeviceRGB
      /Coords [ 224.23996 144.757172 -65.308502 144.757172 ]
      /Extend [ true true ]
      /Function CairoFunction
   >>
shfill
Q
1 g
53.051 126.032 m 53.051 129.297 55.66 131.938 58.895 131.938 c 62.117 131.938
 64.742 129.297 64.742 126.032 c 64.742 122.782 62.117 120.141 58.895 120.141
 c 55.66 120.141 53.051 122.782 53.051 126.032 c h
53.051 126.032 m f
88.137 27.751 m 88.137 31.004 90.758 33.641 93.98 33.641 c 97.215 33.641
 99.824 31.004 99.824 27.751 c 99.824 24.485 97.215 21.844 93.98 21.844 
c 90.758 21.844 88.137 24.485 88.137 27.751 c h
88.137 27.751 m f
Q Q
showpage
%%Trailer
%%EOF
