%!PS-Adobe-3.0
%%Creator: cairo 1.14.8 (http://cairographics.org)
%%CreationDate: Mon Feb 20 12:00:05 2017
%%Pages: 1
%%DocumentData: Clean7Bit
%%LanguageLevel: 2
%%DocumentMedia: 54x54mm 153 153 0 () ()
%%BoundingBox: 12 13 142 141
%%EndComments
%%BeginProlog
/languagelevel where
{ pop languagelevel } { 1 } ifelse
2 lt { /Helvetica findfont 12 scalefont setfont 50 500 moveto
  (This print job requires a PostScript Language Level 2 printer.) show
  showpage quit } if
/q { gsave } bind def
/Q { grestore } bind def
/cm { 6 array astore concat } bind def
/w { setlinewidth } bind def
/J { setlinecap } bind def
/j { setlinejoin } bind def
/M { setmiterlimit } bind def
/d { setdash } bind def
/m { moveto } bind def
/l { lineto } bind def
/c { curveto } bind def
/h { closepath } bind def
/re { exch dup neg 3 1 roll 5 3 roll moveto 0 rlineto
      0 exch rlineto 0 rlineto closepath } bind def
/S { stroke } bind def
/f { fill } bind def
/f* { eofill } bind def
/n { newpath } bind def
/W { clip } bind def
/W* { eoclip } bind def
/BT { } bind def
/ET { } bind def
/pdfmark where { pop globaldict /?pdfmark /exec load put }
    { globaldict begin /?pdfmark /pop load def /pdfmark
    /cleartomark load def end } ifelse
/BDC { mark 3 1 roll /BDC pdfmark } bind def
/EMC { mark /EMC pdfmark } bind def
/cairo_store_point { /cairo_point_y exch def /cairo_point_x exch def } def
/Tj { show currentpoint cairo_store_point } bind def
/TJ {
  {
    dup
    type /stringtype eq
    { show } { -0.001 mul 0 cairo_font_matrix dtransform rmoveto } ifelse
  } forall
  currentpoint cairo_store_point
} bind def
/cairo_selectfont { cairo_font_matrix aload pop pop pop 0 0 6 array astore
    cairo_font exch selectfont cairo_point_x cairo_point_y moveto } bind def
/Tf { pop /cairo_font exch def /cairo_font_matrix where
      { pop cairo_selectfont } if } bind def
/Td { matrix translate cairo_font_matrix matrix concatmatrix dup
      /cairo_font_matrix exch def dup 4 get exch 5 get cairo_store_point
      /cairo_font where { pop cairo_selectfont } if } bind def
/Tm { 2 copy 8 2 roll 6 array astore /cairo_font_matrix exch def
      cairo_store_point /cairo_font where { pop cairo_selectfont } if } bind def
/g { setgray } bind def
/rg { setrgbcolor } bind def
/d1 { setcachedevice } bind def
/cairo_set_page_size {
  % Change paper size, but only if different from previous paper size otherwise
  % duplex fails. PLRM specifies a tolerance of 5 pts when matching paper size
  % so we use the same when checking if the size changes.
  /setpagedevice where {
    pop currentpagedevice
    /PageSize known {
      2 copy
      currentpagedevice /PageSize get aload pop
      exch 4 1 roll
      sub abs 5 gt
      3 1 roll
      sub abs 5 gt
      or
    } {
      true
    } ifelse
    {
      2 array astore
      2 dict begin
        /PageSize exch def
        /ImagingBBox null def
      currentdict end
      setpagedevice
    } {
      pop pop
    } ifelse
  } {
    pop
  } ifelse
} def
%%EndProlog
%%BeginSetup
%%EndSetup
%%Page: 1 1
%%BeginPageSetup
%%PageMedia: 54x54mm
%%PageBoundingBox: 12 13 142 141
154 154 cairo_set_page_size
%%EndPageSetup
q 12 13 130 128 rectclip q
0.654902 0.831373 1 rg
70.508 101.129 m 70.535 111.321 l 68.691 108.473 58.805 102.243 56.711 
100.129 c 52.562 96.106 42.172 94.54 36.902 91.528 c 38.746 86.454 44.523
 90.778 43.453 83.11 c 46.051 83.422 51.105 83.309 54.676 88.254 c h
70.508 101.129 m f*
0 g
2.598618 w
0 J
1 j
[] 0.0 d
4 M q 1 0 0 -1 0 153.070862 cm
70.508 51.941 m 70.535 41.75 l 68.691 44.598 58.805 50.828 56.711 52.941
 c 52.562 56.965 42.172 58.531 36.902 61.543 c 38.746 66.617 44.523 62.293
 43.453 69.961 c 46.051 69.648 51.105 69.762 54.676 64.816 c h
70.508 51.941 m S Q
0.972549 0.705882 0.301961 rg
49.867 66.536 m 48.48 63.356 45.289 63.372 42.066 63.442 c 30.684 102.165
 l 33.668 110.489 31.535 122.415 23.375 124.551 c 26.422 131.028 30.879 
128.774 34.816 129.723 c 42.168 128.211 50.613 106.77 40.66 100.618 c 49.621
 70.52 l h
49.867 66.536 m f*
0 g
q 1 0 0 -1 0 153.070862 cm
49.867 86.535 m 48.48 89.715 45.289 89.699 42.066 89.629 c 30.684 50.906
 l 33.668 42.582 31.535 30.656 23.375 28.52 c 26.422 22.043 30.879 24.297
 34.816 23.348 c 42.168 24.859 50.613 46.301 40.66 52.453 c 49.621 82.551
 l h
49.867 86.535 m S Q
0.980392 0.717647 0.309804 rg
92.059 35.551 m 91.891 26.477 100.266 16.329 105.996 15.086 c 107.492 17.551
 108.324 19.833 108.332 22.251 c 111.797 20.364 113.605 20.157 116.91 19.934
 c 117.77 22.758 117.762 24.598 115.598 27.372 c 118.68 26.989 121.684 27.829
 124.047 28.958 c 122.383 33.501 108.23 38.84 102.621 39.817 c 94.895 34.899
 84.395 45.805 92.055 35.551 c h
92.059 35.551 m f*
0 g
q 1 0 0 -1 0 153.070862 cm
92.059 117.52 m 91.891 126.594 100.266 136.742 105.996 137.984 c 107.492
 135.52 108.324 133.238 108.332 130.82 c 111.797 132.707 113.605 132.914
 116.91 133.137 c 117.77 130.312 117.762 128.473 115.598 125.699 c 118.68
 126.082 121.684 125.242 124.047 124.113 c 122.383 119.57 108.23 114.23 
102.621 113.254 c 94.895 118.172 84.395 107.266 92.055 117.52 c h
92.059 117.52 m S Q
0.972549 0.705882 0.301961 rg
61.105 39.43 m 53.098 40.067 44.164 35.325 39.73 31.516 c 41.41 30.711 
44.75 28.649 48.066 29.024 c 46.332 26.481 46.293 24.239 46.617 22.145 c
 48.75 21.661 52.496 22.075 55.316 22.825 c 54.035 20.239 53.699 18.032 
54.477 15.661 c 58.301 15.59 70.57 23.071 75.414 33.973 c 64.949 36.844 
66.688 31.981 61.105 39.43 c h
61.105 39.43 m f*
0 g
q 1 0 0 -1 0 153.070862 cm
61.105 113.641 m 53.098 113.004 44.164 117.746 39.73 121.555 c 41.41 122.359
 44.75 124.422 48.066 124.047 c 46.332 126.59 46.293 128.832 46.617 130.926
 c 48.75 131.41 52.496 130.996 55.316 130.246 c 54.035 132.832 53.699 135.039
 54.477 137.41 c 58.301 137.48 70.57 130 75.414 119.098 c 64.949 116.227
 66.688 121.09 61.105 113.641 c h
61.105 113.641 m S Q
0.654902 0.831373 1 rg
60.914 112.559 m 60.914 112.559 62.438 125.61 67.965 131.219 c 81.758 145.223
 99.586 137.43 107.059 120.196 c 113.992 104.204 127.277 57.348 116.383 
41.864 c 104.828 24.141 79.012 23.942 62.02 29.438 c 56.859 30.665 50.191
 38.86 48.945 43.711 c 45.98 55.215 43.395 71.145 54.727 95.036 c 57.984
 103.188 l 60.914 112.555 l h
60.914 112.559 m f*
0 g
q 1 0 0 -1 0 153.070862 cm
60.914 40.512 m 60.914 40.512 62.438 27.461 67.965 21.852 c 81.758 7.848
 99.586 15.641 107.059 32.875 c 113.992 48.867 127.277 95.723 116.383 111.207
 c 104.828 128.93 79.012 129.129 62.02 123.633 c 56.859 122.406 50.191 114.211
 48.945 109.359 c 45.98 97.855 43.395 81.926 54.727 58.035 c 57.984 49.883
 l 60.914 40.516 l h
60.914 40.512 m S Q
1 g
58.383 31.879 m 49.07 55.911 51.113 91.145 79.32 90.336 c 107.266 89.532
 109.945 44.04 93.359 27.653 c 81.973 24.266 63.402 27.016 58.383 31.876
 c h
58.383 31.879 m f*
0 g
q 1 0 0 -1 0 153.070862 cm
58.383 121.191 m 49.07 97.16 51.113 61.926 79.32 62.734 c 107.266 63.539
 109.945 109.031 93.359 125.418 c 81.973 128.805 63.402 126.055 58.383 121.195
 c h
58.383 121.191 m S Q
1 g
105.691 110.34 m 106.469 105.391 106.812 100.692 109.539 94.618 c 107.684
 89.586 108.828 87.227 110.172 85.044 c 112.98 80.919 113.832 76.731 113.812
 72.512 c 113.672 68.172 112.156 65.204 115.867 60.075 c 118.543 56.93 121.648
 54.106 123.605 49.688 c 126.281 53.333 126.938 57.501 127.098 61.801 c 
123.75 65.09 120.809 68.891 121.41 74.641 c 120.738 68.926 123.707 64.891
 125.785 63.184 c 129.75 60.934 129.449 61.126 134.32 60.102 c 133.148 65.661
 135.004 66.501 134.535 69.989 c 133.941 74.442 132.105 79.805 130.395 84.262
 c 127.469 89.176 l 123.531 96.258 120.617 131.59 109.25 123.645 c 106.062
 119.325 105.766 114.84 105.691 110.34 c h
105.691 110.34 m f*
0 g
q 1 0 0 -1 0 153.070862 cm
105.691 42.73 m 106.469 47.68 106.812 52.379 109.539 58.453 c 107.684 63.484
 108.828 65.844 110.172 68.027 c 112.98 72.152 113.832 76.34 113.812 80.559
 c 113.672 84.898 112.156 87.867 115.867 92.996 c 118.543 96.141 121.648
 98.965 123.605 103.383 c 126.281 99.738 126.938 95.57 127.098 91.27 c 123.75
 87.98 120.809 84.18 121.41 78.43 c 120.738 84.145 123.707 88.18 125.785
 89.887 c 129.75 92.137 129.449 91.945 134.32 92.969 c 133.148 87.41 135.004
 86.57 134.535 83.082 c 133.941 78.629 132.105 73.266 130.395 68.809 c 127.469
 63.895 l 123.531 56.812 120.617 21.48 109.25 29.426 c 106.062 33.746 105.766
 38.23 105.691 42.73 c h
105.691 42.73 m S Q
0.654902 0.831373 1 rg
115.852 107.364 m 120.371 97.961 126.664 88.454 133.266 78.93 c 133.266
 78.93 137.211 82.926 138.309 85.032 c 139.148 86.641 139.922 90.86 139.922
 90.86 c 137.434 96.653 129.332 108.34 122.977 113.704 c 114.824 119.415
 114.258 114.848 115.852 107.364 c h
115.852 107.364 m f*
0 g
q 1 0 0 -1 0 153.070862 cm
115.852 45.707 m 120.371 55.109 126.664 64.617 133.266 74.141 c 133.266
 74.141 137.211 70.145 138.309 68.039 c 139.148 66.43 139.922 62.211 139.922
 62.211 c 137.434 56.418 129.332 44.73 122.977 39.367 c 114.824 33.656 114.258
 38.223 115.852 45.707 c h
115.852 45.707 m S Q
0.972549 0.705882 0.301961 rg
73.789 116.379 m 70.207 114.434 65.633 108.516 68.387 97.911 c 75.383 93.098
 97.598 105.204 88.297 115.317 c 83.957 118.379 78.246 118.044 73.789 116.379
 c h
73.789 116.379 m f*
0 g
2.488429 w
q 1 0 0 -1 0 153.070862 cm
73.789 36.691 m 70.207 38.637 65.633 44.555 68.387 55.16 c 75.383 59.973
 97.598 47.867 88.297 37.754 c 83.957 34.691 78.246 35.027 73.789 36.691
 c h
73.789 36.691 m S Q
0.654902 0.831373 1 rg
27.594 81.544 m 29.969 76.11 37.785 78.473 39.516 78.942 c 43.316 80.172
 41.773 85.547 38.441 86.223 c 36.027 86.661 36.008 86.09 33.602 85.223 
c 35.418 86.196 l 34.691 88.622 34.328 89.387 33.75 91.489 c 30 91.743 25.527
 85.419 27.594 81.544 c h
27.594 81.544 m f*
0 g
2.598618 w
q 1 0 0 -1 0 153.070862 cm
27.594 71.527 m 29.969 76.961 37.785 74.598 39.516 74.129 c 43.316 72.898
 41.773 67.523 38.441 66.848 c 36.027 66.41 36.008 66.98 33.602 67.848 c
 35.418 66.875 l 34.691 64.449 34.328 63.684 33.75 61.582 c 30 61.328 25.527
 67.652 27.594 71.527 c h
27.594 71.527 m S Q
1 J
q 1 0 0 -1 0 153.070862 cm
26.734 24.453 m 37.312 22.766 41.199 41.109 39.297 46.977 c S Q
0.92549 g
27.246 125.551 m 16.605 123.751 l 9.844 121.973 15.645 96.965 22.812 97.946
 c 34.934 102.762 l 38.246 115.903 31.543 124.965 27.246 125.551 c h
27.246 125.551 m f*
0 g
2.597722 w
0 J
q 1 -0.0263012 -0.0263012 -1 0 153.070862 cm
27.951 26.784 m 17.365 28.864 l 10.654 30.817 17.108 55.655 24.246 54.487
 c 36.232 49.356 l 39.197 36.137 32.26 27.257 27.951 26.784 c h
27.951 26.784 m S Q
0.634965 w
0 j
q 1 -0.0263012 -0.0263012 -1 0 153.070862 cm
17.849 29.472 m 23.704 28.088 29.484 50.619 23.811 54.729 c 26.164 53.769
 l S Q
0.64943 w
q 1 -0.0263012 -0.0263012 -1 0 153.070862 cm
21.536 31.23 m 32.269 29.1 l S Q
q 1 -0.0263012 -0.0263012 -1 0 153.070862 cm
23.218 33.987 m 33.642 31.85 l S Q
q 1 -0.0263012 -0.0263012 -1 0 153.070862 cm
24.344 37.121 m 34.623 34.976 l S Q
q 1 -0.0263012 -0.0263012 -1 0 153.070862 cm
25.551 40.394 m 35.672 38.171 l S Q
q 1 -0.0263012 -0.0263012 -1 0 153.070862 cm
25.9 43.706 m 36.486 41.052 l S Q
q 1 -0.0263012 -0.0263012 -1 0 153.070862 cm
26.169 46.827 m 36.657 43.844 l S Q
q 1 -0.0263012 -0.0263012 -1 0 153.070862 cm
25.925 49.888 m 36.496 46.329 l S Q
2.469668 w
1 J
1 j
q 1 0 0 -1 0 153.070862 cm
114.723 55.293 m 115.227 58.727 116.02 59.992 116.93 61.613 c 117.844 63.238
 118.973 64.945 119.133 64.988 c S Q
q 1 0 0 -1 0 153.070862 cm
119.305 69.293 m 119.406 69.512 119.84 70.766 119.793 72.457 c S Q
0 0 0.00392157 rg
76.547 127.751 m 75.527 125.887 75.27 124.989 75.387 122.348 c 75.48 121.176
 76.535 121.169 77.316 122.145 c 77.508 124.751 77.543 124.727 78.438 127.251
 c 78.148 128.403 77.109 128.254 76.547 127.751 c h
76.547 127.751 m f*
0 g
2.598618 w
0 J
q 1 0 0 -1 0 153.070862 cm
76.547 25.32 m 75.527 27.184 75.27 28.082 75.387 30.723 c 75.48 31.895 
76.535 31.902 77.316 30.926 c 77.508 28.32 77.543 28.344 78.438 25.82 c 
78.148 24.668 77.109 24.816 76.547 25.32 c h
76.547 25.32 m S Q
0.823529 g
76.547 125.419 m 76.355 124.926 76.309 124.692 76.328 123.997 c 76.348 
123.684 76.547 123.684 76.691 123.942 c 76.727 124.629 76.734 124.622 76.902
 125.286 c 76.848 125.59 76.652 125.551 76.547 125.419 c h
76.547 125.419 m f*
1 g
0.578239 w
q 1 0 0 -1 0 153.070862 cm
76.547 27.652 m 76.355 28.145 76.309 28.379 76.328 29.074 c 76.348 29.387
 76.547 29.387 76.691 29.129 c 76.727 28.441 76.734 28.449 76.902 27.785
 c 76.848 27.48 76.652 27.52 76.547 27.652 c h
76.547 27.652 m S Q
0 0 0.00392157 rg
86.195 127.766 m 85.18 125.899 84.922 125.001 85.035 122.36 c 85.133 121.188
 86.184 121.18 86.965 122.157 c 87.156 124.762 87.195 124.739 88.09 127.262
 c 87.797 128.415 86.758 128.27 86.195 127.766 c h
86.195 127.766 m f
0 g
2.598618 w
0 j
q 1 0 0 -1 0 153.070862 cm
86.195 25.305 m 85.18 27.172 84.922 28.07 85.035 30.711 c 85.133 31.883
 86.184 31.891 86.965 30.914 c 87.156 28.309 87.195 28.332 88.09 25.809 
c 87.797 24.656 86.758 24.801 86.195 25.305 c h
86.195 25.305 m S Q
0.823529 g
86.262 125.27 m 86.07 124.778 86.02 124.544 86.043 123.848 c 86.062 123.54
 86.258 123.536 86.406 123.794 c 86.441 124.481 86.449 124.473 86.617 125.137
 c 86.562 125.442 86.367 125.403 86.262 125.27 c h
86.262 125.27 m f
1 g
0.578239 w
q 1 0 0 -1 0 153.070862 cm
86.262 27.801 m 86.07 28.293 86.02 28.527 86.043 29.223 c 86.062 29.531
 86.258 29.535 86.406 29.277 c 86.441 28.59 86.449 28.598 86.617 27.934 
c 86.562 27.629 86.367 27.668 86.262 27.801 c h
86.262 27.801 m S Q
0 g
72.059 105.852 m 65.43 103.02 l f
0 0 0.00392157 rg
78.871 114.754 m 78.723 114.336 78.684 114.133 78.699 113.54 c 78.715 113.274
 78.871 113.274 78.984 113.493 c 79.012 114.079 79.02 114.075 79.148 114.641
 c 79.105 114.903 78.953 114.868 78.871 114.754 c h
78.871 114.754 m f*
0 g
0.473057 w
1 j
q 1 0 0 -1 0 153.070862 cm
78.871 38.316 m 78.723 38.734 78.684 38.938 78.699 39.531 c 78.715 39.797
 78.871 39.797 78.984 39.578 c 79.012 38.992 79.02 38.996 79.148 38.43 c
 79.105 38.168 78.953 38.203 78.871 38.316 c h
78.871 38.316 m S Q
0 0 0.00392157 rg
81.188 114.79 m 81.039 114.368 81 114.165 81.02 113.571 c 81.031 113.305
 81.188 113.305 81.301 113.524 c 81.332 114.11 81.336 114.106 81.469 114.676
 c 81.426 114.934 81.27 114.903 81.188 114.79 c h
81.188 114.79 m f*
0 g
q 1 0 0 -1 0 153.070862 cm
81.188 38.281 m 81.039 38.703 81 38.906 81.02 39.5 c 81.031 39.766 81.188
 39.766 81.301 39.547 c 81.332 38.961 81.336 38.965 81.469 38.395 c 81.426
 38.137 81.27 38.168 81.188 38.281 c h
81.188 38.281 m S Q
2.469668 w
1 J
q 1 0 0 -1 0 153.070862 cm
114.723 55.293 m 115.227 58.727 116.02 59.992 116.93 61.613 c 117.844 63.238
 118.973 64.945 119.133 64.988 c S Q
q 1 0 0 -1 0 153.070862 cm
119.305 69.293 m 119.406 69.512 119.84 70.766 119.793 72.457 c S Q
Q Q
showpage
%%Trailer
%%EOF
