%!PS-Adobe-3.0
%%Creator: cairo 1.14.8 (http://cairographics.org)
%%CreationDate: Mon Feb 20 12:00:17 2017
%%Pages: 1
%%DocumentData: Clean7Bit
%%LanguageLevel: 2
%%DocumentMedia: 54x54mm 153 153 0 () ()
%%BoundingBox: 5 6 148 149
%%EndComments
%%BeginProlog
/languagelevel where
{ pop languagelevel } { 1 } ifelse
2 lt { /Helvetica findfont 12 scalefont setfont 50 500 moveto
  (This print job requires a PostScript Language Level 2 printer.) show
  showpage quit } if
/q { gsave } bind def
/Q { grestore } bind def
/cm { 6 array astore concat } bind def
/w { setlinewidth } bind def
/J { setlinecap } bind def
/j { setlinejoin } bind def
/M { setmiterlimit } bind def
/d { setdash } bind def
/m { moveto } bind def
/l { lineto } bind def
/c { curveto } bind def
/h { closepath } bind def
/re { exch dup neg 3 1 roll 5 3 roll moveto 0 rlineto
      0 exch rlineto 0 rlineto closepath } bind def
/S { stroke } bind def
/f { fill } bind def
/f* { eofill } bind def
/n { newpath } bind def
/W { clip } bind def
/W* { eoclip } bind def
/BT { } bind def
/ET { } bind def
/pdfmark where { pop globaldict /?pdfmark /exec load put }
    { globaldict begin /?pdfmark /pop load def /pdfmark
    /cleartomark load def end } ifelse
/BDC { mark 3 1 roll /BDC pdfmark } bind def
/EMC { mark /EMC pdfmark } bind def
/cairo_store_point { /cairo_point_y exch def /cairo_point_x exch def } def
/Tj { show currentpoint cairo_store_point } bind def
/TJ {
  {
    dup
    type /stringtype eq
    { show } { -0.001 mul 0 cairo_font_matrix dtransform rmoveto } ifelse
  } forall
  currentpoint cairo_store_point
} bind def
/cairo_selectfont { cairo_font_matrix aload pop pop pop 0 0 6 array astore
    cairo_font exch selectfont cairo_point_x cairo_point_y moveto } bind def
/Tf { pop /cairo_font exch def /cairo_font_matrix where
      { pop cairo_selectfont } if } bind def
/Td { matrix translate cairo_font_matrix matrix concatmatrix dup
      /cairo_font_matrix exch def dup 4 get exch 5 get cairo_store_point
      /cairo_font where { pop cairo_selectfont } if } bind def
/Tm { 2 copy 8 2 roll 6 array astore /cairo_font_matrix exch def
      cairo_store_point /cairo_font where { pop cairo_selectfont } if } bind def
/g { setgray } bind def
/rg { setrgbcolor } bind def
/d1 { setcachedevice } bind def
/cairo_set_page_size {
  % Change paper size, but only if different from previous paper size otherwise
  % duplex fails. PLRM specifies a tolerance of 5 pts when matching paper size
  % so we use the same when checking if the size changes.
  /setpagedevice where {
    pop currentpagedevice
    /PageSize known {
      2 copy
      currentpagedevice /PageSize get aload pop
      exch 4 1 roll
      sub abs 5 gt
      3 1 roll
      sub abs 5 gt
      or
    } {
      true
    } ifelse
    {
      2 array astore
      2 dict begin
        /PageSize exch def
        /ImagingBBox null def
      currentdict end
      setpagedevice
    } {
      pop pop
    } ifelse
  } {
    pop
  } ifelse
} def
%%EndProlog
%%BeginSetup
%%EndSetup
%%Page: 1 1
%%BeginPageSetup
%%PageMedia: 54x54mm
%%PageBoundingBox: 5 6 148 149
154 154 cairo_set_page_size
%%EndPageSetup
q 5 6 143 143 rectclip q
1 0 0 rg
0.442614 w
0 J
1 j
[] 0.0 d
4 M q 1 0 0 -1 0 153.070862 cm
81.227 5.938 m 71.887 6.762 65.398 13.879 60.047 19.309 c 57.371 22.02 
54.953 24.313 52.789 25.277 c 51.707 25.762 50.719 25.93 49.715 25.742 c
 48.711 25.559 47.648 25.008 46.469 23.875 c 46.465 23.871 46.461 23.867
 46.457 23.863 c 39.164 17.117 32.313 15.434 25.164 17.645 c 25.152 17.648
 25.137 17.652 25.121 17.66 c 25.117 17.66 25.113 17.66 25.109 17.664 c 
25.07 17.672 25.027 17.688 24.988 17.703 c 22.98 18.551 21.988 19.668 20.859
 20.512 c 19.73 21.352 18.391 22.078 15.254 22.465 c 15.211 22.473 15.164
 22.48 15.121 22.492 c 12.098 23.34 9.184 25.469 7.684 28.043 c 7.684 28.047
 7.68 28.051 7.676 28.055 c 6.457 30.223 5.988 32.262 5.758 34.223 c 5.758
 34.23 5.754 34.242 5.754 34.25 c 5.293 39.543 6.418 45.777 8.688 51.227
 c 10.961 56.676 14.363 61.375 18.73 63.391 c 18.602 63.32 l 19.84 64.148
 20.363 64.902 20.602 65.668 c 20.844 66.434 20.789 67.285 20.602 68.277
 c 20.227 70.262 19.246 72.758 20.234 75.496 c 20.242 75.512 20.246 75.527
 20.254 75.543 c 20.262 75.566 20.266 75.59 20.273 75.609 c 20.273 75.602
 20.27 75.59 20.266 75.57 c 20.277 75.609 20.289 75.648 20.297 75.672 c 
20.297 75.672 20.297 75.672 20.297 75.676 c 20.305 75.707 20.301 75.688 
20.309 75.723 c 20.359 75.895 20.457 76.047 20.594 76.16 c 22.727 80.383
 26.031 83.531 29.672 84.117 c 29.637 84.109 l 30.566 84.301 31.668 85.652
 32.496 87.461 c 33.324 89.266 33.906 91.348 34.273 92.617 c 35.199 97.336
 36.648 102.148 37.121 106.32 c 37.594 110.504 37.125 113.875 34.398 116.18
 c 34.398 116.18 34.395 116.184 34.395 116.188 c 32.387 117.918 31.344 120.656
 31.699 123.285 c 31.703 123.328 31.715 123.371 31.727 123.414 c 32.207 
125.129 33.078 126.156 34.074 126.762 c 35.074 127.367 36.078 127.625 37.125
 128.18 c 37.16 128.199 37.199 128.215 37.234 128.23 c 37.898 128.477 38.25
 128.949 38.496 129.684 c 38.742 130.414 38.805 131.363 38.777 132.211 c
 38.777 132.219 38.777 132.227 38.777 132.234 c 38.762 133.785 39.309 135.008
 40.141 135.82 c 40.973 136.633 42.012 137.059 42.98 137.383 c 43.949 137.707
 44.875 137.934 45.496 138.203 c 46.121 138.473 46.309 138.656 46.367 138.949
 c 46.371 138.984 46.383 139.023 46.395 139.063 c 46.902 140.625 47.965 
142.277 49.32 143.613 c 50.676 144.949 52.336 146.004 54.148 146.039 c 59.672
 146.145 62.164 144.07 65.836 141.691 c 65.891 141.656 65.938 141.617 65.984
 141.574 c 70.461 137.156 73.012 135.73 75.848 135.25 c 78.684 134.773 82.035
 135.309 87.762 135.137 c 90.66 135.793 92.262 137.715 93.285 139.793 c 
93.328 139.883 93.387 139.965 93.457 140.035 c 96.32 142.922 99.449 145.406
 103.957 146.387 c 107.105 147.07 110.508 145.633 112.285 142.957 c 113.473
 141.93 114.164 141.449 115.918 141.695 c 115.941 141.699 115.965 141.699
 115.988 141.703 c 119.563 141.934 123.07 139.516 124.125 136.09 c 124.141
 136.043 124.152 135.996 124.16 135.949 c 124.156 135.965 l 124.371 134.633
 124.574 133.77 124.91 133.246 c 125.246 132.723 125.719 132.367 126.922
 132.023 c 126.969 132.008 127.02 131.992 127.066 131.969 c 130.641 130.25
 132.473 125.727 131.094 122.004 c 131.082 121.973 131.07 121.941 131.055
 121.91 c 128.852 117.098 128.504 113.609 129.102 110.867 c 129.699 108.117
 131.266 106.031 133.152 104.09 c 135.043 102.145 137.238 100.383 138.93
 98.27 c 140.621 96.156 141.781 93.598 141.375 90.348 c 141.383 90.449 l
 141.379 90.168 141.434 90.016 141.52 89.57 c 141.688 88.711 142.074 87.184
 141.656 84.066 c 141.648 83.984 141.625 83.91 141.598 83.836 c 140.66 81.555
 140.926 79.848 141.688 78.09 c 142.449 76.336 143.773 74.598 144.871 72.617
 c 144.879 72.605 144.887 72.59 144.895 72.578 c 146.262 69.801 146.719 
67.352 147.285 64.555 c 147.289 64.547 147.289 64.539 147.289 64.535 c 147.289
 64.531 l 147.57 62.996 147.391 61.391 146.777 59.953 c 146.777 59.953 146.777
 59.953 146.773 59.953 c 143.359 52.004 135.797 41.109 127.68 34.262 c 127.75
 34.324 l 124.773 31.246 122.52 28.289 120.09 25.941 c 117.695 23.637 115.055
 21.93 111.52 21.504 c 105.863 19.742 103.094 16.246 99.773 12.875 c 96.457
 9.504 92.523 6.336 85.074 5.965 c 83.746 5.832 82.461 5.828 81.227 5.938
 c h
147.289 64.531 m 147.301 64.477 147.305 64.426 147.305 64.371 c h
147.289 64.531 m S Q
Q Q
showpage
%%Trailer
%%EOF
