%!PS-Adobe-3.0
%%Creator: cairo 1.14.8 (http://cairographics.org)
%%CreationDate: Mon Feb 20 11:59:40 2017
%%Pages: 1
%%DocumentData: Clean7Bit
%%LanguageLevel: 2
%%DocumentMedia: 54x44mm 153 125 0 () ()
%%BoundingBox: 11 15 142 109
%%EndComments
%%BeginProlog
/languagelevel where
{ pop languagelevel } { 1 } ifelse
2 lt { /Helvetica findfont 12 scalefont setfont 50 500 moveto
  (This print job requires a PostScript Language Level 2 printer.) show
  showpage quit } if
/q { gsave } bind def
/Q { grestore } bind def
/cm { 6 array astore concat } bind def
/w { setlinewidth } bind def
/J { setlinecap } bind def
/j { setlinejoin } bind def
/M { setmiterlimit } bind def
/d { setdash } bind def
/m { moveto } bind def
/l { lineto } bind def
/c { curveto } bind def
/h { closepath } bind def
/re { exch dup neg 3 1 roll 5 3 roll moveto 0 rlineto
      0 exch rlineto 0 rlineto closepath } bind def
/S { stroke } bind def
/f { fill } bind def
/f* { eofill } bind def
/n { newpath } bind def
/W { clip } bind def
/W* { eoclip } bind def
/BT { } bind def
/ET { } bind def
/pdfmark where { pop globaldict /?pdfmark /exec load put }
    { globaldict begin /?pdfmark /pop load def /pdfmark
    /cleartomark load def end } ifelse
/BDC { mark 3 1 roll /BDC pdfmark } bind def
/EMC { mark /EMC pdfmark } bind def
/cairo_store_point { /cairo_point_y exch def /cairo_point_x exch def } def
/Tj { show currentpoint cairo_store_point } bind def
/TJ {
  {
    dup
    type /stringtype eq
    { show } { -0.001 mul 0 cairo_font_matrix dtransform rmoveto } ifelse
  } forall
  currentpoint cairo_store_point
} bind def
/cairo_selectfont { cairo_font_matrix aload pop pop pop 0 0 6 array astore
    cairo_font exch selectfont cairo_point_x cairo_point_y moveto } bind def
/Tf { pop /cairo_font exch def /cairo_font_matrix where
      { pop cairo_selectfont } if } bind def
/Td { matrix translate cairo_font_matrix matrix concatmatrix dup
      /cairo_font_matrix exch def dup 4 get exch 5 get cairo_store_point
      /cairo_font where { pop cairo_selectfont } if } bind def
/Tm { 2 copy 8 2 roll 6 array astore /cairo_font_matrix exch def
      cairo_store_point /cairo_font where { pop cairo_selectfont } if } bind def
/g { setgray } bind def
/rg { setrgbcolor } bind def
/d1 { setcachedevice } bind def
/cairo_set_page_size {
  % Change paper size, but only if different from previous paper size otherwise
  % duplex fails. PLRM specifies a tolerance of 5 pts when matching paper size
  % so we use the same when checking if the size changes.
  /setpagedevice where {
    pop currentpagedevice
    /PageSize known {
      2 copy
      currentpagedevice /PageSize get aload pop
      exch 4 1 roll
      sub abs 5 gt
      3 1 roll
      sub abs 5 gt
      or
    } {
      true
    } ifelse
    {
      2 array astore
      2 dict begin
        /PageSize exch def
        /ImagingBBox null def
      currentdict end
      setpagedevice
    } {
      pop pop
    } ifelse
  } {
    pop
  } ifelse
} def
%%EndProlog
%%BeginSetup
%%EndSetup
%%Page: 1 1
%%BeginPageSetup
%%PageMedia: 54x44mm
%%PageBoundingBox: 11 15 142 109
154 125 cairo_set_page_size
%%EndPageSetup
q 11 15 131 94 rectclip q
0.305882 0.603922 0.0235294 rg
71.977 108.267 m 71.977 108.267 71.977 108.263 71.977 108.263 c 71.789 
108.228 71.598 108.193 71.406 108.158 c 71.398 108.142 71.387 108.127 71.379
 108.111 c 71.34 108.033 71.297 107.951 71.254 107.869 c 71.062 107.51 70.855
 107.158 70.637 106.803 c 69.602 105.135 68.445 103.56 67.27 102.025 c 65.961
 100.31 64.629 98.662 63.297 97.056 c 27.586 97.228 14.211 100.201 14.211
 100.201 c 14.211 100.201 17.93 92.498 20.496 57.412 c 15.262 54.584 12.199
 52.877 11.953 52.646 c 11.973 52.654 11.992 52.67 12.02 52.681 c 12.082
 52.709 12.172 52.74 12.293 52.775 c 12.324 52.783 12.367 52.795 12.402 
52.803 c 13.199 53.158 15.188 54.127 18.082 55.584 c 15.176 53.959 13.25
 53.135 12.422 52.81 c 12.414 52.806 12.41 52.806 12.402 52.803 c 12.375
 52.791 12.359 52.787 12.332 52.775 c 12.098 52.681 11.934 52.623 11.934
 52.623 c 11.934 52.623 11.984 52.642 12.062 52.662 c 11.984 52.631 11.941
 52.611 11.934 52.623 c 11.934 52.623 11.934 52.623 11.934 52.615 c 11.941
 52.615 11.953 52.615 11.965 52.611 c 11.984 52.615 12.004 52.619 12.035
 52.623 c 12.098 52.631 12.195 52.642 12.32 52.662 c 12.578 52.697 12.961
 52.744 13.469 52.779 c 14.012 52.814 14.691 52.838 15.5 52.818 c 16.312
 52.799 17.262 52.736 18.328 52.615 c 19.105 52.529 19.945 52.408 20.844
 52.263 c 22.43 27.58 21.125 19.877 20.066 17.498 c 23 20.119 33.328 26.885
 63.23 28.963 c 64.508 27.33 65.801 25.678 67.133 23.978 c 67.512 24.123
 67.895 24.263 68.277 24.412 c 69.367 25.127 70.52 25.791 71.703 26.463 
c 73.555 27.513 75.453 28.56 77.395 29.603 c 106.605 30.228 125.414 26.291
 126.094 26.146 c 125.508 26.322 121.422 28.279 119.398 48.892 c 122 49.779
 124.641 50.627 127.328 51.412 c 131.453 52.615 135.648 53.846 139.875 55.088
 c 139.785 55.15 139.695 55.213 139.605 55.271 c 139.926 55.334 140.172 
55.381 140.348 55.412 c 140.336 55.346 140.32 55.275 140.305 55.209 c 140.543
 55.279 140.77 55.346 141.008 55.416 c 141.047 55.654 141.09 55.892 141.129
 56.131 c 141.113 56.142 141.09 56.154 141.07 56.17 c 140.996 56.221 140.922
 56.271 140.844 56.326 c 140.5 56.564 140.156 56.806 139.812 57.045 c 138.141
 58.205 136.457 59.373 134.766 60.541 c 133.594 61.353 132.414 62.162 131.234
 62.978 c 127.266 65.713 123.344 68.412 119.461 71.08 c 121.473 88.314 127.309
 100.486 127.309 100.486 c 127.309 100.486 116.094 97.974 83.684 97.244 
c 82.203 98.525 80.758 99.818 79.355 101.131 c 76.844 103.556 74.379 105.935
 71.977 108.267 c h
140.305 55.209 m 140.16 55.166 140.02 55.127 139.875 55.088 c 139.898 55.072
 139.922 55.053 139.945 55.037 c 140.023 54.982 140.102 54.931 140.176 54.881
 c 140.195 54.869 140.211 54.853 140.23 54.842 c 140.258 54.963 140.277 
55.088 140.305 55.209 c h
20.066 17.498 m 19.336 16.846 19.059 16.447 19.059 16.447 c 19.059 16.447
 19.531 16.295 20.066 17.498 c h
72.66 107.572 m 72.648 107.545 72.633 107.525 72.621 107.498 c 72.586 107.424
 72.547 107.349 72.508 107.279 c 72.434 107.373 72.367 107.455 72.312 107.529
 c 72.43 107.545 72.543 107.556 72.66 107.572 c h
72.66 107.572 m f*
0.929412 0.831373 0 rg
11.934 52.623 m 11.934 52.623 26.18 57.467 47.543 79.119 c 68.91 100.767
 72.043 107.888 72.043 107.888 c 72.043 107.888 78.594 98.205 106.797 78.834
 c 135 59.463 140.695 55.474 140.695 55.474 c 140.695 55.474 119.902 52.056
 94.547 39.236 c 69.195 26.416 67.199 24.424 67.199 24.424 c 67.199 24.424
 60.648 38.096 40.137 46.642 c 19.625 55.189 11.934 52.623 11.934 52.623
 c h
11.934 52.623 m f*
0.12549 0.290196 0.529412 rg
121.039 65.443 m 121.039 46.092 105.352 30.404 86 30.404 c 66.648 30.404
 50.961 46.092 50.961 65.443 c 50.961 84.795 66.648 100.482 86 100.482 c
 105.352 100.482 121.039 84.795 121.039 65.443 c h
121.039 65.443 m f
1 g
89.07 97.9 m 87.992 97.818 86.914 97.767 85.855 97.642 c 86.324 97.58 l
 87.102 97.846 88.242 97.728 89.07 97.9 c h
84.355 97.443 m 82.602 97.346 80.164 96.498 80.918 97.267 c 78.055 96.084
 72.969 94.424 70.117 91.943 c 70.027 92.502 l 68.719 91.045 64.324 88.158
 63.973 86.271 c 63.625 86.197 l 62.945 85.131 62.504 83.92 61.965 82.822
 c 61.074 81.416 60.66 82.283 60.785 82.06 c 59.035 78.775 58.164 76.013
 57.414 73.744 c 57.949 73.006 57.43 69.283 57.629 66.306 c 56.754 51.599
 68.77 37.322 81.91 34.025 c 83.836 33.388 86.699 33.412 89.133 33.346 c
 86.262 34.107 85.887 33.752 83.09 34.654 c 81.07 35.537 80.629 36.541 79.195
 37.693 c 79.762 36.767 l 76.957 37.685 78.133 37.904 75.852 38.572 c 76.453
 39.303 l 75.547 39.369 74.047 40.724 73.637 41.474 c 72.641 41.439 l 71.445
 42.803 70.809 43.787 70.855 44.553 c 70.535 44.021 l 70.168 44.599 66.137
 49.146 68.23 48.088 c 67.84 48.416 67.324 48.623 66.762 49.568 c 67.188
 50.017 l 66.184 51.217 65.336 52.756 65.402 53.267 c 65.938 52.596 66.312
 52.471 66.68 52.357 c 64.137 58.201 63.992 52.678 62.07 58.306 c 62.477
 58.334 l 62.164 58.771 61.973 59.244 61.723 59.709 c 61.898 61.342 l 60.07
 63.303 61.391 69.681 61.652 73.178 c 61.836 74.599 63.18 76.115 64.203 
78.486 c 63.582 78.588 l 64.773 80.51 70.383 86.318 72.98 86.017 c 74.242
 87.482 72.734 86.025 72.488 86.392 c 75.254 89.045 76.121 88.267 77.988
 88.744 c 80 89.849 76.258 88.31 77.215 89.166 c 80.691 89.986 79.68 91.037
 84.219 91.455 c 84.695 91.201 83.105 91.064 82.707 90.736 c 85.605 92.053
 91.879 91.752 95.957 90.01 c 100.684 87.959 105.996 81.908 106.207 76.217
 c 106.445 76.154 l 106.324 73.892 106.82 71.275 105.961 68.869 c 106.543
 70.01 l 106.613 68.279 105.996 67.439 105.441 65.955 c 104.441 65.494 l
 103.625 64.021 104.523 64.56 103.938 63.388 c 102.664 62.342 100.07 60.107
 99.242 59.9 c 98.633 59.912 99.652 60.564 99.785 60.818 c 98.078 59.732
 98.414 59.189 95.801 58.529 c 95.727 58.685 l 89.289 55.881 80.348 61.439
 80.465 69.025 c 80.398 68.545 80.27 68.666 80.129 68.471 c 79.797 72.373
 82.074 76.291 85.914 77.896 c 89.672 79.619 94.078 78.912 96.77 76.588 
c 95.289 78.381 92.348 80.283 88.863 80.107 c 85.445 80.056 82.25 78.045
 81.184 75.857 c 79.434 74.838 79.23 71.924 78.469 71.392 c 77.441 64.404
 80.395 61.388 85.398 57.834 c 85.789 57.592 85.848 57.447 85.816 57.322
 c 85.816 57.322 85.816 57.322 85.82 57.322 c 91.719 55.279 97.812 55.775
 102.918 59.568 c 104.219 60.506 105.637 62.099 106.047 62.119 c 105.43 
61.26 106.152 61.705 105.68 60.947 c 106.969 62.881 105.113 61.732 107.016
 64.287 c 107.715 63.388 l 107.453 64.998 109.867 66.947 109.621 69.482 
c 110.176 70.26 110.238 68.646 109.652 66.861 c 110.469 68.842 109.867 69.162
 110.078 70.799 c 110.301 70.248 110.602 69.666 110.754 69.084 c 110.223
 70.998 111.297 72.306 111.562 73.42 c 111.297 73.529 110.742 72.572 110.613
 74.834 c 110.633 75.818 110.91 75.349 111.016 75.592 c 110.809 75.705 110.266
 76.455 109.934 77.9 c 110.172 78.24 110.574 77.021 110.902 76.971 c 110.691
 78.119 110.328 78.994 110.312 79.877 c 109.355 81.728 109.977 79.627 109.199
 80.67 c 108.18 83.615 110.043 81.353 110.172 82.689 c 111.715 80.619 112.594
 77.404 113 76.072 c 112.691 77.697 112.195 79.271 111.582 80.791 c 112.055
 80.607 110.828 84.127 112.195 81.795 c 110.734 86.767 105.953 91.416 101.551
 93.596 c 102.09 93.138 102.77 92.564 102.527 92.474 c 100.336 93.681 100.719
 93.775 100.406 94.287 c 98.625 94.959 98.508 94.228 97.328 94.283 c 93.969
 95.935 93.32 95.763 90.227 96.795 c 90.367 96.185 l 88.141 96.873 87.773
 95.928 85.367 96.185 c 85.223 96.287 86.137 96.564 86.891 96.666 c 84.742
 96.404 84.84 97.06 82.734 96.596 c 83.254 96.931 83.805 97.158 84.355 97.443
 c h
86.094 97.068 m 86.711 96.967 87.426 96.888 87.324 96.752 c 88 96.888 88.152
 97.013 86.094 97.068 c h
87.324 96.752 m 86.895 96.666 l 87.293 96.701 l h
58.914 84.08 m 58.914 84.053 58.918 84.025 58.922 84.006 c 58.918 84.029
 58.918 84.053 58.914 84.08 c h
58.922 84.006 m 59.047 82.517 57.688 81.955 59.23 82.955 c 60.035 84.635
 59.004 83.549 58.922 84.006 c h
57.633 79.181 m 56.633 77.998 57.176 77.744 57.07 76.939 c 57.434 77.967
 57.496 78.584 57.633 79.181 c h
98.785 72.029 m 98.641 72.025 98.457 71.689 98.363 71.322 c 98.578 71.221
 98.75 69.963 98.957 70.74 c 99.027 71.705 98.926 72.033 98.785 72.029 c
 h
111.41 68.783 m 111.242 68.388 l 110.93 66.342 110.258 64.318 109.227 62.439
 c 110.367 64.42 111.102 66.588 111.41 68.783 c h
98.035 68.06 m 97.883 67.353 97.469 66.74 97.074 66.096 c 94.918 64.834
 96.871 66.842 97.074 67.607 c 94.754 64.896 96.754 65.982 96.672 65.224
 c 97.359 66.103 97.859 67.064 98.035 68.06 c h
93.328 63.931 m 92.391 63.717 91.438 63.713 90.473 63.795 c 89.32 63.779
 90.691 63.244 92.199 63.029 c 92.617 63.33 92.992 63.635 93.328 63.931 
c h
78.758 63.791 m 79.012 62.924 79.535 62.178 80.02 61.42 c 79.664 62.392
 l 79.262 62.803 79.023 63.299 78.758 63.791 c h
77.871 62.326 m 77.707 61.576 l 78.465 60.619 79.07 59.584 80.039 58.842
 c 79.34 60.099 78.824 60.623 77.871 62.326 c h
79.328 61.217 m 82.027 56.736 90.281 53.357 94.609 55.033 c 92.605 54.967
 90.062 54.994 87.816 55.763 c 86.961 56.174 85.828 56.974 85.793 57.252
 c 85.75 57.15 85.684 57.045 85.723 56.896 c 84.062 57.615 82.543 58.705
 81.289 60.037 c 81.953 59.135 82.672 58.26 83.598 57.576 c 82.027 58.064
 79.938 61.092 79.328 61.217 c h
85.816 57.318 m 85.797 57.303 85.789 57.279 85.793 57.252 c 85.801 57.275
 85.809 57.295 85.816 57.318 c h
85.816 57.318 m f
105.988 38.998 m 103.941 40.888 l 101.297 39.998 l 102.461 42.533 l 100.801
 44.771 l 103.566 44.447 l 105.184 46.717 l 105.73 43.986 l 108.391 43.15
 l 105.961 41.787 l h
105.988 38.998 m f
76.285 52.971 m 78.172 52.971 l 78.598 52.971 78.922 52.939 79.145 52.877
 c 79.445 52.791 79.703 52.638 79.918 52.42 c 80.129 52.201 80.293 51.935
 80.406 51.619 c 80.516 51.303 80.574 50.912 80.574 50.451 c 80.574 50.041
 80.52 49.693 80.414 49.396 c 80.289 49.037 80.105 48.744 79.867 48.521 
c 79.688 48.353 79.449 48.221 79.145 48.127 c 78.914 48.056 78.609 48.025
 78.23 48.025 c 76.285 48.025 l 76.285 52.971 l 77.32 52.135 m 77.32 48.857
 l 78.09 48.857 l 78.379 48.857 78.586 48.873 78.715 48.904 c 78.883 48.943
 79.02 49.013 79.129 49.111 c 79.242 49.205 79.332 49.365 79.402 49.584 
c 79.469 49.806 79.504 50.111 79.504 50.494 c 79.504 50.877 79.469 51.17
 79.402 51.373 c 79.332 51.58 79.234 51.74 79.109 51.853 c 78.98 51.967 
78.824 52.045 78.629 52.088 c 78.484 52.119 78.203 52.135 77.781 52.135 
c 77.32 52.135 l f
83.59 49.162 m 84.566 49.006 l 84.441 48.658 84.242 48.396 83.969 48.213
 c 83.699 48.033 83.359 47.943 82.953 47.943 c 82.309 47.943 81.832 48.146
 81.523 48.553 c 81.281 48.881 81.16 49.291 81.16 49.787 c 81.16 50.381 
81.32 50.846 81.641 51.181 c 81.961 51.517 82.367 51.689 82.855 51.689 c
 83.406 51.689 83.844 51.51 84.16 51.158 c 84.48 50.806 84.633 50.267 84.617
 49.541 c 82.164 49.541 l 82.168 49.26 82.25 49.041 82.398 48.885 c 82.551
 48.728 82.738 48.65 82.965 48.65 c 83.117 48.65 83.246 48.693 83.352 48.771
 c 83.457 48.853 83.535 48.982 83.59 49.162 c 83.645 50.123 m 83.637 50.396
 83.562 50.603 83.426 50.748 c 83.285 50.892 83.117 50.963 82.914 50.963
 c 82.703 50.963 82.523 50.888 82.387 50.736 c 82.246 50.584 82.176 50.381
 82.18 50.123 c 83.645 50.123 l f
85.379 48.025 m 85.379 52.971 l 86.355 52.971 l 86.355 51.189 l 86.66 51.521
 87.02 51.689 87.43 51.689 c 87.883 51.689 88.254 51.529 88.551 51.213 c
 88.848 50.896 88.992 50.443 88.992 49.853 c 88.992 49.24 88.844 48.767 
88.539 48.439 c 88.242 48.107 87.875 47.943 87.445 47.943 c 87.234 47.943
 87.023 47.994 86.816 48.096 c 86.613 48.197 86.438 48.349 86.289 48.549
 c 86.289 48.025 l 85.379 48.025 l 86.352 49.892 m 86.352 49.521 86.41 49.248
 86.531 49.068 c 86.703 48.818 86.926 48.693 87.207 48.693 c 87.426 48.693
 87.609 48.779 87.758 48.959 c 87.914 49.138 87.988 49.42 87.988 49.806 
c 87.988 50.213 87.914 50.51 87.758 50.689 c 87.605 50.873 87.41 50.963 
87.168 50.963 c 86.934 50.963 86.738 50.873 86.586 50.697 c 86.43 50.521
 86.352 50.252 86.352 49.892 c f
89.785 52.092 m 89.785 52.971 l 90.766 52.971 l 90.766 52.092 l 89.785 
52.092 l 89.785 48.025 m 89.785 51.607 l 90.766 51.607 l 90.766 48.025 l
 89.785 48.025 l f
92.496 50.513 m 91.609 50.67 l 91.707 51.013 91.879 51.271 92.125 51.439
 c 92.367 51.603 92.73 51.689 93.211 51.689 c 93.648 51.689 93.977 51.638
 94.188 51.537 c 94.402 51.435 94.555 51.31 94.641 51.154 c 94.727 51.002
 94.773 50.721 94.773 50.306 c 94.762 49.201 l 94.762 48.885 94.777 48.654
 94.805 48.502 c 94.84 48.353 94.898 48.193 94.984 48.025 c 94.016 48.025
 l 93.988 48.088 93.957 48.181 93.922 48.303 c 93.906 48.361 93.895 48.396
 93.887 48.416 c 93.719 48.256 93.539 48.138 93.348 48.06 c 93.16 47.982
 92.953 47.943 92.738 47.943 c 92.355 47.943 92.055 48.041 91.836 48.244
 c 91.617 48.443 91.508 48.697 91.508 49.002 c 91.508 49.205 91.559 49.385
 91.656 49.541 c 91.758 49.701 91.898 49.822 92.074 49.908 c 92.258 49.99
 92.52 50.064 92.855 50.131 c 93.316 50.213 93.633 50.291 93.809 50.361 
c 93.809 50.455 l 93.809 50.638 93.762 50.767 93.668 50.846 c 93.578 50.924
 93.402 50.963 93.145 50.963 c 92.969 50.963 92.832 50.928 92.734 50.861
 c 92.637 50.795 92.559 50.681 92.496 50.513 c 93.809 49.744 m 93.684 49.705
 93.484 49.654 93.211 49.599 c 92.941 49.545 92.762 49.486 92.68 49.435 
c 92.551 49.346 92.488 49.236 92.488 49.099 c 92.488 48.967 92.539 48.853
 92.641 48.756 c 92.742 48.658 92.875 48.611 93.031 48.611 c 93.207 48.611
 93.375 48.666 93.539 48.779 c 93.656 48.865 93.734 48.971 93.77 49.092 
c 93.797 49.174 93.809 49.33 93.809 49.556 c 93.809 49.744 l f
99.109 48.025 m 98.129 48.025 l 98.129 49.853 l 98.129 50.24 98.109 50.49
 98.066 50.599 c 98.023 50.717 97.957 50.806 97.859 50.869 c 97.77 50.931
 97.656 50.963 97.523 50.963 c 97.352 50.963 97.199 50.916 97.066 50.826
 c 96.93 50.736 96.84 50.619 96.785 50.471 c 96.738 50.322 96.715 50.049
 96.715 49.646 c 96.715 48.025 l 95.734 48.025 l 95.734 51.607 l 96.645 
51.607 l 96.645 51.08 l 96.969 51.486 97.375 51.689 97.863 51.689 c 98.082
 51.689 98.277 51.65 98.457 51.572 c 98.637 51.498 98.77 51.404 98.863 51.287
 c 98.953 51.17 99.02 51.037 99.055 50.888 c 99.09 50.74 99.109 50.525 99.109
 50.252 c 99.109 48.025 l f
78.281 46.06 m 80.324 46.06 l 80.73 46.06 81.031 46.041 81.227 46.01 c 
81.43 45.978 81.605 45.908 81.762 45.806 c 81.918 45.701 82.051 45.564 82.156
 45.392 c 82.262 45.221 82.312 45.029 82.312 44.814 c 82.312 44.584 82.246
 44.369 82.117 44.178 c 81.988 43.982 81.816 43.838 81.594 43.74 c 81.906
 43.654 82.145 43.502 82.312 43.291 c 82.48 43.08 82.562 42.834 82.562 42.545
 c 82.562 42.322 82.508 42.103 82.398 41.888 c 82.293 41.678 82.145 41.506
 81.957 41.381 c 81.77 41.252 81.539 41.174 81.266 41.146 c 81.094 41.127
 80.68 41.115 80.023 41.111 c 78.281 41.111 l 78.281 46.06 l 79.312 45.236
 m 79.312 44.092 l 79.988 44.092 l 80.391 44.092 80.641 44.099 80.738 44.107
 c 80.918 44.131 81.055 44.189 81.156 44.283 c 81.258 44.385 81.309 44.513
 81.309 44.674 c 81.309 44.826 81.266 44.951 81.176 45.045 c 81.09 45.138
 80.961 45.197 80.789 45.221 c 80.688 45.232 80.391 45.236 79.906 45.236
 c 79.312 45.236 l 79.312 43.267 m 79.312 41.947 l 80.27 41.947 l 80.641
 41.947 80.879 41.955 80.977 41.974 c 81.129 42.002 81.254 42.068 81.352
 42.174 c 81.449 42.279 81.496 42.42 81.496 42.596 c 81.496 42.744 81.461
 42.869 81.387 42.971 c 81.312 43.076 81.203 43.15 81.062 43.197 c 80.922
 43.244 80.617 43.267 80.148 43.267 c 79.312 43.267 l f
84.371 41.111 m 83.391 41.111 l 83.391 44.697 l 84.301 44.697 l 84.301 
44.185 l 84.457 44.428 84.594 44.588 84.719 44.662 c 84.844 44.74 84.984
 44.775 85.145 44.775 c 85.367 44.775 85.582 44.717 85.789 44.599 c 85.484
 43.771 l 85.32 43.877 85.168 43.928 85.023 43.928 c 84.887 43.928 84.773
 43.888 84.676 43.814 c 84.582 43.744 84.504 43.611 84.449 43.42 c 84.398
 43.228 84.371 42.83 84.371 42.221 c 84.371 41.111 l f
86.941 43.603 m 86.051 43.76 l 86.152 44.103 86.324 44.361 86.566 44.529
 c 86.812 44.693 87.172 44.775 87.656 44.775 c 88.09 44.775 88.418 44.728
 88.633 44.627 c 88.844 44.525 88.996 44.4 89.082 44.244 c 89.168 44.092
 89.215 43.81 89.215 43.396 c 89.203 42.291 l 89.203 41.974 89.219 41.744
 89.25 41.592 c 89.281 41.443 89.34 41.283 89.426 41.111 c 88.457 41.111
 l 88.43 41.174 88.398 41.267 88.363 41.392 c 88.348 41.447 88.336 41.486
 88.328 41.506 c 88.16 41.346 87.98 41.228 87.789 41.15 c 87.602 41.072 
87.398 41.033 87.18 41.033 c 86.801 41.033 86.5 41.131 86.277 41.33 c 86.059
 41.533 85.949 41.783 85.949 42.092 c 85.949 42.295 86 42.474 86.098 42.631
 c 86.199 42.791 86.34 42.912 86.52 42.994 c 86.699 43.08 86.961 43.154 
87.301 43.217 c 87.758 43.303 88.074 43.381 88.25 43.451 c 88.25 43.545 
l 88.25 43.728 88.203 43.857 88.113 43.931 c 88.02 44.013 87.844 44.053 
87.586 44.053 c 87.41 44.053 87.273 44.017 87.176 43.951 c 87.078 43.885
 87 43.767 86.941 43.603 c 88.25 42.834 m 88.125 42.795 87.926 42.744 87.656
 42.689 c 87.383 42.631 87.203 42.576 87.121 42.521 c 86.992 42.435 86.93
 42.322 86.93 42.189 c 86.93 42.056 86.98 41.943 87.082 41.846 c 87.184 
41.748 87.316 41.701 87.473 41.701 c 87.648 41.701 87.82 41.756 87.98 41.869
 c 88.098 41.955 88.176 42.056 88.211 42.181 c 88.238 42.263 88.25 42.416
 88.25 42.642 c 88.25 42.834 l f
89.836 42.135 m 90.82 42.279 l 90.863 42.096 90.949 41.955 91.074 41.857
 c 91.203 41.763 91.383 41.717 91.613 41.717 c 91.867 41.717 92.055 41.76
 92.184 41.849 c 92.27 41.916 92.312 41.998 92.312 42.103 c 92.312 42.178
 92.289 42.236 92.242 42.283 c 92.195 42.33 92.086 42.369 91.914 42.408 
c 91.125 42.576 90.625 42.732 90.414 42.869 c 90.121 43.064 89.973 43.334
 89.973 43.678 c 89.973 43.986 90.102 44.248 90.352 44.459 c 90.605 44.67
 91 44.775 91.531 44.775 c 92.039 44.775 92.414 44.697 92.66 44.537 c 92.91
 44.377 93.078 44.142 93.172 43.83 c 92.246 43.662 l 92.207 43.803 92.133
 43.908 92.02 43.982 c 91.91 44.056 91.754 44.096 91.551 44.096 c 91.293
 44.096 91.105 44.06 90.996 43.99 c 90.922 43.943 90.883 43.877 90.883 43.799
 c 90.883 43.732 90.918 43.674 90.98 43.627 c 91.07 43.564 91.375 43.474
 91.895 43.361 c 92.418 43.244 92.781 43.103 92.988 42.939 c 93.195 42.767
 93.297 42.533 93.297 42.232 c 93.297 41.904 93.156 41.623 92.871 41.385
 c 92.586 41.15 92.168 41.033 91.613 41.033 c 91.109 41.033 90.707 41.131
 90.414 41.33 c 90.121 41.525 89.93 41.795 89.836 42.135 c f
94.156 45.181 m 94.156 46.06 l 95.137 46.06 l 95.137 45.181 l 94.156 45.181
 l 94.156 41.111 m 94.156 44.697 l 95.137 44.697 l 95.137 41.111 l 94.156
 41.111 l f
96.137 46.06 0.98 -4.949 re f
Q Q
showpage
%%Trailer
%%EOF
