%!PS-Adobe-3.0
%%Creator: cairo 1.14.8 (http://cairographics.org)
%%CreationDate: Mon Feb 20 11:59:54 2017
%%Pages: 1
%%DocumentData: Clean7Bit
%%LanguageLevel: 2
%%DocumentMedia: 54x44mm 153 125 0 () ()
%%BoundingBox: 5 9 148 115
%%EndComments
%%BeginProlog
/languagelevel where
{ pop languagelevel } { 1 } ifelse
2 lt { /Helvetica findfont 12 scalefont setfont 50 500 moveto
  (This print job requires a PostScript Language Level 2 printer.) show
  showpage quit } if
/q { gsave } bind def
/Q { grestore } bind def
/cm { 6 array astore concat } bind def
/w { setlinewidth } bind def
/J { setlinecap } bind def
/j { setlinejoin } bind def
/M { setmiterlimit } bind def
/d { setdash } bind def
/m { moveto } bind def
/l { lineto } bind def
/c { curveto } bind def
/h { closepath } bind def
/re { exch dup neg 3 1 roll 5 3 roll moveto 0 rlineto
      0 exch rlineto 0 rlineto closepath } bind def
/S { stroke } bind def
/f { fill } bind def
/f* { eofill } bind def
/n { newpath } bind def
/W { clip } bind def
/W* { eoclip } bind def
/BT { } bind def
/ET { } bind def
/pdfmark where { pop globaldict /?pdfmark /exec load put }
    { globaldict begin /?pdfmark /pop load def /pdfmark
    /cleartomark load def end } ifelse
/BDC { mark 3 1 roll /BDC pdfmark } bind def
/EMC { mark /EMC pdfmark } bind def
/cairo_store_point { /cairo_point_y exch def /cairo_point_x exch def } def
/Tj { show currentpoint cairo_store_point } bind def
/TJ {
  {
    dup
    type /stringtype eq
    { show } { -0.001 mul 0 cairo_font_matrix dtransform rmoveto } ifelse
  } forall
  currentpoint cairo_store_point
} bind def
/cairo_selectfont { cairo_font_matrix aload pop pop pop 0 0 6 array astore
    cairo_font exch selectfont cairo_point_x cairo_point_y moveto } bind def
/Tf { pop /cairo_font exch def /cairo_font_matrix where
      { pop cairo_selectfont } if } bind def
/Td { matrix translate cairo_font_matrix matrix concatmatrix dup
      /cairo_font_matrix exch def dup 4 get exch 5 get cairo_store_point
      /cairo_font where { pop cairo_selectfont } if } bind def
/Tm { 2 copy 8 2 roll 6 array astore /cairo_font_matrix exch def
      cairo_store_point /cairo_font where { pop cairo_selectfont } if } bind def
/g { setgray } bind def
/rg { setrgbcolor } bind def
/d1 { setcachedevice } bind def
/cairo_set_page_size {
  % Change paper size, but only if different from previous paper size otherwise
  % duplex fails. PLRM specifies a tolerance of 5 pts when matching paper size
  % so we use the same when checking if the size changes.
  /setpagedevice where {
    pop currentpagedevice
    /PageSize known {
      2 copy
      currentpagedevice /PageSize get aload pop
      exch 4 1 roll
      sub abs 5 gt
      3 1 roll
      sub abs 5 gt
      or
    } {
      true
    } ifelse
    {
      2 array astore
      2 dict begin
        /PageSize exch def
        /ImagingBBox null def
      currentdict end
      setpagedevice
    } {
      pop pop
    } ifelse
  } {
    pop
  } ifelse
} def
%%EndProlog
%%BeginSetup
%%EndSetup
%%Page: 1 1
%%BeginPageSetup
%%PageMedia: 54x44mm
%%PageBoundingBox: 5 9 148 115
154 125 cairo_set_page_size
%%EndPageSetup
q 5 9 143 106 rectclip q
1 0.0196078 0 rg
0.419429 w
0 J
0 j
[] 0.0 d
4 M q 1 0 0 -1 0 124.724411 cm
71.902 10.598 m 71.871 10.602 71.84 10.602 71.809 10.602 c 71.523 10.613
 71.242 10.641 70.961 10.691 c 70.742 10.73 70.535 10.766 70.336 10.805 
c 68.488 11.148 66.922 12.352 66.113 14.047 c 66.051 14.176 65.977 14.305
 65.895 14.422 c 65.82 14.555 65.754 14.672 65.652 14.84 c 64.777 16.25 
63.746 17.66 62.613 19.141 c 62.23 19.645 61.898 20.031 61.648 20.348 c 
60.969 21.215 59.922 21.715 58.82 21.699 c 27.426 21.301 15.516 18.809 15.516
 18.809 c 15.504 18.809 15.496 18.805 15.484 18.805 c 10.473 17.691 6.703
 22.453 8.934 27.074 c 8.914 27.055 l 8.969 27.168 9.043 27.301 9.082 27.398
 c 9.219 27.727 9.309 28.023 9.438 28.488 c 9.691 29.41 10.059 30.961 10.641
 33.902 c 11.676 39.145 12.926 48.484 14.07 61.734 c 14.191 63.125 13.484
 64.457 12.262 65.133 c 12.023 65.27 11.664 65.461 11.559 65.52 c 10.82 
65.93 10.238 66.262 9.77 66.539 c 9.566 66.656 9.406 66.754 9.23 66.863 
c 9.207 66.883 9.191 66.895 9.152 66.922 c 9.086 66.973 9.199 66.969 8.578
 67.277 c 8.875 67.109 l 8.617 67.27 8.375 67.449 8.145 67.648 c 8.16 67.633
 l 8.16 67.633 8.148 67.645 8.145 67.645 c 8.117 67.672 8.086 67.699 8.059
 67.723 c 7.984 67.785 7.918 67.848 7.848 67.91 c 7.402 68.352 7.031 68.855
 6.746 69.414 c 6.734 69.434 6.723 69.457 6.711 69.477 c 6.695 69.516 6.676
 69.555 6.66 69.59 c 6.523 69.879 6.406 70.18 6.316 70.488 c 6.309 70.52
 6.297 70.555 6.285 70.586 c 6.277 70.637 6.266 70.688 6.258 70.738 c 6.18
 71.051 6.133 71.375 6.109 71.699 c 6.102 71.797 6.094 71.895 6.078 71.992
 c 6.082 72.215 6.098 72.688 6.082 72.48 c 6.082 72.48 6.082 72.48 6.082
 72.484 c 6.105 72.84 6.117 72.863 6.152 73.074 c 6.504 75.184 7.969 76.918
 9.988 77.633 c 10.02 77.645 10.051 77.656 10.086 77.668 c 10.172 77.699
 10.176 77.703 10.09 77.668 c 10.129 77.684 10.164 77.695 10.203 77.711 
c 10.215 77.715 10.227 77.715 10.234 77.719 c 10.285 77.73 10.336 77.746
 10.387 77.762 c 10.516 77.801 10.645 77.832 10.777 77.859 c 10.977 77.902
 11.18 77.934 11.383 77.953 c 11.316 77.945 l 11.355 77.949 11.465 77.965
 11.555 77.977 c 11.543 77.977 11.504 77.969 11.492 77.965 c 11.375 77.953
 l 11.523 77.965 11.668 77.977 11.812 77.977 c 13.715 78.004 15.254 79.531
 15.297 81.434 c 15.297 81.352 15.297 81.438 15.301 81.504 c 15.668 93.859
 15.051 101.148 14.859 103.238 c 14.805 103.848 14.59 104.43 14.242 104.934
 c 11.961 108.219 13.414 112.531 17.18 113.809 c 17.457 113.852 19.387 114.145
 19.648 114.121 c 20.508 114.047 21.66 113.668 22.406 113.211 c 23.242 112.703
 23.793 112.172 24.258 111.586 c 24.445 111.352 24.66 111.141 24.902 110.961
 c 27.477 109.016 35.859 104.277 58.66 102.094 c 59.859 101.98 61.035 102.484
 61.781 103.434 c 62.035 103.758 62.273 104.062 62.52 104.375 c 64.113 106.41
 66.809 107.156 69.223 106.238 c 69.574 106.102 69.945 105.961 70.355 105.809
 c 70.758 105.656 71.145 105.457 71.504 105.219 c 72.355 104.66 73.336 104.094
 74.426 103.473 c 74.43 103.473 74.434 103.469 74.434 103.469 c 74.488 103.434
 74.543 103.402 74.598 103.371 c 75.77 102.703 76.973 102.051 78.133 101.418
 c 78.641 101.141 79.207 100.988 79.789 100.984 c 93.426 100.805 104.609
 101.621 112.426 102.488 c 120.223 103.359 124.246 104.191 124.855 104.32
 c 124.855 104.32 124.859 104.32 124.859 104.32 c 127.523 104.871 130.18
 103.555 131.348 101.094 c 132.516 98.633 131.859 95.738 129.742 94.023 
c 129.324 93.684 128.988 93.254 128.762 92.762 c 128.746 92.73 128.715 92.664
 128.66 92.535 c 127.91 90.816 127.094 87.949 126.262 83 c 125.965 81.234
 127.035 79.523 128.754 79.02 c 128.672 79.043 128.742 79.016 128.965 78.953
 c 128.969 78.949 128.973 78.949 128.98 78.949 c 128.996 78.941 l 132.445
 77.938 135.957 76.906 139.477 75.875 c 139.773 75.789 140.078 75.738 140.387
 75.73 c 141.68 75.699 142.922 75.246 143.926 74.434 c 144.02 74.359 144.117
 74.289 144.215 74.227 c 145.586 73.328 146.52 71.898 146.789 70.281 c 146.824
 70.07 146.863 69.875 146.914 69.57 c 147.285 67.328 146.348 65.098 144.484
 63.797 c 144.465 63.785 144.445 63.773 144.426 63.758 c 144.336 63.695 
144.27 63.648 144.215 63.609 c 144.211 63.605 144.207 63.602 144.199 63.602
 c 144.199 63.598 144.199 63.598 144.199 63.598 c 143.848 63.355 143.5 63.113
 143.156 62.875 c 141.484 61.711 139.793 60.539 138.098 59.367 c 136.918
 58.551 135.738 57.742 134.562 56.93 c 132.246 55.336 129.973 53.773 127.688
 52.199 c 126.543 51.414 125.965 50.035 126.207 48.668 c 128.508 35.641 
132.57 26.828 132.57 26.828 c 132.578 26.812 132.586 26.797 132.594 26.785
 c 134.809 22.16 131.031 17.41 126.027 18.527 c 126.027 18.527 126.023 18.527
 126.023 18.527 c 126.023 18.527 119.434 19.969 101.004 20.965 c 100.535
 20.988 100.07 20.922 99.633 20.766 c 95.336 19.246 90.754 18.379 86 18.379
 c 85.746 18.379 85.16 18.484 84.145 18.531 c 83.172 18.578 82.223 18.219
 81.523 17.543 c 79.691 15.773 77.855 14.004 76.086 12.285 c 76.082 12.281
 76.078 12.277 76.078 12.273 c 74.941 11.164 73.41 10.562 71.824 10.602 
c 71.863 10.602 l 71.812 10.605 71.824 10.602 71.902 10.598 c h
8.332 67.324 m 8.332 67.324 7.953 67.66 7.582 67.988 c 7.609 67.973 7.641
 67.965 7.668 67.953 c 8.105 67.594 l h
7.906 67.828 m 7.879 67.852 7.879 67.855 7.832 67.887 c 7.832 67.887 7.836
 67.883 7.84 67.883 c 7.891 67.848 7.871 67.855 7.906 67.828 c h
7.633 67.98 m 7.605 67.992 7.582 68 7.551 68.016 c 7.289 68.246 7.051 68.457
 7.012 68.488 c h
6.414 69.934 m 6.398 69.953 6.383 69.977 6.367 69.996 c 6.363 70.004 6.43
 69.922 6.406 69.949 c h
11.738 78.012 m 11.996 78.07 12.566 78.277 12.652 78.32 c 12.746 78.371
 12.172 78.109 11.922 78.047 c 11.812 78.02 11.801 78.023 11.738 78.012 
c h
11.738 78.012 m S Q
Q Q
showpage
%%Trailer
%%EOF
