<?xml version="1.0" encoding="UTF-8" standalone="no"?>
<!-- Created with Inkscape (http://www.inkscape.org/) -->

<svg
   xmlns:dc="http://purl.org/dc/elements/1.1/"
   xmlns:cc="http://creativecommons.org/ns#"
   xmlns:rdf="http://www.w3.org/1999/02/22-rdf-syntax-ns#"
   xmlns:svg="http://www.w3.org/2000/svg"
   xmlns="http://www.w3.org/2000/svg"
   xmlns:sodipodi="http://sodipodi.sourceforge.net/DTD/sodipodi-0.dtd"
   xmlns:inkscape="http://www.inkscape.org/namespaces/inkscape"
   id="svg2"
   version="1.1"
   inkscape:version="0.91 r13725"
   xml:space="preserve"
   width="5.4000001cm"
   height="5.4000001cm"
   viewBox="0 0 191.33858 191.33858"
   sodipodi:docname="adesivo-gnu-faca.svg"><metadata
     id="metadata8"><rdf:RDF><cc:Work
         rdf:about=""><dc:format>image/svg+xml</dc:format><dc:type
           rdf:resource="http://purl.org/dc/dcmitype/StillImage" /><dc:title></dc:title></cc:Work></rdf:RDF></metadata><defs
     id="defs6"><clipPath
       clipPathUnits="userSpaceOnUse"
       id="clipPath16"><path
         d="M 0,153 153,153 153,0 0,0 0,153 Z"
         id="path18"
         inkscape:connector-curvature="0" /></clipPath><clipPath
       clipPathUnits="userSpaceOnUse"
       id="clipPath30"><path
         d="M 0,153 153,153 153,0 0,0 0,153 Z"
         id="path32"
         inkscape:connector-curvature="0" /></clipPath></defs><sodipodi:namedview
     pagecolor="#ffffff"
     bordercolor="#666666"
     borderopacity="1"
     objecttolerance="10"
     gridtolerance="10"
     guidetolerance="10"
     inkscape:pageopacity="0"
     inkscape:pageshadow="2"
     inkscape:window-width="1920"
     inkscape:window-height="1022"
     id="namedview4"
     showgrid="false"
     inkscape:zoom="2.4679739"
     inkscape:cx="96.840572"
     inkscape:cy="95.625"
     inkscape:window-x="0"
     inkscape:window-y="0"
     inkscape:window-maximized="1"
     inkscape:current-layer="g5855"
     units="cm" /><g
     id="g10"
     inkscape:groupmode="layer"
     inkscape:label="padrao_adesivo_5x5"
     transform="matrix(1.25,0,0,-1.25,0,191.33858)"><g
       transform="matrix(0.92222903,0,0,-0.92222903,-31.650985,170.60366)"
       id="g5855"><path
         sodipodi:nodetypes="ccssccccscccccccccccccccccccccccccccsccccccscccccccsccccscccccccccccsccccccsccccccccccccccc"
         inkscape:connector-curvature="0"
         id="path9438"
         d="m 189.03125,105.90625 c -5.58599,0.1453 -11.89834,1.28765 -18.1875,4.59375 -6.64905,3.49589 -11.76275,8.07242 -15.53125,15.3125 -3.83186,7.36174 -4.50412,14.28424 -3.96875,22.375 0.56405,8.52426 3.22857,15.55432 8.6875,22.375 3.94542,4.9294 8.58105,8.10363 13.96875,10.03125 -0.61409,1.38397 -0.77762,2.24667 -0.90625,3.125 -3.49908,2.31625 -5.15476,6.29812 -5.5625,9.09375 -0.31099,2.13261 0.1319,4.8304 1.90625,6.875 1.77435,2.0446 4.64917,2.94536 7,2.65625 0.93717,-0.11498 1.65035,-0.36188 2.21875,-0.59375 0.29544,-0.12044 0.57874,-0.308 0.875,-0.46875 0.42983,0.10488 0.89811,0.20068 1.03125,0.21875 0.009,0.001 0.0227,-0.001 0.0312,0 0.13009,4.39526 0.64844,9.01427 2.59375,14.09375 3.34258,8.72828 9.20141,16.01098 19.53125,23.75 0.77375,0.57532 1.67823,0.97373 2.625,1.15625 l 9.9375,6.28125 c 0.60743,0.60895 1.17682,1.1594 2.65625,1.90625 0.86947,0.43767 1.83917,0.67471 2.8125,0.6875 l 2.34375,0.96875 c 0.4559,0.37549 0.98455,0.89946 1.375,1.21875 1.35314,1.10849 3.17136,1.62964 4.90625,1.40625 l 1.84375,0.75 0.0312,-0.0625 c 1.08613,0.60435 2.21078,1.23092 3.28125,1.5 1.13336,0.28502 2.17775,0.34747 3.09375,0.3125 0.82712,-0.0316 1.0951,-0.057 0.84375,-0.0625 0.90742,0.0229 1.81927,-0.14873 2.65625,-0.5 1.25298,0.14024 2.44107,0.23488 3.125,0.3125 1.3106,0.13766 2.66167,-0.1392 3.8125,-0.78125 0.20069,0.003 0.39115,0.0354 0.59375,0.0312 0.40551,-0.008 1.01469,-0.0199 1.71875,-0.0937 2.89314,-0.3038 5.08581,-1.37855 6.15625,-1.96875 2.46733,-1.36624 3.81731,-4.4847 3.125,-7.21875 0.62839,-0.96065 1.26951,-1.89 1.6875,-3.15625 0.60461,-1.82481 0.33613,-3.91805 -0.70944,-5.53121 -1.04556,-1.61316 -2.84669,-2.71302 -4.75931,-2.90629 0.36916,-0.71892 0.72859,-1.44286 0.90625,-2.15625 0.49121,-1.97728 0.35776,-3.78711 -0.0312,-5.46875 0.3122,-0.0269 0.65174,-0.0537 0.9375,-0.0937 0.90559,-0.12762 1.79522,-0.37712 2.71875,-0.8125 1.43042,-0.67455 2.36659,-1.55094 3.125,-2.59375 0.0161,-0.0222 0.3418,-0.44314 0.71875,-1.15625 0.97685,-1.84797 1.18294,-3.20164 1.28125,-3.625 0.23764,-1.02527 0.21923,-1.91862 0.25,-2.84375 1.10142,-0.71835 2.2502,-1.67923 3.1875,-2.9375 1.96105,-2.633 1.82483,-5.22879 1.8125,-6.09375 -1.1e-4,-0.01 1.6e-4,-0.0213 0,-0.0312 -0.0227,-1.37088 -0.56739,-2.69366 -1.15625,-3.8125 0.046,-0.0447 0.1116,-0.11252 0.15625,-0.15625 1.28539,-1.25875 2.79688,-3.31579 3.4375,-5.03125 0.80983,-2.16858 0.98695,-4.28941 0.90625,-6.28125 -0.0135,-0.3322 -0.0751,-0.62243 -0.0937,-0.9375 0.47768,-0.006 1.04701,0.008 1.4375,0 1.78605,-0.0356 4.14537,-0.21827 6.40625,-1.4375 2.56152,-1.38114 4.12858,-3.6285 4.8125,-5.875 0.34196,-1.12325 0.52409,-2.26402 0.375,-3.625 -0.0473,-0.43205 -0.23609,-0.96404 -0.375,-1.46875 1.96779,-1.0515 3.87692,-2.30381 5.625,-3.96875 4.74794,-4.52156 8.58716,-10.83241 10.3125,-17 2.04092,-7.29637 1.51437,-15.76822 0,-22.40625 -1.15518,-5.06848 -3.30153,-9.29424 -6.40625,-13.25 -2.54153,-3.23776 -5.80333,-6.63949 -10.03125,-9.03125 -3.98144,-2.25306 -8.76898,-3.94745 -13.5625,-4.4375 -4.80629,-0.49172 -10.69318,-0.71611 -16.5,1.625 -2.83317,1.14189 -4.75275,2.66647 -5.375,3.03125 -1.14029,0.66832 -1.20229,0.73938 -1.5,0.9375 -2.07824,-0.92062 -4.64298,-0.63181 -6.46443,0.72796 -1.82145,1.35976 -2.82743,3.73658 -2.53557,5.99079 0.15442,1.1613 0.64588,2.86585 1.4375,4.53125 -3.52586,0.66835 -6.81731,2.11274 -9.84375,4.28125 -1.34519,-1.00814 -3.03937,-2.13103 -5.3125,-3.0625 -2.23286,-0.91515 -4.38911,-1.36069 -6.65625,-1.625 1.04482,-1.92437 1.74276,-4.08428 1.65625,-6.28125 -0.0895,-2.22778 -1.42657,-4.36443 -3.39105,-5.41884 -1.96449,-1.05442 -4.48414,-0.98785 -6.3902,0.16884 -0.21124,-0.072 -0.34536,-0.0979 -0.65625,-0.28125 -1.06141,-0.62611 -2.61601,-1.64817 -4.4375,-2.6875 -4.61653,-2.63393 -9.55138,-2.99703 -15.28125,-3.09375 -0.71871,-0.0122 -1.49278,-0.0221 -2.34375,0 z m 22.21875,6.25 c 0.16613,0.001 0.0667,-0.003 0.1875,0 -3e-5,0.0104 -3e-5,0.0208 0,0.0312 -0.0321,-0.005 0.0105,-0.0295 -0.1875,-0.0312 z m 38.71875,121.8125 c 0.005,-4.5e-4 0.0258,3.6e-4 0.0312,0 -0.0735,0.0299 -0.14642,0.0611 -0.21875,0.0937 0.0568,-0.029 0.0876,-0.0852 0.1875,-0.0937 z"
         style="fill:none;stroke:#ff0000;stroke-width:0.375;stroke-miterlimit:4"
         transform="translate(-110.26506,-78.68444)" /></g></g></svg>