%!PS-Adobe-3.0
%%Creator: cairo 1.14.6 (http://cairographics.org)
%%CreationDate: Mon Aug 15 15:01:59 2016
%%Pages: 1
%%DocumentData: Clean7Bit
%%LanguageLevel: 2
%%DocumentMedia: 54x54mm 153 153 0 () ()
%%BoundingBox: 12 13 141 141
%%EndComments
%%BeginProlog
/languagelevel where
{ pop languagelevel } { 1 } ifelse
2 lt { /Helvetica findfont 12 scalefont setfont 50 500 moveto
  (This print job requires a PostScript Language Level 2 printer.) show
  showpage quit } if
/q { gsave } bind def
/Q { grestore } bind def
/cm { 6 array astore concat } bind def
/w { setlinewidth } bind def
/J { setlinecap } bind def
/j { setlinejoin } bind def
/M { setmiterlimit } bind def
/d { setdash } bind def
/m { moveto } bind def
/l { lineto } bind def
/c { curveto } bind def
/h { closepath } bind def
/re { exch dup neg 3 1 roll 5 3 roll moveto 0 rlineto
      0 exch rlineto 0 rlineto closepath } bind def
/S { stroke } bind def
/f { fill } bind def
/f* { eofill } bind def
/n { newpath } bind def
/W { clip } bind def
/W* { eoclip } bind def
/BT { } bind def
/ET { } bind def
/pdfmark where { pop globaldict /?pdfmark /exec load put }
    { globaldict begin /?pdfmark /pop load def /pdfmark
    /cleartomark load def end } ifelse
/BDC { mark 3 1 roll /BDC pdfmark } bind def
/EMC { mark /EMC pdfmark } bind def
/cairo_store_point { /cairo_point_y exch def /cairo_point_x exch def } def
/Tj { show currentpoint cairo_store_point } bind def
/TJ {
  {
    dup
    type /stringtype eq
    { show } { -0.001 mul 0 cairo_font_matrix dtransform rmoveto } ifelse
  } forall
  currentpoint cairo_store_point
} bind def
/cairo_selectfont { cairo_font_matrix aload pop pop pop 0 0 6 array astore
    cairo_font exch selectfont cairo_point_x cairo_point_y moveto } bind def
/Tf { pop /cairo_font exch def /cairo_font_matrix where
      { pop cairo_selectfont } if } bind def
/Td { matrix translate cairo_font_matrix matrix concatmatrix dup
      /cairo_font_matrix exch def dup 4 get exch 5 get cairo_store_point
      /cairo_font where { pop cairo_selectfont } if } bind def
/Tm { 2 copy 8 2 roll 6 array astore /cairo_font_matrix exch def
      cairo_store_point /cairo_font where { pop cairo_selectfont } if } bind def
/g { setgray } bind def
/rg { setrgbcolor } bind def
/d1 { setcachedevice } bind def
/cairo_set_page_size {
  % Change paper size, but only if different from previous paper size otherwise
  % duplex fails. PLRM specifies a tolerance of 5 pts when matching paper size
  % so we use the same when checking if the size changes.
  /setpagedevice where {
    pop currentpagedevice
    /PageSize known {
      2 copy
      currentpagedevice /PageSize get aload pop
      exch 4 1 roll
      sub abs 5 gt
      3 1 roll
      sub abs 5 gt
      or
    } {
      true
    } ifelse
    {
      2 array astore
      2 dict begin
        /PageSize exch def
        /ImagingBBox null def
      currentdict end
      setpagedevice
    } {
      pop pop
    } ifelse
  } {
    pop
  } ifelse
} def
%%EndProlog
%%BeginSetup
%%EndSetup
%%Page: 1 1
%%BeginPageSetup
%%PageMedia: 54x54mm
%%PageBoundingBox: 12 13 141 141
154 154 cairo_set_page_size
%%EndPageSetup
q 12 13 129 128 rectclip q
1 g
39.309 66.161 m 38.434 66.102 37.293 65.708 36.527 64.336 c 35.902 63.215
 34.438 63.04 33.754 63.262 c 32.617 63.641 31.16 63.899 29.75 62.895 c 
28.34 61.891 26.82 62.653 27.086 64.481 c 27.352 66.313 28.016 67.942 29.77
 68.954 c 33.602 71.157 30.938 72.692 33.043 74.907 c 35.152 77.122 34.684
 77.801 34.613 80.813 c 27.492 81.883 23.453 83.938 18.945 89.571 c 14.434
 95.204 12.688 99.84 12.219 106.903 c 11.754 113.965 12.156 118.544 15.207
 124.407 c 18.262 130.27 21.473 133.094 27.043 136.02 c 32.609 138.946 38.066
 139.649 43.105 139.563 c 48.148 139.477 51.512 139.11 54.359 137.481 c 
57.207 135.856 59.816 133.809 61.477 133.797 c 63.137 133.782 64.27 134.215
 65.078 134.836 c 65.293 129.36 60.363 128.883 55.957 128.77 c 51.547 128.653
 48.84 130.477 44.777 129.797 c 40.719 129.122 34.07 127.274 30.832 121.637
 c 27.594 116.001 27.484 114.004 27.754 109.278 c 28.02 104.551 32.09 101.024
 34.387 100.985 c 36.684 100.95 37.195 101.614 39.207 102.922 c 41.219 104.235
 51.48 116.942 54.98 119.794 c 58.484 122.649 61.941 123.528 65.672 123.575
 c 69.402 123.622 70.359 123.497 73.367 122.262 c 76.375 121.028 78.227 
118.758 80.652 117.368 c 81.895 118.098 82.664 119.188 83.801 120.02 c 87.871
 122.993 89.988 123.797 94.824 123.325 c 97.605 123.055 101.109 121.465 
103.203 119.649 c 106.926 116.411 110.004 111.899 112.488 108.477 c 114.426
 105.809 116.703 102.618 119.957 101.618 c 123.508 100.528 126.18 105.129
 126.574 107.68 c 126.797 109.126 127.086 110.395 127.09 111.985 c 127.09
 113.575 126.93 115.508 126.469 117.165 c 126.012 118.825 125.227 120.473
 124.375 121.844 c 122.988 124.071 120.723 126.399 118.367 127.598 c 117.043
 128.274 113.93 129.497 111.969 129.54 c 109.566 129.59 107.734 128.782 
105.512 128.633 c 102.82 128.45 98.016 127.844 95.906 129.922 c 94.562 131.247
 94.395 132.126 94.164 133.852 c 94.758 133.364 95.586 133.044 96.324 132.981
 c 98.012 132.836 99.586 134.211 100.949 135.008 c 102.066 135.669 103.652
 136.84 105.125 137.434 c 108.906 138.958 113.551 138.915 117.539 138.504
 c 120.738 138.176 124.887 136.754 127.691 135.169 c 130.512 133.575 133.227
 130.883 135.215 128.348 c 137.719 125.161 139.086 122.426 139.992 118.446
 c 141.152 113.368 141.473 105.739 140.074 100.731 c 138.969 96.782 135.305
 90.719 132.184 87.751 c 129.105 84.817 125.551 83.403 121.512 82.629 c 
121.668 81.813 121.695 81.051 121.902 80.383 c 122.199 79.434 122.77 78.376
 123.938 78.711 c 124.402 78.844 124.648 78.961 125.266 78.422 c 125.879
 77.887 125.559 75.813 123.832 74.883 c 122.957 74.411 122.031 74.309 120.633
 74.278 c 119.23 74.251 117.043 74.247 115.52 74.512 c 114 74.778 113.09
 75.985 111.406 76.176 c 108.801 76.465 106.809 78.348 104.719 79.692 c 
103.848 80.254 103.555 80.262 103.051 80.544 c 103.324 79.715 103.684 78.852
 103.863 78.051 c 104.047 77.254 103.969 76.516 104.062 75.876 c 104.16 
75.239 104.336 74.739 104.441 74.223 c 104.855 73.848 104.992 73.282 105.691
 73.102 c 106.395 72.926 107.492 73.204 108.207 73.301 c 108.926 73.395 
109.406 73.786 109.969 73.68 c 110.531 73.575 111.066 73.169 111.539 72.794
 c 112.012 72.415 112.418 72.36 112.797 71.415 c 113.18 70.473 113.531 68.544
 113.582 67.251 c 113.637 65.961 113.492 64.797 113.109 63.77 c 112.727 
62.747 112.391 62.294 111.352 61.278 c 110.316 60.262 108.633 58.774 106.949
 57.739 c 107.258 57.278 107.395 56.86 107.879 56.36 c 108.363 55.864 109.371
 55.305 109.816 54.778 c 110.266 54.254 110.492 53.876 110.5 53.29 c 110.508
 52.7 110.477 51.934 110 51.29 c 108.809 49.692 107.398 49.403 105.684 48.653
 c 105.973 46.852 106.207 45.567 105.793 43.77 c 105.621 43.036 105.242 
41.376 104.34 40.95 c 103.438 40.524 101.695 40.731 100.594 40.555 c 99.488
 40.379 98.875 40.215 98.012 40.044 c 97.492 39.29 96.715 38.458 96.445 
37.778 c 96.18 37.102 96.262 36.86 96.484 36.169 c 96.707 35.477 97.473 
34.469 97.688 33.661 c 97.902 32.852 97.945 31.981 97.742 31.169 c 97.543
 30.36 97.195 29.77 96.504 29.047 c 95.812 28.329 94.453 27.762 93.773 27.176
 c 93.098 26.594 92.422 26.524 92.605 25.555 c 92.863 24.227 94.801 22.075
 96.207 21.563 c 97.047 21.254 98.176 21.352 99.195 21.782 c 99.129 20.649
 98.145 19.883 97.504 19.129 c 99.242 19.629 100.926 20.579 102.09 21.84
 c 101.73 20.743 100.484 18.989 98.629 17.446 c 96.77 15.903 96.781 16.219
 95.855 15.602 c 97.543 15.266 99.109 15.356 100.414 15.59 c 99.699 15.196
 98.527 14.641 96.973 14.477 c 95.418 14.317 94.457 14.43 93.055 14.77 c
 91.656 15.11 90.375 16.383 88.68 17.262 c 88.844 16.633 88.961 15.876 89.676
 15.227 c 90.391 14.579 91.469 14.251 92.617 13.692 c 91.156 13.856 89.621
 13.907 88.184 14.223 c 87.121 14.458 86.406 14.708 85.629 15.09 c 84.848
 15.477 84.25 16.04 83.559 16.512 c 83.891 15.883 83.988 15.141 84.551 14.622
 c 85.113 14.102 86.023 13.907 86.766 13.551 c 85.992 13.567 85.254 13.399
 84.453 13.602 c 83.656 13.801 82.906 14.118 82.074 14.731 c 81.242 15.34
 80.387 16.094 79.676 16.864 c 78.969 17.637 78.094 18.633 77.828 19.344
 c 77.562 20.055 77.988 20.551 78.066 21.157 c 77.578 20.836 76.977 20.657
 76.602 20.192 c 76.227 19.723 75.891 19.297 76.059 18.485 c 76.223 17.672
 76.977 16.676 77.508 15.774 c 75.922 17.067 75.039 17.567 74.66 19.129 
c 74.309 20.59 75.219 21.919 75.914 23.024 c 76.258 23.575 76.773 24.086
 77.098 24.618 c 76.383 25.317 75.562 25.919 74.949 26.715 c 74.336 27.516
 74.078 28.594 73.453 29.36 c 72.828 30.122 71.984 30.606 71.254 31.231 
c 71.898 29.844 72.957 28.145 73.188 27.075 c 73.418 26.004 72.93 25.348
 72.547 24.77 c 72.168 24.192 71.555 24.059 70.973 23.704 c 70.391 23.348
 69.484 23.629 69.137 23.102 c 68.789 22.575 68.695 21.782 69.027 21.258
 c 70.387 19.11 l 69.887 19.364 69.023 20.098 68.633 20.622 c 68.246 21.145
 67.648 21.626 67.566 22.333 c 67.484 23.036 67.445 23.649 67.902 24.278
 c 68.359 24.907 69.609 25.118 70.172 25.598 c 70.73 26.083 71.047 26.395
 71.012 27.02 c 70.98 27.645 70.371 28.09 69.848 28.485 c 68.246 29.684 
66.191 30.794 64.836 32.239 c 64.066 33.055 63.699 33.715 63.543 34.282 
c 63.391 34.844 63.551 35.286 63.934 35.977 c 64.316 36.672 65.625 37.598
 65.781 38.352 c 65.941 39.106 65.281 39.266 64.684 39.532 c 64.09 39.797
 62.957 39.395 62.402 39.86 c 61.848 40.321 62.566 41.294 61.941 41.825 
c 61.316 42.356 59.891 42.059 59.156 42.633 c 58.418 43.208 58.113 43.919
 57.859 44.751 c 57.609 45.583 57.578 46.493 57.75 47.094 c 57.922 47.696
 58.438 47.801 58.75 48.114 c 59.062 48.426 59.332 48.684 58.918 49.149 
c 58.504 49.614 57.141 49.126 56.359 49.723 c 55.578 50.317 56.055 51.751
 55.504 52.352 c 54.949 52.958 53.957 52.719 53.434 52.911 c 52.91 53.106
 52.703 52.426 52.383 53.501 c 52.062 54.575 52.055 57.782 51.621 58.977
 c 51.188 60.172 50.34 59.059 49.945 60.247 c 49.551 61.434 49.926 63.336
 49.746 65.133 c 48.945 70.016 l 46.137 68.133 44.285 67.54 41.273 67.008
 c 41.02 59.633 40.328 55.29 42.832 47.106 c 45.332 38.926 50.398 34.102
 57.234 27.176 c 48.215 33.934 43.91 39.426 41.215 46.461 c 38.52 53.501
 39.039 59.383 39.309 66.161 c h
39.309 66.161 m f
0 g
39.309 66.161 m 38.434 66.102 37.293 65.708 36.527 64.336 c 35.902 63.215
 34.438 63.04 33.754 63.262 c 32.617 63.641 31.16 63.899 29.75 62.895 c 
28.34 61.891 26.82 62.653 27.086 64.481 c 27.352 66.313 28.016 67.942 29.77
 68.954 c 33.602 71.157 30.938 72.692 33.043 74.907 c 35.152 77.122 34.684
 77.801 34.613 80.813 c 27.492 81.883 23.453 83.938 18.945 89.571 c 14.434
 95.204 12.688 99.84 12.219 106.903 c 11.754 113.965 12.156 118.544 15.207
 124.407 c 18.262 130.27 21.473 133.094 27.043 136.02 c 32.609 138.946 38.066
 139.649 43.105 139.563 c 48.148 139.477 51.512 139.11 54.359 137.481 c 
57.207 135.856 59.816 133.809 61.477 133.797 c 63.137 133.782 64.27 134.215
 65.078 134.836 c 65.293 129.36 60.363 128.883 55.957 128.77 c 51.547 128.653
 48.84 130.477 44.777 129.797 c 40.719 129.122 34.07 127.274 30.832 121.637
 c 27.594 116.001 27.484 114.004 27.754 109.278 c 28.02 104.551 32.09 101.024
 34.387 100.985 c 36.684 100.95 37.195 101.614 39.207 102.922 c 41.219 104.235
 51.48 116.942 54.98 119.794 c 58.484 122.649 61.941 123.528 65.672 123.575
 c 69.402 123.622 70.359 123.497 73.367 122.262 c 76.375 121.028 78.227 
118.758 80.652 117.368 c 81.895 118.098 82.664 119.188 83.801 120.02 c 87.871
 122.993 89.988 123.797 94.824 123.325 c 97.605 123.055 101.109 121.465 
103.203 119.649 c 106.926 116.411 110.004 111.899 112.488 108.477 c 114.426
 105.809 116.703 102.618 119.957 101.618 c 123.508 100.528 126.18 105.129
 126.574 107.68 c 126.797 109.126 127.086 110.395 127.09 111.985 c 127.09
 113.575 126.93 115.508 126.469 117.165 c 126.012 118.825 125.227 120.473
 124.375 121.844 c 122.988 124.071 120.723 126.399 118.367 127.598 c 117.043
 128.274 113.93 129.497 111.969 129.54 c 109.566 129.59 107.734 128.782 
105.512 128.633 c 102.82 128.45 98.016 127.844 95.906 129.922 c 94.562 131.247
 94.395 132.126 94.164 133.852 c 94.758 133.364 95.586 133.044 96.324 132.981
 c 98.012 132.836 99.586 134.211 100.949 135.008 c 102.066 135.669 103.652
 136.84 105.125 137.434 c 108.906 138.958 113.551 138.915 117.539 138.504
 c 120.738 138.176 124.887 136.754 127.691 135.169 c 130.512 133.575 133.227
 130.883 135.215 128.348 c 137.719 125.161 139.086 122.426 139.992 118.446
 c 141.152 113.368 141.473 105.739 140.074 100.731 c 138.969 96.782 135.305
 90.719 132.184 87.751 c 129.105 84.817 125.551 83.403 121.512 82.629 c 
121.668 81.813 121.695 81.051 121.902 80.383 c 122.199 79.434 122.77 78.376
 123.938 78.711 c 124.402 78.844 124.648 78.961 125.266 78.422 c 125.879
 77.887 125.559 75.813 123.832 74.883 c 122.957 74.411 122.031 74.309 120.633
 74.278 c 119.23 74.251 117.043 74.247 115.52 74.512 c 114 74.778 113.09
 75.985 111.406 76.176 c 108.801 76.465 106.809 78.348 104.719 79.692 c 
103.848 80.254 103.555 80.262 103.051 80.544 c 103.324 79.715 103.684 78.852
 103.863 78.051 c 104.047 77.254 103.969 76.516 104.062 75.876 c 104.16 
75.239 104.336 74.739 104.441 74.223 c 104.855 73.848 104.992 73.282 105.691
 73.102 c 106.395 72.926 107.492 73.204 108.207 73.301 c 108.926 73.395 
109.406 73.786 109.969 73.68 c 110.531 73.575 111.066 73.169 111.539 72.794
 c 112.012 72.415 112.418 72.36 112.797 71.415 c 113.18 70.473 113.531 68.544
 113.582 67.251 c 113.637 65.961 113.492 64.797 113.109 63.77 c 112.727 
62.747 112.391 62.294 111.352 61.278 c 110.316 60.262 108.633 58.774 106.949
 57.739 c 107.258 57.278 107.395 56.86 107.879 56.36 c 108.363 55.864 109.371
 55.305 109.816 54.778 c 110.266 54.254 110.492 53.876 110.5 53.29 c 110.508
 52.7 110.477 51.934 110 51.29 c 108.809 49.692 107.398 49.403 105.684 48.653
 c 105.973 46.852 106.207 45.567 105.793 43.77 c 105.621 43.036 105.242 
41.376 104.34 40.95 c 103.438 40.524 101.695 40.731 100.594 40.555 c 99.488
 40.379 98.875 40.215 98.012 40.044 c 97.492 39.29 96.715 38.458 96.445 
37.778 c 96.18 37.102 96.262 36.86 96.484 36.169 c 96.707 35.477 97.473 
34.469 97.688 33.661 c 97.902 32.852 97.945 31.981 97.742 31.169 c 97.543
 30.36 97.195 29.77 96.504 29.047 c 95.812 28.329 94.453 27.762 93.773 27.176
 c 93.098 26.594 92.422 26.524 92.605 25.555 c 92.863 24.227 94.801 22.075
 96.207 21.563 c 97.047 21.254 98.176 21.352 99.195 21.782 c 99.129 20.649
 98.145 19.883 97.504 19.129 c 99.242 19.629 100.926 20.579 102.09 21.84
 c 101.73 20.743 100.484 18.989 98.629 17.446 c 96.77 15.903 96.781 16.219
 95.855 15.602 c 97.543 15.266 99.109 15.356 100.414 15.59 c 99.699 15.196
 98.527 14.641 96.973 14.477 c 95.418 14.317 94.457 14.43 93.055 14.77 c
 91.656 15.11 90.375 16.383 88.68 17.262 c 88.844 16.633 88.961 15.876 89.676
 15.227 c 90.391 14.579 91.469 14.251 92.617 13.692 c 91.156 13.856 89.621
 13.907 88.184 14.223 c 87.121 14.458 86.406 14.708 85.629 15.09 c 84.848
 15.477 84.25 16.04 83.559 16.512 c 83.891 15.883 83.988 15.141 84.551 14.622
 c 85.113 14.102 86.023 13.907 86.766 13.551 c 85.992 13.567 85.254 13.399
 84.453 13.602 c 83.656 13.801 82.906 14.118 82.074 14.731 c 81.242 15.34
 80.387 16.094 79.676 16.864 c 78.969 17.637 78.094 18.633 77.828 19.344
 c 77.562 20.055 77.988 20.551 78.066 21.157 c 77.578 20.836 76.977 20.657
 76.602 20.192 c 76.227 19.723 75.891 19.297 76.059 18.485 c 76.223 17.672
 76.977 16.676 77.508 15.774 c 75.922 17.067 75.039 17.567 74.66 19.129 
c 74.309 20.59 75.219 21.919 75.914 23.024 c 76.258 23.575 76.773 24.086
 77.098 24.618 c 76.383 25.317 75.562 25.919 74.949 26.715 c 74.336 27.516
 74.078 28.594 73.453 29.36 c 72.828 30.122 71.984 30.606 71.254 31.231 
c 71.898 29.844 72.957 28.145 73.188 27.075 c 73.418 26.004 72.93 25.348
 72.547 24.77 c 72.168 24.192 71.555 24.059 70.973 23.704 c 70.391 23.348
 69.484 23.629 69.137 23.102 c 68.789 22.575 68.695 21.782 69.027 21.258
 c 70.387 19.11 l 69.887 19.364 69.023 20.098 68.633 20.622 c 68.246 21.145
 67.648 21.626 67.566 22.333 c 67.484 23.036 67.445 23.649 67.902 24.278
 c 68.359 24.907 69.609 25.118 70.172 25.598 c 70.73 26.083 71.047 26.395
 71.012 27.02 c 70.98 27.645 70.371 28.09 69.848 28.485 c 68.246 29.684 
66.191 30.794 64.836 32.239 c 64.066 33.055 63.699 33.715 63.543 34.282 
c 63.391 34.844 63.551 35.286 63.934 35.977 c 64.316 36.672 65.625 37.598
 65.781 38.352 c 65.941 39.106 65.281 39.266 64.684 39.532 c 64.09 39.797
 62.957 39.395 62.402 39.86 c 61.848 40.321 62.566 41.294 61.941 41.825 
c 61.316 42.356 59.891 42.059 59.156 42.633 c 58.418 43.208 58.113 43.919
 57.859 44.751 c 57.609 45.583 57.578 46.493 57.75 47.094 c 57.922 47.696
 58.438 47.801 58.75 48.114 c 59.062 48.426 59.332 48.684 58.918 49.149 
c 58.504 49.614 57.141 49.126 56.359 49.723 c 55.578 50.317 56.055 51.751
 55.504 52.352 c 54.949 52.958 53.957 52.719 53.434 52.911 c 52.91 53.106
 52.703 52.426 52.383 53.501 c 52.062 54.575 52.055 57.782 51.621 58.977
 c 51.188 60.172 50.34 59.059 49.945 60.247 c 49.551 61.434 49.926 63.336
 49.746 65.133 c 48.945 70.016 l 46.137 68.133 44.285 67.54 41.273 67.008
 c 41.02 59.633 40.328 55.29 42.832 47.106 c 45.332 38.926 50.398 34.102
 57.234 27.176 c 48.215 33.934 43.91 39.426 41.215 46.461 c 38.52 53.501
 39.039 59.383 39.309 66.161 c h
87.23 69.126 m 87.922 69.094 88.766 68.919 89.254 68.602 c 89.742 68.286
 90.258 68.028 90.699 67.575 c 91.805 66.454 92.633 65.098 92.996 63.54 
c 93.23 62.547 93.266 61.274 93.352 60.11 c 93.016 61.184 92.793 62.309 
92.316 63.274 c 91.566 64.797 90.289 66.282 88.707 66.965 c 88.188 67.192
 87.836 67.149 87.551 67.11 c 87.68 66.895 87.895 66.715 87.902 66.399 c
 87.914 66.083 87.844 65.461 87.305 65.204 c 86.441 64.786 85.48 65.079 
84.812 65.669 c 84.141 66.262 83.91 67.27 84.262 68.133 c 84.684 69.165 
86.281 69.169 87.23 69.126 c h
78.531 70.59 m 78.617 72.364 79.258 73.856 80.844 74.723 c 81.664 75.172
 82.93 75.754 84.09 75.891 c 85.207 76.024 87.922 75.926 89.559 75.18 c 
90.812 74.61 91.664 73.719 92.766 73.067 c 93.867 72.415 94.652 71.977 95.699
 71.247 c 97.309 70.126 98.254 68.891 99.367 68.149 c 99.906 67.794 100.66
 67.848 101.371 67.629 c 100.816 67.465 100.094 67.282 99.496 67.473 c 98.75
 67.711 97.711 68.395 97.133 68.883 c 96.109 69.747 95.582 70.165 94.465
 70.817 c 93.801 71.204 92.703 71.661 91.973 72.137 c 91.242 72.618 89.969
 73.665 89.266 74.016 c 88.375 74.465 86.762 74.719 85.77 74.688 c 84.398
 74.649 82.414 74.422 81.352 73.458 c 80.297 72.501 79.898 71.661 80.133
 70.419 c 80.531 70.876 80.797 71.45 81.195 71.79 c 82.016 72.493 82.961
 72.528 83.988 72.395 c 85.141 72.243 85.719 71.579 86.102 70.485 c 85.844
 70.672 85.375 71.086 85.004 71.215 c 84.129 71.516 83.469 71.422 82.652
 70.985 c 81.688 70.465 81.949 69.7 81.812 68.848 c 81.75 68.458 81.602 
68.141 81.496 67.786 c 81.133 67.879 80.797 68.032 80.523 68.305 c 80.531
 67.907 80.477 67.559 80.559 67.11 c 80.637 66.665 80.855 66.133 81.004 
65.641 c 80.332 66.313 79.645 66.938 79.211 67.809 c 78.777 68.676 78.484
 69.637 78.531 70.59 c h
79.691 83.485 m 80.188 84.219 80.332 85.344 80.637 86.262 c 80.516 85.102
 80.75 83.825 80.184 82.985 c 79.617 82.145 78.621 82.29 77.797 82.047 c
 78.438 82.536 79.195 82.751 79.691 83.485 c h
67.84 66.274 m 68.477 66.786 70.191 66.376 71.473 66.286 c 70.551 66.047
 69.629 65.813 68.707 65.575 c 68.621 65.262 68.66 64.903 68.449 64.633 
c 68.238 64.368 67.84 64.266 67.535 64.086 c 67.562 64.911 67.203 65.758
 67.84 66.274 c h
76.879 102.016 m 77.648 101.606 78.617 101.059 79.297 101.044 c 79.973 
101.024 80.148 101.485 80.547 101.751 c 81.172 99.708 81.891 97.465 82.957
 95.614 c 83.402 94.836 83.688 95.2 84.027 94.419 c 84.367 93.637 84.52 
92.051 84.84 91.055 c 85.16 90.059 85.582 89.325 85.953 88.461 c 85.012 
89.797 83.793 91.501 83.27 92.61 c 82.742 93.723 83.078 93.817 82.652 94.876
 c 82.23 95.934 81.371 97.583 80.727 98.938 c 80.27 98.876 79.699 98.794
 79.352 98.903 c 79 99.008 79.07 99.379 78.754 99.622 c 78.438 99.86 77.906
 99.77 77.465 100.153 c 77.023 100.536 76.922 101.321 76.879 102.016 c h
72.758 91.946 m 73.477 92.008 74.371 91.813 75.047 91.852 c 75.723 91.891
 76.203 92.067 76.781 92.172 c 76.676 93.188 76.777 95.059 75.84 95.735 
c 75.234 96.176 72.742 95.844 72.078 95.7 c 70.582 95.379 68.84 94.485 67.391
 93.926 c 68.777 94.895 69.977 95.794 71.641 96.294 c 72.641 96.594 74.973
 96.985 76.008 96.708 c 76.477 96.579 76.574 96.383 76.859 95.985 c 77.84
 94.614 77.836 93.426 78.094 91.829 c 78.344 91.438 78.609 91.18 78.812 
90.778 c 79.016 90.376 79.129 89.739 79.188 89.223 c 78.93 89.594 79.086
 90.063 78.375 90.34 c 77.664 90.618 76.57 90.36 75.613 90.258 c 76.312 
89.754 76.66 89.266 76.688 88.2 c 76.719 86.946 75.656 86.044 74.547 85.958
 c 73.008 85.836 72.215 86.176 71.594 87.493 c 71.32 88.067 71.52 88.758
 71.496 89.321 c 69.648 89.192 69.68 89.254 68.328 88.126 c 69.062 87.051
 69.523 86.43 70.738 85.79 c 71.418 85.426 72.188 85.075 73.031 84.934 c
 73.875 84.79 75.258 84.649 76.145 84.786 c 77.031 84.922 77.535 85.176 
78.191 85.782 c 78.848 86.391 78.906 87.262 79.164 87.95 c 79.105 87.286
 79.031 86.442 78.785 85.961 c 78.035 84.504 76.742 84.071 75.199 84.067
 c 73.719 84.059 71.887 84.403 70.508 84.973 c 69.406 85.43 67.578 86.723
 67.145 87.848 c 66.848 88.618 67.082 89.559 67.051 90.415 c 68.578 91.43
 68.957 91.18 70.762 91.477 c 71.516 91.602 72.035 91.879 72.758 91.946 
c h
63.867 98.817 m 63.91 99.426 63.977 99.411 64.031 99.711 c 62.641 100.083
 62.086 99.18 61.27 97.504 c 60.965 96.879 61.266 96.504 60.938 96.094 c
 60.613 95.68 60.086 95.739 59.555 95.34 c 59.023 94.946 58.5 94.188 58.004
 93.778 c 56.984 92.934 55.605 92.422 54.426 91.856 c 55.234 92.45 56.797
 93.352 57.305 94.215 c 57.574 94.676 57.535 95.54 57.953 95.954 c 58.371
 96.364 58.516 96.649 59.055 96.754 c 59.594 96.86 59.379 97.485 59.551 
97.985 c 59.727 98.481 60.074 98.833 60.441 99.329 c 60.812 99.829 61.277
 100.575 62.004 100.844 c 62.734 101.114 63.871 100.821 64.422 100.977 c
 64.973 101.133 64.656 101.536 65.055 101.774 c 65.457 102.016 66.238 101.911
 66.773 102.169 c 67.723 102.626 68.176 103.387 68.746 104.2 c 68.832 102.446
 68.809 101.18 68.18 99.528 c 67.469 97.669 66.746 96.575 64.73 95.43 c 
64.035 95.036 63.344 94.899 62.77 94.692 c 63.105 95.153 63.586 95.352 63.777
 96.067 c 63.969 96.786 63.824 98.208 63.867 98.817 c h
96.434 90.254 m 95.473 90.192 95.246 90.317 94.48 89.778 c 94.895 89.129
 95.312 88.481 95.727 87.836 c 95.691 89.114 95.812 89.368 96.434 90.254
 c h
93.922 91.184 m 95.25 91.751 96.406 92.208 97.852 92.297 c 98.43 92.333
 99.328 92.243 99.914 92.215 c 100.414 92.95 101.047 93.528 101.281 94.368
 c 101.434 94.922 101.359 97.501 101.086 98.169 c 100.289 100.118 99.52 
100.2 98.426 101.313 c 97.633 102.122 97.598 103.356 97.363 104.735 c 97.273
 105.243 97.027 105.883 96.91 106.407 c 95.48 106.649 93.941 106.727 92.297
 106.645 c 93.094 107.411 93.867 108.11 94.094 109.258 c 94.324 110.407 
94.137 111.821 93.484 112.848 c 92.832 113.879 91.789 114.774 90.832 115.614
 c 89.875 116.454 88.504 117.145 87.594 117.833 c 88.773 118.254 89.98 118.876
 91.137 119.098 c 94.148 119.684 96.742 118.79 99.645 117.036 c 101.332 
116.012 102.73 115.044 104.496 113.196 c 106.262 111.348 108.449 107.958
 110.156 105.95 c 111.867 103.938 113.246 102.348 114.738 101.149 c 116.227
 99.95 117.578 99.61 118.996 98.84 c 121.211 96.489 l 123 98.704 l 125.883
 98.379 l 126.477 101.614 l 129.121 102.34 l 128.691 106.7 l 130.594 108.047
 l 129.164 110.762 l 130.613 113.727 l 128.723 117.114 l 129.453 120.376
 l 127.262 122.243 l 126.973 125.711 l 123.918 126.876 l 122.691 129.895
 l 119.254 129.934 l 117.566 132.172 l 115.254 132.008 l 112.672 132.29 
l 111.215 133.368 l 109.098 131.961 l 106.535 133.297 l 101.441 131.364 
l 104.762 134.251 l 108.203 134.801 l 110.836 135.473 l 114.395 134.305 
l 117.527 135.098 l 120.547 133.313 l 123.742 133.489 l 125.312 130.672 
l 128.496 130.305 l 130.219 127.172 l 132.219 126.079 l 132.75 122.067 l
 134.531 120.376 l 133.75 116.868 l 135.848 114.208 l 133.879 111.36 l 135.984
 109.579 l 133.293 107.196 l 136.02 104.356 l 132.727 103.294 l 134.871 
100.251 l 132.184 99.786 l 133.945 96.438 l 130.914 96.477 l 132.441 93.969
 l 129.117 94.372 l 129.914 90.762 l 127.402 92.973 l 126.539 88.602 l 124.809
 91.739 l 123.867 87.825 l 121.73 90.711 l 121.785 86.606 l 119.422 90.297
 l 119.922 88.204 119.82 85.911 121.195 83.934 c 125.461 84.512 128.246 
85.586 131.512 88.727 c 134.484 91.59 138.039 97.555 139.004 101.34 c 140.102
 105.661 140.137 113.606 139.055 118.001 c 138.012 122.235 136.66 124.258
 134.242 127.711 c 131.93 130.169 129.656 132.762 126.723 134.512 c 122.418
 137.083 116.895 137.774 111.988 137.708 c 109.27 137.669 107.449 137.149
 105.824 136.559 c 102.984 135.524 100.711 133.27 97.824 132.157 c 96.883
 131.794 96.129 131.782 95.387 132.18 c 96.113 130.727 96.902 130.075 98.715
 129.544 c 100.023 129.161 103.152 129.403 105.305 129.602 c 107.613 129.817
 108.82 130.504 111.965 130.461 c 115.035 130.419 117.469 129.251 118.801
 128.489 c 121.547 126.922 123.516 125.18 125.227 122.419 c 126.164 120.907
 126.824 119.196 127.285 117.45 c 127.75 115.708 127.953 113.754 127.984
 112.047 c 128.012 110.336 127.883 108.813 127.465 107.278 c 126.488 103.68
 124.332 100.02 119.906 100.583 c 117.195 100.93 113.113 106.016 111.742
 107.883 c 108.984 111.645 106.145 115.813 102.676 118.95 c 100.562 120.86
 97.668 122.176 94.824 122.434 c 89.488 122.922 87.906 121.911 83.895 118.602
 c 84.711 118.34 85.508 118.196 86.344 117.821 c 88.203 116.981 89.902 115.899
 91.383 114.512 c 92.934 113.059 93.633 112.137 93.688 110.055 c 93.723 
108.672 92.586 107.563 91.543 106.567 c 90.906 105.954 90.059 105.395 89.543
 104.922 c 88.859 104.294 88.012 103.606 88.871 102.602 c 89.195 102.227
 89.758 101.942 90.23 101.59 c 90.984 101.032 90.637 98.958 89.648 98.407
 c 88.379 97.704 86.863 97.782 85.82 98.723 c 87.137 98.922 87.977 99.094
 87.941 100.176 c 87.922 100.801 87.129 101.321 86.348 101.676 c 84.465 
102.536 83.039 102.411 81.168 103.758 c 79.273 105.122 79.23 105.868 78.719
 108.004 c 77.809 107.911 76.965 107.891 75.746 107.485 c 74.527 107.083
 73.176 106.122 72.07 105.883 c 69.277 105.282 68.723 105.458 67.195 105.856
 c 64.504 106.551 61.004 105.36 57.527 104.247 c 56.949 104.063 54.609 104.239
 53.035 103.688 c 50.602 102.833 47.191 100.77 45.219 99.11 c 42.234 96.594
 38.309 89.067 36.094 80.426 c 35.859 77.801 36.605 76.032 34.953 74.751
 c 33.297 73.465 33.344 70.18 32.781 69.258 c 32.223 68.336 31.574 68.743
 30.363 67.45 c 29.156 66.157 28.543 66.372 28.574 63.926 c 29.613 64.61
 31.133 65.403 32.465 65.454 c 33.645 65.497 33.656 63.942 36.684 66.934
 c 38.301 68.536 41.414 68.586 43.574 69.294 c 45.73 69.997 49.621 71.454
 53.516 75.809 c 57.414 80.165 59.277 84.751 60.035 91.379 c 60.152 90.204
 60.363 88.879 59.859 85.637 c 59.355 82.395 58.273 78.754 60.559 74.391
 c 61.98 71.672 l 61.133 72.829 59.477 74.719 58.98 76.063 c 57.828 79.165
 l 55.258 75.126 54.664 74.403 51.09 71.508 c 50.949 69.715 50.914 67.84
 51.5 66.126 c 52.086 64.407 51.152 62.426 51.598 61.294 c 52.047 60.165
 53.078 60.809 53.414 59.661 c 53.754 58.516 53.238 56.254 53.762 55.137
 c 54.285 54.02 55.566 54.696 56.188 54.336 c 56.812 53.977 57.016 53.481
 57.348 53.008 c 57.68 52.532 57.215 51.415 57.895 51.047 c 58.57 50.684
 59.625 50.993 60.328 50.645 c 61.031 50.294 61.137 49.454 60.969 48.7 c
 60.801 47.95 60.047 47.602 59.719 46.836 c 59.387 46.075 59.426 45.54 59.82
 44.836 c 60.219 44.133 61.094 43.747 61.969 43.391 c 62.844 43.04 64.074
 43.239 64.977 42.747 c 65.879 42.254 66.691 41.278 67.168 40.567 c 67.645
 39.86 67.777 39.356 67.754 38.61 c 67.73 37.864 67.426 37.004 67.027 36.282
 c 66.629 35.559 65.75 34.684 67.121 33.305 c 68.496 31.926 68.445 32.52
 69.23 31.629 c 69.145 33.172 68.508 34.434 68.973 35.598 c 69.441 36.758
 70.844 36.961 71.582 37.485 c 72.32 38.008 72.746 38.727 73.332 39.348 
c 73.32 38.551 73.406 37.692 73.316 37.09 c 73.133 35.864 72.77 34.778 74.594
 34.583 c 75.414 34.493 76.195 35.028 77.059 35.348 c 76.609 34.536 75.82
 33.883 75.703 32.915 c 75.582 31.942 75.727 30.876 76.398 29.915 c 77.07
 28.95 78.23 28.235 79.078 27.672 c 79.93 27.106 80.387 27.059 81.039 26.754
 c 81.07 25.797 80.883 24.79 80.992 23.891 c 81.102 22.993 81.383 22.196
 81.902 21.454 c 82.422 20.711 83.258 20.286 84.043 19.735 c 83.613 20.739
 82.738 21.688 82.75 22.743 c 82.762 23.797 83.078 24.544 84.105 25.477 
c 85.133 26.415 87.539 27.223 88.676 28.133 c 89.809 29.044 90.176 29.602
 90.582 30.485 c 90.988 31.368 90.875 32.79 90.953 33.583 c 91.324 32.469
 91.379 32.126 91.5 30.961 c 91.621 29.797 90.82 28.169 90.484 27.305 c 
91.887 27.985 92.777 29.067 93.227 30.126 c 93.527 29.946 93.375 29.458 
93.488 28.516 c 93.988 29.012 94.555 29.395 95.059 29.868 c 95.562 30.336
 96.117 30.747 96.367 31.403 c 96.617 32.059 96.512 32.754 96.328 33.516
 c 96.141 34.278 95.289 35.161 94.832 35.993 c 94.375 36.825 94.914 37.645
 94.883 38.645 c 93.965 38.805 93.188 39.27 92.133 39.118 c 91.078 38.969
 89.871 37.786 88.797 37.77 c 87.719 37.758 87.113 38.766 86.23 39.044 c
 85.348 39.321 84.453 39.29 83.566 39.415 c 84.691 40.493 89.055 41.004 
92.043 41.493 c 94.668 41.919 97.277 42.169 99.938 42.204 c 101.129 42.223
 102.656 41.829 103.48 42.067 c 104.309 42.305 104.129 42.868 104.375 43.481
 c 105.062 45.196 104.723 46.719 104.352 48.446 c 101.961 48.727 99.469 
49.071 97.062 48.883 c 94.707 48.704 91.922 47.586 89.492 47.508 c 87.383
 47.442 84.254 47.915 82.441 49.02 c 80.227 50.368 78.512 53.27 77.906 54.2
 c 76.914 55.715 75.664 58.692 74.902 60.051 c 74.145 61.411 73.977 61.794
 73.344 62.36 c 72.711 62.93 71.844 62.973 71.094 63.278 c 71.957 63.192
 72.902 63.465 73.688 63.012 c 74.867 62.336 76.184 59.532 76.918 58.313
 c 77.695 60.919 77.516 61.942 79.762 63.415 c 77.949 61.379 77.906 59.84
 77.465 57.45 c 78.973 54.977 81.066 51.036 83.809 49.942 c 84.801 49.547
 86.5 49.301 87.57 49.169 c 90.902 48.754 94.117 49.809 97.391 50.618 c 
99.781 51.211 102.211 50.973 105.121 50.801 c 106.105 50.743 108.438 51.336
 108.918 52.336 c 109.18 52.876 109.16 53.524 108.785 54.098 c 108.41 54.672
 107.414 54.95 106.879 55.465 c 106.344 55.985 106.035 56.598 105.617 57.165
 c 103.395 56.735 101.566 56.571 99.918 56.528 c 101.098 57.016 102.234 
57.294 103.465 57.774 c 104.695 58.258 106.094 59.047 107.09 59.704 c 108.082
 60.36 108.719 60.739 109.438 61.504 c 110.156 62.266 111.078 63.055 111.605
 63.989 c 112.137 64.922 112.219 65.965 112.25 67.122 c 112.277 68.278 112.23
 69.899 111.781 70.829 c 111.336 71.758 110.48 72.044 109.789 72.262 c 109.102
 72.481 108.629 71.926 107.91 71.852 c 107.191 71.774 106.52 71.325 105.484
 71.809 c 104.445 72.297 103.215 73.294 102.164 74.766 c 101.117 76.243 
100.367 78.653 99.297 80.508 c 97.453 83.704 95.156 86.692 92.957 89.653
 c 92.777 90.383 92.504 91.391 92.414 92.383 c 92.258 94.11 92.227 95.903
 92.762 97.586 c 93.176 98.876 93.773 100.239 95.121 100.766 c 95.66 100.981
 96.344 101.063 96.828 100.883 c 97.312 100.704 97.785 100.161 97.594 99.532
 c 97.387 98.836 96.906 98.821 96.582 98.469 c 96.027 97.876 95.805 97.442
 95.598 96.7 c 96.195 96.711 97.004 96.754 97.496 96.626 c 98.137 96.458
 98.734 96.032 99.059 95.126 c 98.293 95.805 97.914 96.114 96.957 96.137
 c 96.52 96.149 95.988 95.993 95.504 95.922 c 95.324 95.333 95.219 94.61
 94.961 94.157 c 94.707 93.7 94.211 93.809 94.023 93.278 c 93.836 92.747
 93.824 91.879 93.922 91.184 c h
100.605 91.981 m 100.898 91.864 101.008 91.84 101.379 91.559 c 101.75 91.274
 102.262 90.993 102.555 90.317 c 102.852 89.645 102.836 88.598 102.773 88.176
 c 102.516 88.251 102.164 88.2 101.898 88.426 c 101.629 88.657 101.469 89.176
 101.129 89.395 c 100.785 89.618 100.5 89.571 100.121 89.618 c 100.316 89.063
 100.41 88.512 100.32 88.008 c 100.121 86.911 99.48 86.356 98.434 86.227
 c 97.98 86.169 97.258 86.317 96.859 86.391 c 97.043 85.981 97.355 85.622
 97.539 85.211 c 98.422 85.336 99.074 85.321 99.551 85.544 c 100.023 85.762
 100.531 86.262 101.141 86.469 c 101.75 86.68 102.293 86.68 102.961 86.782
 c 102.434 86.329 102.09 85.879 101.566 85.426 c 101.949 84.309 102.336 
83.192 102.719 82.075 c 103.535 81.563 104.297 81.297 105.324 80.665 c 106.352
 80.036 107.582 78.911 108.922 78.297 c 110.258 77.68 111.055 77.348 112.453
 77.083 c 113.852 76.821 114.965 75.688 116.34 75.504 c 117.715 75.321 120.281
 75.282 121.344 75.387 c 122.547 75.504 124.109 76.126 124.25 77.446 c 123.242
 77.196 121.699 77.419 120.922 79.317 c 120.574 80.161 120.746 81.711 120.215
 82.708 c 119.688 83.704 118.953 84.024 118.07 85.254 c 117.191 86.481 115.75
 88.419 114.941 90.067 c 114.137 91.711 113.945 93.575 113.262 95.051 c 
112.578 96.524 111.547 97.715 110.746 98.852 c 109.004 101.336 107.598 103.036
 104.723 104.286 c 103.34 104.891 101.766 105.051 100.289 105.43 c 99.688
 105.161 98.863 104.864 98.715 104.161 c 98.57 103.458 98.852 102.419 99.359
 101.891 c 100.215 101.008 101.48 100.055 101.98 98.649 c 102.301 97.751
 102.391 94.731 102.113 93.911 c 101.828 93.063 101.16 92.547 100.605 91.981
 c h
100.883 84.836 m 100.613 84.606 100.41 84.368 99.98 84.176 c 99.555 83.985
 98.969 83.938 98.398 83.794 c 99.195 82.551 100.035 81.297 100.801 79.989
 c 101.566 78.68 102.227 77.251 102.957 75.883 c 102.926 76.669 102.969 
77.504 102.855 78.235 c 102.742 78.969 102.41 79.61 102.082 80.711 c 101.754
 81.809 101.348 83.305 100.883 84.836 c h
79.398 112.165 m 79.285 110.942 79.492 109.032 79.746 107.833 c 80.051 
106.399 80.34 105.657 81.504 104.794 c 83.633 103.211 84.992 103.481 86.633
 102.563 c 87.41 102.126 88.398 101.395 88.688 100.622 c 88.977 99.848 88.496
 99.012 87.906 98.68 c 88.938 98.528 90.098 99.692 89.613 100.887 c 89.375
 101.477 88.242 101.739 87.895 102.333 c 87.547 102.93 87.547 103.54 87.711
 104.145 c 88.008 105.231 90.16 106.219 90.918 107.079 c 92.09 108.403 92.539
 109.508 91.875 111.211 c 90.945 113.606 87.352 115.528 85.199 116.465 c
 84.211 116.895 83.66 116.926 82.891 117.157 c 84.465 116.235 86.125 115.501
 86.922 113.438 c 87.586 111.715 87.008 111.067 87.031 109.571 c 87.043 
108.876 87.957 108.528 88.363 108.086 c 88.719 107.708 88.688 107.422 88.406
 106.895 c 88.375 107.372 88.172 107.727 87.805 107.985 c 87.203 108.411
 86.555 108.321 86.234 109.196 c 85.746 110.524 86.715 111.786 85.629 113.282
 c 84.816 114.399 83.734 115.653 82.277 115.684 c 81.586 115.7 81.066 115.594
 80.332 115.376 c 79.348 116.559 l 79.324 116.575 l 77.328 118.399 75.961
 119.903 73.156 121.157 c 70.352 122.411 68.973 122.598 65.758 122.528 c
 62.543 122.458 59.352 122.188 55.629 118.977 c 51.906 115.766 42.312 103.473
 39.984 101.915 c 37.656 100.36 37.141 99.833 34.234 99.833 c 31.328 99.833
 26.789 103.946 26.613 109.083 c 26.434 114.223 26.363 116.051 29.938 122.243
 c 33.508 128.434 39.98 130.336 44.785 130.977 c 49.586 131.618 52.473 129.926
 56.023 129.919 c 59.578 129.911 63.09 130.524 64.125 133.348 c 63.617 133.047
 62.938 132.708 61.027 132.809 c 59.121 132.907 56.473 135.118 53.496 136.598
 c 50.516 138.079 47.203 138.254 42.953 138.333 c 38.703 138.415 33.402 
138.09 28.148 135.254 c 22.895 132.419 19.309 129.407 16.262 123.856 c 13.211
 118.305 12.758 113.774 13.25 107.051 c 13.738 100.329 15.812 95.333 19.805
 90.411 c 23.797 85.493 27.785 83.086 34.977 82.192 c 36.492 88.872 l 33.789
 84.993 l 33.855 89.305 l 31.41 86.27 l 30.336 90.387 l 28.355 87.086 l 
27.371 91.68 l 24.504 89.36 l 25.41 93.149 l 21.613 92.731 l 23.359 95.364
 l 19.895 95.325 l 21.91 98.84 l 18.836 99.329 l 21.285 102.528 l 17.523
 103.645 l 20.641 106.626 l 17.562 109.133 l 19.969 111.004 l 17.719 113.997
 l 20.121 116.79 l 19.223 120.477 l 21.262 122.254 l 21.867 126.469 l 24.156
 127.618 l 26.121 130.911 l 29.758 131.297 l 31.551 134.254 l 35.203 134.071
 l 38.656 135.946 l 42.234 135.114 l 46.301 136.34 l 49.312 135.633 l 53.242
 135.055 l 57.039 132.024 l 51.219 134.055 l 48.289 132.649 l 45.871 134.129
 l 44.203 132.997 l 41.254 132.7 l 38.613 132.872 l 36.684 130.52 l 32.754
 130.477 l 31.355 127.309 l 27.859 126.083 l 27.535 122.442 l 25.027 120.477
 l 25.863 117.047 l 23.699 113.489 l 25.359 110.376 l 23.727 107.524 l 25.898
 106.106 l 25.406 101.524 l 28.43 100.762 l 29.109 97.364 l 32.402 97.708
 l 34.449 95.376 l 36.977 97.848 l 41.586 100.145 43.484 101.43 47.078 105.317
 c 51.168 109.739 53.512 113.829 58.961 116.86 c 62.867 119.032 66.055 119.813
 70.445 119.055 c 74.562 118.344 75.945 115.872 78.98 113.266 c 79.301 113.848
 79.367 114.004 79.895 114.434 c 79.73 113.676 79.465 112.891 79.398 112.165
 c h
79.398 112.165 m f
Q Q
showpage
%%Trailer
%%EOF
