%!PS-Adobe-3.0
%%Creator: cairo 1.14.6 (http://cairographics.org)
%%CreationDate: Mon Aug 15 15:01:29 2016
%%Pages: 1
%%DocumentData: Clean7Bit
%%LanguageLevel: 2
%%DocumentMedia: 54x54mm 153 153 0 () ()
%%BoundingBox: 5 7 148 147
%%EndComments
%%BeginProlog
/languagelevel where
{ pop languagelevel } { 1 } ifelse
2 lt { /Helvetica findfont 12 scalefont setfont 50 500 moveto
  (This print job requires a PostScript Language Level 2 printer.) show
  showpage quit } if
/q { gsave } bind def
/Q { grestore } bind def
/cm { 6 array astore concat } bind def
/w { setlinewidth } bind def
/J { setlinecap } bind def
/j { setlinejoin } bind def
/M { setmiterlimit } bind def
/d { setdash } bind def
/m { moveto } bind def
/l { lineto } bind def
/c { curveto } bind def
/h { closepath } bind def
/re { exch dup neg 3 1 roll 5 3 roll moveto 0 rlineto
      0 exch rlineto 0 rlineto closepath } bind def
/S { stroke } bind def
/f { fill } bind def
/f* { eofill } bind def
/n { newpath } bind def
/W { clip } bind def
/W* { eoclip } bind def
/BT { } bind def
/ET { } bind def
/pdfmark where { pop globaldict /?pdfmark /exec load put }
    { globaldict begin /?pdfmark /pop load def /pdfmark
    /cleartomark load def end } ifelse
/BDC { mark 3 1 roll /BDC pdfmark } bind def
/EMC { mark /EMC pdfmark } bind def
/cairo_store_point { /cairo_point_y exch def /cairo_point_x exch def } def
/Tj { show currentpoint cairo_store_point } bind def
/TJ {
  {
    dup
    type /stringtype eq
    { show } { -0.001 mul 0 cairo_font_matrix dtransform rmoveto } ifelse
  } forall
  currentpoint cairo_store_point
} bind def
/cairo_selectfont { cairo_font_matrix aload pop pop pop 0 0 6 array astore
    cairo_font exch selectfont cairo_point_x cairo_point_y moveto } bind def
/Tf { pop /cairo_font exch def /cairo_font_matrix where
      { pop cairo_selectfont } if } bind def
/Td { matrix translate cairo_font_matrix matrix concatmatrix dup
      /cairo_font_matrix exch def dup 4 get exch 5 get cairo_store_point
      /cairo_font where { pop cairo_selectfont } if } bind def
/Tm { 2 copy 8 2 roll 6 array astore /cairo_font_matrix exch def
      cairo_store_point /cairo_font where { pop cairo_selectfont } if } bind def
/g { setgray } bind def
/rg { setrgbcolor } bind def
/d1 { setcachedevice } bind def
/cairo_set_page_size {
  % Change paper size, but only if different from previous paper size otherwise
  % duplex fails. PLRM specifies a tolerance of 5 pts when matching paper size
  % so we use the same when checking if the size changes.
  /setpagedevice where {
    pop currentpagedevice
    /PageSize known {
      2 copy
      currentpagedevice /PageSize get aload pop
      exch 4 1 roll
      sub abs 5 gt
      3 1 roll
      sub abs 5 gt
      or
    } {
      true
    } ifelse
    {
      2 array astore
      2 dict begin
        /PageSize exch def
        /ImagingBBox null def
      currentdict end
      setpagedevice
    } {
      pop pop
    } ifelse
  } {
    pop
  } ifelse
} def
%%EndProlog
%%BeginSetup
%%EndSetup
%%Page: 1 1
%%BeginPageSetup
%%PageMedia: 54x54mm
%%PageBoundingBox: 5 7 148 147
154 154 cairo_set_page_size
%%EndPageSetup
q 5 7 143 140 rectclip q
1 0 0 rg
0.345836 w
0 J
0 j
[] 0.0 d
4 M q 1 0 0 -1 0 153.070862 cm
40.988 7.57 m 35.84 7.707 30.016 8.758 24.215 11.809 c 18.086 15.031 13.367
 19.254 9.895 25.93 c 6.359 32.719 5.738 39.102 6.234 46.566 c 6.754 54.426
 9.211 60.91 14.246 67.199 c 17.883 71.746 22.16 74.672 27.129 76.449 c 
26.563 77.727 26.41 78.523 26.293 79.332 c 23.066 81.469 21.539 85.141 21.16
 87.719 c 20.875 89.688 21.281 92.176 22.918 94.059 c 24.555 95.945 27.207
 96.777 29.375 96.508 c 30.238 96.402 30.898 96.176 31.422 95.961 c 31.695
 95.852 31.957 95.68 32.227 95.531 c 32.625 95.625 33.055 95.715 33.18 95.73
 c 33.188 95.73 33.199 95.73 33.207 95.73 c 33.328 99.785 33.805 104.043
 35.602 108.73 c 38.684 116.777 44.086 123.496 53.613 130.633 c 54.324 131.164
 55.16 131.531 56.035 131.699 c 65.199 137.492 l 65.758 138.051 66.285 138.559
 67.648 139.25 c 68.449 139.652 69.344 139.871 70.242 139.883 c 72.402 140.777
 l 72.824 141.121 73.313 141.605 73.672 141.898 c 74.918 142.922 76.594 
143.402 78.195 143.195 c 79.895 143.891 l 79.926 143.832 l 80.926 144.387
 81.965 144.965 82.949 145.215 c 83.996 145.477 84.961 145.535 85.805 145.504
 c 86.566 145.473 86.813 145.449 86.582 145.445 c 87.418 145.465 88.262 
145.309 89.031 144.984 c 90.188 145.113 91.281 145.199 91.914 145.273 c 
93.121 145.398 94.367 145.145 95.43 144.551 c 95.613 144.555 95.789 144.586
 95.977 144.582 c 96.352 144.574 96.914 144.563 97.563 144.496 c 100.23 
144.215 102.254 143.223 103.238 142.68 c 105.516 141.418 106.762 138.543
 106.121 136.02 c 106.703 135.137 107.293 134.277 107.68 133.109 c 108.234
 131.426 107.988 129.496 107.023 128.008 c 106.059 126.523 104.398 125.508
 102.633 125.328 c 102.977 124.668 103.305 124 103.469 123.34 c 103.922 
121.516 103.801 119.848 103.441 118.297 c 103.73 118.273 104.043 118.246
 104.305 118.211 c 105.141 118.094 105.961 117.863 106.813 117.461 c 108.133
 116.84 108.996 116.031 109.695 115.07 c 109.711 115.051 110.012 114.66 
110.359 114.004 c 111.258 112.297 111.449 111.051 111.539 110.66 c 111.758
 109.715 111.742 108.891 111.77 108.039 c 112.785 107.375 113.848 106.488
 114.711 105.328 c 116.52 102.898 116.395 100.508 116.383 99.707 c 116.383
 99.699 116.383 99.688 116.383 99.68 c 116.359 98.414 115.859 97.195 115.316
 96.164 c 115.359 96.121 115.418 96.059 115.461 96.02 c 116.645 94.859 118.039
 92.961 118.629 91.379 c 119.375 89.379 119.539 87.422 119.465 85.586 c 
119.453 85.281 119.395 85.012 119.379 84.723 c 119.82 84.715 120.344 84.73
 120.703 84.723 c 122.352 84.688 124.527 84.52 126.613 83.398 c 128.977 
82.121 130.422 80.051 131.051 77.977 c 131.367 76.941 131.535 75.891 131.398
 74.637 c 131.352 74.238 131.18 73.746 131.051 73.281 c 132.867 72.313 134.625
 71.156 136.238 69.621 c 140.617 65.449 144.156 59.629 145.75 53.941 c 147.633
 47.215 147.145 39.402 145.75 33.277 c 144.684 28.605 142.703 24.707 139.84
 21.059 c 137.496 18.074 134.488 14.938 130.59 12.73 c 126.918 10.652 122.504
 9.09 118.082 8.637 c 113.648 8.184 108.219 7.977 102.867 10.137 c 100.254
 11.191 98.48 12.598 97.91 12.934 c 96.855 13.551 96.801 13.613 96.523 13.797
 c 94.609 12.949 92.242 13.215 90.563 14.469 c 88.883 15.723 87.957 17.914
 88.227 19.992 c 88.367 21.063 88.82 22.637 89.551 24.172 c 86.301 24.789
 83.262 26.121 80.473 28.121 c 79.23 27.191 77.668 26.156 75.574 25.297 
c 73.516 24.453 71.523 24.043 69.434 23.797 c 70.398 22.023 71.043 20.031
 70.961 18.004 c 70.879 15.949 69.645 13.98 67.836 13.008 c 66.023 12.035
 63.699 12.098 61.941 13.164 c 61.746 13.098 61.621 13.074 61.336 12.902
 c 60.355 12.328 58.922 11.383 57.242 10.426 c 52.984 7.996 48.434 7.66 
43.152 7.57 c 42.488 7.563 41.773 7.551 40.988 7.57 c h
61.48 13.336 m 61.633 13.336 61.543 13.332 61.652 13.336 c 61.652 13.344
 61.652 13.355 61.652 13.363 c 61.625 13.359 61.664 13.336 61.48 13.336 
c h
97.188 125.676 m 97.191 125.676 97.211 125.676 97.215 125.676 c 97.148 
125.703 97.082 125.73 97.016 125.762 c 97.066 125.734 97.094 125.684 97.188
 125.676 c h
97.188 125.676 m S Q
Q Q
showpage
%%Trailer
%%EOF
